%!PS-Adobe-3.0
%%Creator: graphviz version 2.38.0 (20140413.2041)
%%Title: KDE Frameworks 5.10.0
%%Pages: (atend)
%%BoundingBox: (atend)
%%EndComments
save
%%BeginProlog
/DotDict 200 dict def
DotDict begin

/setupLatin1 {
mark
/EncodingVector 256 array def
 EncodingVector 0

ISOLatin1Encoding 0 255 getinterval putinterval
EncodingVector 45 /hyphen put

% Set up ISO Latin 1 character encoding
/starnetISO {
        dup dup findfont dup length dict begin
        { 1 index /FID ne { def }{ pop pop } ifelse
        } forall
        /Encoding EncodingVector def
        currentdict end definefont
} def
/Times-Roman starnetISO def
/Times-Italic starnetISO def
/Times-Bold starnetISO def
/Times-BoldItalic starnetISO def
/Helvetica starnetISO def
/Helvetica-Oblique starnetISO def
/Helvetica-Bold starnetISO def
/Helvetica-BoldOblique starnetISO def
/Courier starnetISO def
/Courier-Oblique starnetISO def
/Courier-Bold starnetISO def
/Courier-BoldOblique starnetISO def
cleartomark
} bind def

%%BeginResource: procset graphviz 0 0
/coord-font-family /Times-Roman def
/default-font-family /Times-Roman def
/coordfont coord-font-family findfont 8 scalefont def

/InvScaleFactor 1.0 def
/set_scale {
       dup 1 exch div /InvScaleFactor exch def
       scale
} bind def

% styles
/solid { [] 0 setdash } bind def
/dashed { [9 InvScaleFactor mul dup ] 0 setdash } bind def
/dotted { [1 InvScaleFactor mul 6 InvScaleFactor mul] 0 setdash } bind def
/invis {/fill {newpath} def /stroke {newpath} def /show {pop newpath} def} bind def
/bold { 2 setlinewidth } bind def
/filled { } bind def
/unfilled { } bind def
/rounded { } bind def
/diagonals { } bind def
/tapered { } bind def

% hooks for setting color 
/nodecolor { sethsbcolor } bind def
/edgecolor { sethsbcolor } bind def
/graphcolor { sethsbcolor } bind def
/nopcolor {pop pop pop} bind def

/beginpage {	% i j npages
	/npages exch def
	/j exch def
	/i exch def
	/str 10 string def
	npages 1 gt {
		gsave
			coordfont setfont
			0 0 moveto
			(\() show i str cvs show (,) show j str cvs show (\)) show
		grestore
	} if
} bind def

/set_font {
	findfont exch
	scalefont setfont
} def

% draw text fitted to its expected width
/alignedtext {			% width text
	/text exch def
	/width exch def
	gsave
		width 0 gt {
			[] 0 setdash
			text stringwidth pop width exch sub text length div 0 text ashow
		} if
	grestore
} def

/boxprim {				% xcorner ycorner xsize ysize
		4 2 roll
		moveto
		2 copy
		exch 0 rlineto
		0 exch rlineto
		pop neg 0 rlineto
		closepath
} bind def

/ellipse_path {
	/ry exch def
	/rx exch def
	/y exch def
	/x exch def
	matrix currentmatrix
	newpath
	x y translate
	rx ry scale
	0 0 1 0 360 arc
	setmatrix
} bind def

/endpage { showpage } bind def
/showpage { } def

/layercolorseq
	[	% layer color sequence - darkest to lightest
		[0 0 0]
		[.2 .8 .8]
		[.4 .8 .8]
		[.6 .8 .8]
		[.8 .8 .8]
	]
def

/layerlen layercolorseq length def

/setlayer {/maxlayer exch def /curlayer exch def
	layercolorseq curlayer 1 sub layerlen mod get
	aload pop sethsbcolor
	/nodecolor {nopcolor} def
	/edgecolor {nopcolor} def
	/graphcolor {nopcolor} def
} bind def

/onlayer { curlayer ne {invis} if } def

/onlayers {
	/myupper exch def
	/mylower exch def
	curlayer mylower lt
	curlayer myupper gt
	or
	{invis} if
} def

/curlayer 0 def

%%EndResource
%%EndProlog
%%BeginSetup
14 default-font-family set_font
1 setmiterlimit
% /arrowlength 10 def
% /arrowwidth 5 def

% make sure pdfmark is harmless for PS-interpreters other than Distiller
/pdfmark where {pop} {userdict /pdfmark /cleartomark load put} ifelse
% make '<<' and '>>' safe on PS Level 1 devices
/languagelevel where {pop languagelevel}{1} ifelse
2 lt {
    userdict (<<) cvn ([) cvn load put
    userdict (>>) cvn ([) cvn load put
} if

%%EndSetup
setupLatin1
%%Page: 1 1
%%PageBoundingBox: 36 36 576 312
%%PageOrientation: Portrait
0 0 1 beginpage
gsave
36 36 540 276 boxprim clip newpath
0.262156 0.262156 set_scale 0 rotate 141.323 141.323 translate
% GOD
gsave
grestore
% extra-cmake-modules
gsave
1 setlinewidth
0 0 0 nodecolor
1074.8 954 87.99 18 ellipse_path stroke
0 0 0 nodecolor
14 /Times-Roman set_font
1015.3 950.3 moveto 119 (extra-cmake-modules) alignedtext
grestore
% GOD->extra-cmake-modules
gsave
grestore
% kapidox
gsave
1 setlinewidth
0 0 0 nodecolor
1219.8 954 38.99 18 ellipse_path stroke
0 0 0 nodecolor
14 /Times-Roman set_font
1197.8 950.3 moveto 44 (kapidox) alignedtext
grestore
% GOD->kapidox
gsave
grestore
% ki18n
gsave
1 setlinewidth
0 0 0 nodecolor
316.8 882 30.59 18 ellipse_path stroke
0 0 0 nodecolor
14 /Times-Roman set_font
301.3 878.3 moveto 31 (ki18n) alignedtext
grestore
% extra-cmake-modules->ki18n
gsave
1 setlinewidth
0 0 0 edgecolor
newpath 989.34 949.72 moveto
826.85 942.97 479.13 925.95 361.8 900 curveto
357.96 899.15 354.02 898.04 350.13 896.79 curveto
stroke
0 0 0 edgecolor
newpath 351.29 893.49 moveto
340.7 893.48 lineto
348.97 900.1 lineto
closepath fill
1 setlinewidth
solid
0 0 0 edgecolor
newpath 351.29 893.49 moveto
340.7 893.48 lineto
348.97 900.1 lineto
closepath stroke
grestore
% sonnet
gsave
1 setlinewidth
0 0 0 nodecolor
33.8 666 33.6 18 ellipse_path stroke
0 0 0 nodecolor
14 /Times-Roman set_font
15.8 662.3 moveto 36 (sonnet) alignedtext
grestore
% extra-cmake-modules->sonnet
gsave
1 setlinewidth
0 0 0 edgecolor
newpath 987.45 952.03 moveto
800.22 949.22 365.74 938.63 223.8 900 curveto
155.52 881.42 127.15 882.32 81.8 828 curveto
49.41 789.21 38.88 729.18 35.45 694.43 curveto
stroke
0 0 0 edgecolor
newpath 38.91 693.76 moveto
34.57 684.1 lineto
31.93 694.36 lineto
closepath fill
1 setlinewidth
solid
0 0 0 edgecolor
newpath 38.91 693.76 moveto
34.57 684.1 lineto
31.93 694.36 lineto
closepath stroke
grestore
% modemmanager-qt
gsave
1 setlinewidth
0 0 0 nodecolor
1530.8 882 78.79 18 ellipse_path stroke
0 0 0 nodecolor
14 /Times-Roman set_font
1478.3 878.3 moveto 105 (modemmanager-qt) alignedtext
grestore
% extra-cmake-modules->modemmanager-qt
gsave
1 setlinewidth
0 0 0 edgecolor
newpath 1138.13 941.53 moveto
1149.34 939.61 1160.9 937.69 1171.8 936 curveto
1289.68 917.7 1319.98 918.73 1437.8 900 curveto
1445.75 898.74 1454.07 897.33 1462.32 895.89 curveto
stroke
0 0 0 edgecolor
newpath 1463.09 899.31 moveto
1472.33 894.11 lineto
1461.87 892.41 lineto
closepath fill
1 setlinewidth
solid
0 0 0 edgecolor
newpath 1463.09 899.31 moveto
1472.33 894.11 lineto
1461.87 892.41 lineto
closepath stroke
grestore
% kcoreaddons
gsave
1 setlinewidth
0 0 0 nodecolor
1074.8 882 55.49 18 ellipse_path stroke
0 0 0 nodecolor
14 /Times-Roman set_font
1040.3 878.3 moveto 69 (kcoreaddons) alignedtext
grestore
% extra-cmake-modules->kcoreaddons
gsave
1 setlinewidth
0 0 0 edgecolor
newpath 1074.8 935.7 moveto
1074.8 927.98 1074.8 918.71 1074.8 910.11 curveto
stroke
0 0 0 edgecolor
newpath 1078.3 910.1 moveto
1074.8 900.1 lineto
1071.3 910.1 lineto
closepath fill
1 setlinewidth
solid
0 0 0 edgecolor
newpath 1078.3 910.1 moveto
1074.8 900.1 lineto
1071.3 910.1 lineto
closepath stroke
grestore
% kwidgetsaddons
gsave
1 setlinewidth
0 0 0 nodecolor
758.8 810 67.69 18 ellipse_path stroke
0 0 0 nodecolor
14 /Times-Roman set_font
714.8 806.3 moveto 88 (kwidgetsaddons) alignedtext
grestore
% extra-cmake-modules->kwidgetsaddons
gsave
1 setlinewidth
0 0 0 edgecolor
newpath 1035.54 937.88 moveto
1009.38 927.61 974.31 913.5 943.8 900 curveto
892.86 877.47 835.18 849.29 797.97 830.74 curveto
stroke
0 0 0 edgecolor
newpath 799.47 827.58 moveto
788.96 826.25 lineto
796.35 833.85 lineto
closepath fill
1 setlinewidth
solid
0 0 0 edgecolor
newpath 799.47 827.58 moveto
788.96 826.25 lineto
796.35 833.85 lineto
closepath stroke
grestore
% attica-kf5
gsave
1 setlinewidth
0 0 0 nodecolor
1053.8 594 44.39 18 ellipse_path stroke
0 0 0 nodecolor
14 /Times-Roman set_font
1027.8 590.3 moveto 52 (attica-kf5) alignedtext
grestore
% extra-cmake-modules->attica-kf5
gsave
1 setlinewidth
0 0 0 edgecolor
newpath 1112.37 937.6 moveto
1157.38 916.36 1226.8 873.48 1226.8 811 curveto
1226.8 811 1226.8 811 1226.8 737 curveto
1226.8 670.2 1148.77 629.08 1097.52 609.27 curveto
stroke
0 0 0 edgecolor
newpath 1098.57 605.93 moveto
1087.98 605.71 lineto
1096.12 612.49 lineto
closepath fill
1 setlinewidth
solid
0 0 0 edgecolor
newpath 1098.57 605.93 moveto
1087.98 605.71 lineto
1096.12 612.49 lineto
closepath stroke
grestore
% kconfig
gsave
1 setlinewidth
0 0 0 nodecolor
635.8 810 37.89 18 ellipse_path stroke
0 0 0 nodecolor
14 /Times-Roman set_font
614.8 806.3 moveto 42 (kconfig) alignedtext
grestore
% extra-cmake-modules->kconfig
gsave
1 setlinewidth
0 0 0 edgecolor
newpath 1016.48 940.43 moveto
973.8 930.74 914.71 916.26 863.8 900 curveto
794.79 877.96 716.57 845.8 672.02 826.78 curveto
stroke
0 0 0 edgecolor
newpath 673.34 823.54 moveto
662.77 822.81 lineto
670.58 829.97 lineto
closepath fill
1 setlinewidth
solid
0 0 0 edgecolor
newpath 673.34 823.54 moveto
662.77 822.81 lineto
670.58 829.97 lineto
closepath stroke
grestore
% kitemviews
gsave
1 setlinewidth
0 0 0 nodecolor
524.8 738 51.99 18 ellipse_path stroke
0 0 0 nodecolor
14 /Times-Roman set_font
492.8 734.3 moveto 64 (kitemviews) alignedtext
grestore
% extra-cmake-modules->kitemviews
gsave
1 setlinewidth
0 0 0 edgecolor
newpath 987.31 952.25 moveto
814.56 949.9 442.72 940.18 401.8 900 curveto
367.47 866.3 367.96 831.92 394.8 792 curveto
404.38 777.75 442.8 763.13 475.41 752.86 curveto
stroke
0 0 0 edgecolor
newpath 476.78 756.1 moveto
485.31 749.82 lineto
474.72 749.41 lineto
closepath fill
1 setlinewidth
solid
0 0 0 edgecolor
newpath 476.78 756.1 moveto
485.31 749.82 lineto
474.72 749.41 lineto
closepath stroke
grestore
% kwindowsystem
gsave
1 setlinewidth
0 0 0 nodecolor
478.8 882 68.49 18 ellipse_path stroke
0 0 0 nodecolor
14 /Times-Roman set_font
434.3 878.3 moveto 89 (kwindowsystem) alignedtext
grestore
% extra-cmake-modules->kwindowsystem
gsave
1 setlinewidth
0 0 0 edgecolor
newpath 994.35 946.63 moveto
894.32 938.24 718.46 921.93 568.8 900 curveto
559.78 898.68 550.3 897.1 541 895.44 curveto
stroke
0 0 0 edgecolor
newpath 541.49 891.97 moveto
531.02 893.62 lineto
540.23 898.86 lineto
closepath fill
1 setlinewidth
solid
0 0 0 edgecolor
newpath 541.49 891.97 moveto
531.02 893.62 lineto
540.23 898.86 lineto
closepath stroke
grestore
% kguiaddons
gsave
1 setlinewidth
0 0 0 nodecolor
991.8 810 51.19 18 ellipse_path stroke
0 0 0 nodecolor
14 /Times-Roman set_font
960.3 806.3 moveto 63 (kguiaddons) alignedtext
grestore
% extra-cmake-modules->kguiaddons
gsave
1 setlinewidth
0 0 0 edgecolor
newpath 1047.72 936.78 moveto
1034.64 927.59 1019.84 914.93 1010.8 900 curveto
999.5 881.36 994.86 856.97 992.99 838.44 curveto
stroke
0 0 0 edgecolor
newpath 996.46 837.98 moveto
992.17 828.29 lineto
989.48 838.54 lineto
closepath fill
1 setlinewidth
solid
0 0 0 edgecolor
newpath 996.46 837.98 moveto
992.17 828.29 lineto
989.48 838.54 lineto
closepath stroke
grestore
% kplotting
gsave
1 setlinewidth
0 0 0 nodecolor
1216.8 378 42.49 18 ellipse_path stroke
0 0 0 nodecolor
14 /Times-Roman set_font
1192.3 374.3 moveto 49 (kplotting) alignedtext
grestore
% extra-cmake-modules->kplotting
gsave
1 setlinewidth
0 0 0 edgecolor
newpath 1138.61 941.61 moveto
1206.06 925.47 1302.8 888.76 1302.8 811 curveto
1302.8 811 1302.8 811 1302.8 737 curveto
1302.8 678.39 1275.6 668.71 1260.8 612 curveto
1241.62 538.56 1227.24 450.05 1220.7 406.27 curveto
stroke
0 0 0 edgecolor
newpath 1224.13 405.52 moveto
1219.21 396.13 lineto
1217.2 406.54 lineto
closepath fill
1 setlinewidth
solid
0 0 0 edgecolor
newpath 1224.13 405.52 moveto
1219.21 396.13 lineto
1217.2 406.54 lineto
closepath stroke
grestore
% karchive
gsave
1 setlinewidth
0 0 0 nodecolor
618.8 882 40.89 18 ellipse_path stroke
0 0 0 nodecolor
14 /Times-Roman set_font
595.3 878.3 moveto 47 (karchive) alignedtext
grestore
% extra-cmake-modules->karchive
gsave
1 setlinewidth
0 0 0 edgecolor
newpath 996.91 945.63 moveto
917.05 937.35 789.52 922.11 680.8 900 curveto
674.55 898.73 668.01 897.18 661.61 895.54 curveto
stroke
0 0 0 edgecolor
newpath 662.31 892.1 moveto
651.74 892.91 lineto
660.51 898.87 lineto
closepath fill
1 setlinewidth
solid
0 0 0 edgecolor
newpath 662.31 892.1 moveto
651.74 892.91 lineto
660.51 898.87 lineto
closepath stroke
grestore
% kimageformats
gsave
1 setlinewidth
0 0 0 nodecolor
1691.8 882 64.19 18 ellipse_path stroke
0 0 0 nodecolor
14 /Times-Roman set_font
1650.3 878.3 moveto 83 (kimageformats) alignedtext
grestore
% extra-cmake-modules->kimageformats
gsave
1 setlinewidth
0 0 0 edgecolor
newpath 1136.76 941.25 moveto
1148.37 939.31 1160.43 937.45 1171.8 936 curveto
1369.5 910.77 1421.86 930.69 1618.8 900 curveto
1624.48 899.11 1630.38 898.03 1636.25 896.84 curveto
stroke
0 0 0 edgecolor
newpath 1637 900.25 moveto
1646.05 894.75 lineto
1635.54 893.41 lineto
closepath fill
1 setlinewidth
solid
0 0 0 edgecolor
newpath 1637 900.25 moveto
1646.05 894.75 lineto
1635.54 893.41 lineto
closepath stroke
grestore
% networkmanager-qt
gsave
1 setlinewidth
0 0 0 nodecolor
1853.8 882 79.89 18 ellipse_path stroke
0 0 0 nodecolor
14 /Times-Roman set_font
1800.3 878.3 moveto 107 (networkmanager-qt) alignedtext
grestore
% extra-cmake-modules->networkmanager-qt
gsave
1 setlinewidth
0 0 0 edgecolor
newpath 1136.48 941.11 moveto
1148.17 939.17 1160.34 937.35 1171.8 936 curveto
1434.03 905.16 1502.81 932.84 1764.8 900 curveto
1772.18 899.08 1779.87 897.91 1787.5 896.63 curveto
stroke
0 0 0 edgecolor
newpath 1788.22 900.06 moveto
1797.47 894.89 lineto
1787.02 893.16 lineto
closepath fill
1 setlinewidth
solid
0 0 0 edgecolor
newpath 1788.22 900.06 moveto
1797.47 894.89 lineto
1787.02 893.16 lineto
closepath stroke
grestore
% kdbusaddons
gsave
1 setlinewidth
0 0 0 nodecolor
180.8 810 56.59 18 ellipse_path stroke
0 0 0 nodecolor
14 /Times-Roman set_font
145.3 806.3 moveto 71 (kdbusaddons) alignedtext
grestore
% extra-cmake-modules->kdbusaddons
gsave
1 setlinewidth
0 0 0 edgecolor
newpath 988.63 950.52 moveto
795.71 944.52 340.83 927.6 276.8 900 curveto
244.74 886.18 216.59 856.9 199.2 835.69 curveto
stroke
0 0 0 edgecolor
newpath 201.82 833.37 moveto
192.86 827.73 lineto
196.35 837.73 lineto
closepath fill
1 setlinewidth
solid
0 0 0 edgecolor
newpath 201.82 833.37 moveto
192.86 827.73 lineto
196.35 837.73 lineto
closepath stroke
grestore
% kidletime
gsave
1 setlinewidth
0 0 0 nodecolor
1313.8 594 44.39 18 ellipse_path stroke
0 0 0 nodecolor
14 /Times-Roman set_font
1287.8 590.3 moveto 52 (kidletime) alignedtext
grestore
% extra-cmake-modules->kidletime
gsave
1 setlinewidth
0 0 0 edgecolor
newpath 1136.45 941.15 moveto
1205.94 927.55 1310.19 906.3 1316.8 900 curveto
1346.45 871.73 1340.8 851.97 1340.8 811 curveto
1340.8 811 1340.8 811 1340.8 737 curveto
1340.8 696.5 1330.07 650.63 1322.14 622.26 curveto
stroke
0 0 0 edgecolor
newpath 1325.39 620.93 moveto
1319.26 612.29 lineto
1318.67 622.87 lineto
closepath fill
1 setlinewidth
solid
0 0 0 edgecolor
newpath 1325.39 620.93 moveto
1319.26 612.29 lineto
1318.67 622.87 lineto
closepath stroke
grestore
% solid
gsave
1 setlinewidth
0 0 0 nodecolor
1171.8 594 27.9 18 ellipse_path stroke
0 0 0 nodecolor
14 /Times-Roman set_font
1158.3 590.3 moveto 27 (solid) alignedtext
grestore
% extra-cmake-modules->solid
gsave
1 setlinewidth
0 0 0 edgecolor
newpath 1125.21 939.23 moveto
1181.5 920.42 1264.8 880.8 1264.8 811 curveto
1264.8 811 1264.8 811 1264.8 737 curveto
1264.8 687.11 1224.13 641.11 1196.58 615.67 curveto
stroke
0 0 0 edgecolor
newpath 1198.64 612.81 moveto
1188.85 608.75 lineto
1193.97 618.03 lineto
closepath fill
1 setlinewidth
solid
0 0 0 edgecolor
newpath 1198.64 612.81 moveto
1188.85 608.75 lineto
1193.97 618.03 lineto
closepath stroke
grestore
% threadweaver
gsave
1 setlinewidth
0 0 0 nodecolor
1367.8 522 57.69 18 ellipse_path stroke
0 0 0 nodecolor
14 /Times-Roman set_font
1331.3 518.3 moveto 73 (threadweaver) alignedtext
grestore
% extra-cmake-modules->threadweaver
gsave
1 setlinewidth
0 0 0 edgecolor
newpath 1139.15 941.76 moveto
1215.83 928.14 1334.71 906.25 1342.8 900 curveto
1377.56 873.14 1385.8 854.93 1385.8 811 curveto
1385.8 811 1385.8 811 1385.8 665 curveto
1385.8 624.9 1378.64 578.92 1373.36 550.42 curveto
stroke
0 0 0 edgecolor
newpath 1376.76 549.56 moveto
1371.44 540.4 lineto
1369.88 550.88 lineto
closepath fill
1 setlinewidth
solid
0 0 0 edgecolor
newpath 1376.76 549.56 moveto
1371.44 540.4 lineto
1369.88 550.88 lineto
closepath stroke
grestore
% kitemmodels
gsave
1 setlinewidth
0 0 0 nodecolor
1442.8 450 57.39 18 ellipse_path stroke
0 0 0 nodecolor
14 /Times-Roman set_font
1406.8 446.3 moveto 72 (kitemmodels) alignedtext
grestore
% extra-cmake-modules->kitemmodels
gsave
1 setlinewidth
0 0 0 edgecolor
newpath 1139.16 941.69 moveto
1226.87 926.27 1373.23 900.48 1373.8 900 curveto
1500.85 793.02 1465.56 558.2 1449.05 478.27 curveto
stroke
0 0 0 edgecolor
newpath 1452.37 477.09 moveto
1446.86 468.05 lineto
1445.53 478.56 lineto
closepath fill
1 setlinewidth
solid
0 0 0 edgecolor
newpath 1452.37 477.09 moveto
1446.86 468.05 lineto
1445.53 478.56 lineto
closepath stroke
grestore
% kcodecs
gsave
1 setlinewidth
0 0 0 nodecolor
883.8 810 38.99 18 ellipse_path stroke
0 0 0 nodecolor
14 /Times-Roman set_font
861.8 806.3 moveto 44 (kcodecs) alignedtext
grestore
% extra-cmake-modules->kcodecs
gsave
1 setlinewidth
0 0 0 edgecolor
newpath 1048.45 936.71 moveto
1032.38 926.54 1011.59 912.97 993.8 900 curveto
964.05 878.32 931.43 851.52 909.5 833.03 curveto
stroke
0 0 0 edgecolor
newpath 911.54 830.17 moveto
901.65 826.38 lineto
907.02 835.51 lineto
closepath fill
1 setlinewidth
solid
0 0 0 edgecolor
newpath 911.54 830.17 moveto
901.65 826.38 lineto
907.02 835.51 lineto
closepath stroke
grestore
% kdnssd-kf5
gsave
1 setlinewidth
0 0 0 nodecolor
2001.8 882 50.09 18 ellipse_path stroke
0 0 0 nodecolor
14 /Times-Roman set_font
1971.3 878.3 moveto 61 (kdnssd-kf5) alignedtext
grestore
% extra-cmake-modules->kdnssd-kf5
gsave
1 setlinewidth
0 0 0 edgecolor
newpath 1135.95 941.07 moveto
1147.8 939.1 1160.16 937.29 1171.8 936 curveto
1512.76 898.32 1604.34 955.87 1942.8 900 curveto
1947.24 899.27 1951.81 898.31 1956.37 897.23 curveto
stroke
0 0 0 edgecolor
newpath 1957.41 900.58 moveto
1966.22 894.7 lineto
1955.67 893.8 lineto
closepath fill
1 setlinewidth
solid
0 0 0 edgecolor
newpath 1957.41 900.58 moveto
1966.22 894.7 lineto
1955.67 893.8 lineto
closepath stroke
grestore
% kdoctools
gsave
1 setlinewidth
0 0 0 nodecolor
534.8 810 44.69 18 ellipse_path stroke
0 0 0 nodecolor
14 /Times-Roman set_font
508.3 806.3 moveto 53 (kdoctools) alignedtext
grestore
% ki18n->kdoctools
gsave
1 setlinewidth
0 0 0 edgecolor
newpath 343.09 872.56 moveto
379.84 860.76 447 839.19 491.27 824.98 curveto
stroke
0 0 0 edgecolor
newpath 492.45 828.28 moveto
500.9 821.89 lineto
490.3 821.61 lineto
closepath fill
1 setlinewidth
solid
0 0 0 edgecolor
newpath 492.45 828.28 moveto
500.9 821.89 lineto
490.3 821.61 lineto
closepath stroke
grestore
% kglobalaccel
gsave
1 setlinewidth
0 0 0 nodecolor
187.8 738 55.49 18 ellipse_path stroke
0 0 0 nodecolor
14 /Times-Roman set_font
153.3 734.3 moveto 69 (kglobalaccel) alignedtext
grestore
% ki18n->kglobalaccel
gsave
1 setlinewidth
0 0 0 edgecolor
newpath 305.67 865.22 moveto
292.46 846.9 269.37 816.1 246.8 792 curveto
236.9 781.43 225.17 770.6 214.79 761.5 curveto
stroke
0 0 0 edgecolor
newpath 217.03 758.81 moveto
207.17 754.92 lineto
212.45 764.11 lineto
closepath fill
1 setlinewidth
solid
0 0 0 edgecolor
newpath 217.03 758.81 moveto
207.17 754.92 lineto
212.45 764.11 lineto
closepath stroke
grestore
% kpty
gsave
1 setlinewidth
0 0 0 nodecolor
320.8 810 27 18 ellipse_path stroke
0 0 0 nodecolor
14 /Times-Roman set_font
308.3 806.3 moveto 25 (kpty) alignedtext
grestore
% ki18n->kpty
gsave
1 setlinewidth
0 0 0 edgecolor
newpath 317.79 863.7 moveto
318.23 855.98 318.76 846.71 319.25 838.11 curveto
stroke
0 0 0 edgecolor
newpath 322.74 838.29 moveto
319.82 828.1 lineto
315.75 837.89 lineto
closepath fill
1 setlinewidth
solid
0 0 0 edgecolor
newpath 322.74 838.29 moveto
319.82 828.1 lineto
315.75 837.89 lineto
closepath stroke
grestore
% kunitconversion
gsave
1 setlinewidth
0 0 0 nodecolor
92.8 450 67.69 18 ellipse_path stroke
0 0 0 nodecolor
14 /Times-Roman set_font
48.8 446.3 moveto 88 (kunitconversion) alignedtext
grestore
% ki18n->kunitconversion
gsave
1 setlinewidth
0 0 0 edgecolor
newpath 287.39 877.1 moveto
237.28 869.86 138.46 852.78 114.8 828 curveto
86.87 798.75 95.8 779.45 95.8 739 curveto
95.8 739 95.8 739 95.8 593 curveto
95.8 552.99 94.59 506.65 93.71 478.08 curveto
stroke
0 0 0 edgecolor
newpath 97.21 477.93 moveto
93.39 468.05 lineto
90.21 478.15 lineto
closepath fill
1 setlinewidth
solid
0 0 0 edgecolor
newpath 97.21 477.93 moveto
93.39 468.05 lineto
90.21 478.15 lineto
closepath stroke
grestore
% kservice
gsave
1 setlinewidth
0 0 0 nodecolor
414.8 738 40.09 18 ellipse_path stroke
0 0 0 nodecolor
14 /Times-Roman set_font
391.8 734.3 moveto 46 (kservice) alignedtext
grestore
% kdoctools->kservice
gsave
1 setlinewidth
0 0 0 edgecolor
newpath 510.51 794.83 moveto
492.22 784.16 466.97 769.43 446.99 757.78 curveto
stroke
0 0 0 edgecolor
newpath 448.63 754.68 moveto
438.23 752.67 lineto
445.1 760.73 lineto
closepath fill
1 setlinewidth
solid
0 0 0 edgecolor
newpath 448.63 754.68 moveto
438.23 752.67 lineto
445.1 760.73 lineto
closepath stroke
grestore
% kconfigwidgets
gsave
1 setlinewidth
0 0 0 nodecolor
931.8 738 64.99 18 ellipse_path stroke
0 0 0 nodecolor
14 /Times-Roman set_font
889.8 734.3 moveto 84 (kconfigwidgets) alignedtext
grestore
% kdoctools->kconfigwidgets
gsave
1 setlinewidth
0 0 0 edgecolor
newpath 567.7 797.77 moveto
574.62 795.66 581.91 793.61 588.8 792 curveto
595.52 790.43 768.4 763.95 866.09 749.02 curveto
stroke
0 0 0 edgecolor
newpath 866.81 752.45 moveto
876.17 747.49 lineto
865.76 745.54 lineto
closepath fill
1 setlinewidth
solid
0 0 0 edgecolor
newpath 866.81 752.45 moveto
876.17 747.49 lineto
865.76 745.54 lineto
closepath stroke
grestore
% kpackage
gsave
1 setlinewidth
0 0 0 nodecolor
638.8 738 44.39 18 ellipse_path stroke
0 0 0 nodecolor
14 /Times-Roman set_font
612.8 734.3 moveto 52 (kpackage) alignedtext
grestore
% kdoctools->kpackage
gsave
1 setlinewidth
0 0 0 edgecolor
newpath 556.85 794.15 moveto
571.74 784.13 591.61 770.76 608.05 759.7 curveto
stroke
0 0 0 edgecolor
newpath 610.43 762.31 moveto
616.77 753.82 lineto
606.52 756.5 lineto
closepath fill
1 setlinewidth
solid
0 0 0 edgecolor
newpath 610.43 762.31 moveto
616.77 753.82 lineto
606.52 756.5 lineto
closepath stroke
grestore
% kjs
gsave
1 setlinewidth
0 0 0 nodecolor
287.8 738 27 18 ellipse_path stroke
0 0 0 nodecolor
14 /Times-Roman set_font
279.8 734.3 moveto 16 (kjs) alignedtext
grestore
% kdoctools->kjs
gsave
1 setlinewidth
0 0 0 edgecolor
newpath 500.86 798.11 moveto
494.22 796.03 487.3 793.92 480.8 792 curveto
425.57 775.73 360.98 758.32 322.29 748.06 curveto
stroke
0 0 0 edgecolor
newpath 323.12 744.66 moveto
312.56 745.49 lineto
321.33 751.43 lineto
closepath fill
1 setlinewidth
solid
0 0 0 edgecolor
newpath 323.12 744.66 moveto
312.56 745.49 lineto
321.33 751.43 lineto
closepath stroke
grestore
% kxmlgui
gsave
1 setlinewidth
0 0 0 nodecolor
753.8 522 40.09 18 ellipse_path stroke
0 0 0 nodecolor
14 /Times-Roman set_font
730.8 518.3 moveto 46 (kxmlgui) alignedtext
grestore
% kglobalaccel->kxmlgui
gsave
1 setlinewidth
0 0 0 edgecolor
newpath 186.59 719.7 moveto
186.21 699.64 188.86 666.91 207.8 648 curveto
363.76 492.27 477.9 593.16 691.8 540 curveto
697.98 538.46 704.49 536.77 710.87 535.06 curveto
stroke
0 0 0 edgecolor
newpath 712 538.38 moveto
720.73 532.38 lineto
710.16 531.62 lineto
closepath fill
1 setlinewidth
solid
0 0 0 edgecolor
newpath 712 538.38 moveto
720.73 532.38 lineto
710.16 531.62 lineto
closepath stroke
grestore
% kdesu
gsave
1 setlinewidth
0 0 0 nodecolor
355.8 666 31.4 18 ellipse_path stroke
0 0 0 nodecolor
14 /Times-Roman set_font
339.8 662.3 moveto 32 (kdesu) alignedtext
grestore
% kpty->kdesu
gsave
1 setlinewidth
0 0 0 edgecolor
newpath 324.95 792.15 moveto
330.92 767.94 341.98 723.05 349.11 694.13 curveto
stroke
0 0 0 edgecolor
newpath 352.55 694.81 moveto
351.54 684.27 lineto
345.75 693.14 lineto
closepath fill
1 setlinewidth
solid
0 0 0 edgecolor
newpath 352.55 694.81 moveto
351.54 684.27 lineto
345.75 693.14 lineto
closepath stroke
grestore
% kdelibs4support
gsave
1 setlinewidth
0 0 0 nodecolor
622.8 90 66.89 18 ellipse_path stroke
0 0 0 nodecolor
14 /Times-Roman set_font
579.3 86.3 moveto 87 (kdelibs4support) alignedtext
grestore
% kunitconversion->kdelibs4support
gsave
1 setlinewidth
0 0 0 edgecolor
newpath 98.67 431.74 moveto
107.14 405.25 121.8 352.79 121.8 307 curveto
121.8 307 121.8 307 121.8 233 curveto
121.8 145.3 409.57 108.97 548.92 96.52 curveto
stroke
0 0 0 edgecolor
newpath 549.43 99.99 moveto
559.09 95.63 lineto
548.82 93.01 lineto
closepath fill
1 setlinewidth
solid
0 0 0 edgecolor
newpath 549.43 99.99 moveto
559.09 95.63 lineto
548.82 93.01 lineto
closepath stroke
grestore
% ktextwidgets
gsave
1 setlinewidth
0 0 0 nodecolor
752.8 594 55.79 18 ellipse_path stroke
0 0 0 nodecolor
14 /Times-Roman set_font
717.8 590.3 moveto 70 (ktextwidgets) alignedtext
grestore
% sonnet->ktextwidgets
gsave
1 setlinewidth
0 0 0 edgecolor
newpath 66.81 661.55 moveto
101.79 657.95 158.66 652.24 207.8 648 curveto
420.94 629.6 476.78 647.21 687.8 612 curveto
692.77 611.17 697.93 610.13 703.05 608.99 curveto
stroke
0 0 0 edgecolor
newpath 703.9 612.38 moveto
712.82 606.67 lineto
702.28 605.57 lineto
closepath fill
1 setlinewidth
solid
0 0 0 edgecolor
newpath 703.9 612.38 moveto
712.82 606.67 lineto
702.28 605.57 lineto
closepath stroke
grestore
% kcoreaddons->kpty
gsave
1 setlinewidth
0 0 0 edgecolor
newpath 1019.83 879.47 moveto
903.77 875.64 625.39 863.27 394.8 828 curveto
381.77 826.01 367.62 822.98 355.23 820.02 curveto
stroke
0 0 0 edgecolor
newpath 355.83 816.57 moveto
345.29 817.59 lineto
354.17 823.37 lineto
closepath fill
1 setlinewidth
solid
0 0 0 edgecolor
newpath 355.83 816.57 moveto
345.29 817.59 lineto
354.17 823.37 lineto
closepath stroke
grestore
% kcoreaddons->kpackage
gsave
1 setlinewidth
0 0 0 edgecolor
newpath 1075.73 863.96 moveto
1075.82 843.51 1072.51 809.76 1051.8 792 curveto
990.76 739.67 770.51 772.37 691.8 756 curveto
688.18 755.25 684.46 754.34 680.75 753.34 curveto
stroke
0 0 0 edgecolor
newpath 681.6 749.94 moveto
671.02 750.53 lineto
679.65 756.67 lineto
closepath fill
1 setlinewidth
solid
0 0 0 edgecolor
newpath 681.6 749.94 moveto
671.02 750.53 lineto
679.65 756.67 lineto
closepath stroke
grestore
% kcrash
gsave
1 setlinewidth
0 0 0 nodecolor
437.8 810 33.6 18 ellipse_path stroke
0 0 0 nodecolor
14 /Times-Roman set_font
419.8 806.3 moveto 36 (kcrash) alignedtext
grestore
% kcoreaddons->kcrash
gsave
1 setlinewidth
0 0 0 edgecolor
newpath 1019.5 881.32 moveto
913.49 880.79 674.98 874.03 480.8 828 curveto
478.01 827.34 475.17 826.54 472.34 825.64 curveto
stroke
0 0 0 edgecolor
newpath 473.47 822.32 moveto
462.87 822.31 lineto
471.15 828.93 lineto
closepath fill
1 setlinewidth
solid
0 0 0 edgecolor
newpath 473.47 822.32 moveto
462.87 822.31 lineto
471.15 828.93 lineto
closepath stroke
grestore
% kjobwidgets
gsave
1 setlinewidth
0 0 0 nodecolor
1068.8 738 53.89 18 ellipse_path stroke
0 0 0 nodecolor
14 /Times-Roman set_font
1035.3 734.3 moveto 67 (kjobwidgets) alignedtext
grestore
% kcoreaddons->kjobwidgets
gsave
1 setlinewidth
0 0 0 edgecolor
newpath 1115.06 869.37 moveto
1135.28 861.26 1157.94 848.19 1169.8 828 curveto
1177.9 814.2 1178.07 805.69 1169.8 792 curveto
1158.75 773.73 1139.1 761.45 1120.05 753.36 curveto
stroke
0 0 0 edgecolor
newpath 1121.08 750 moveto
1110.49 749.6 lineto
1118.52 756.52 lineto
closepath fill
1 setlinewidth
solid
0 0 0 edgecolor
newpath 1121.08 750 moveto
1110.49 749.6 lineto
1118.52 756.52 lineto
closepath stroke
grestore
% kauth
gsave
1 setlinewidth
0 0 0 nodecolor
1129.8 810 30.59 18 ellipse_path stroke
0 0 0 nodecolor
14 /Times-Roman set_font
1114.3 806.3 moveto 31 (kauth) alignedtext
grestore
% kcoreaddons->kauth
gsave
1 setlinewidth
0 0 0 edgecolor
newpath 1087.83 864.41 moveto
1094.81 855.53 1103.52 844.44 1111.2 834.67 curveto
stroke
0 0 0 edgecolor
newpath 1114.18 836.54 moveto
1117.61 826.51 lineto
1108.68 832.21 lineto
closepath fill
1 setlinewidth
solid
0 0 0 edgecolor
newpath 1114.18 836.54 moveto
1117.61 826.51 lineto
1108.68 832.21 lineto
closepath stroke
grestore
% kwidgetsaddons->kconfigwidgets
gsave
1 setlinewidth
0 0 0 edgecolor
newpath 794.22 794.67 moveto
821.13 783.78 858.32 768.73 887.25 757.03 curveto
stroke
0 0 0 edgecolor
newpath 888.76 760.19 moveto
896.71 753.2 lineto
886.13 753.7 lineto
closepath fill
1 setlinewidth
solid
0 0 0 edgecolor
newpath 888.76 760.19 moveto
896.71 753.2 lineto
886.13 753.7 lineto
closepath stroke
grestore
% kcompletion
gsave
1 setlinewidth
0 0 0 nodecolor
755.8 738 55.49 18 ellipse_path stroke
0 0 0 nodecolor
14 /Times-Roman set_font
721.3 734.3 moveto 69 (kcompletion) alignedtext
grestore
% kwidgetsaddons->kcompletion
gsave
1 setlinewidth
0 0 0 edgecolor
newpath 758.06 791.7 moveto
757.72 783.98 757.33 774.71 756.96 766.11 curveto
stroke
0 0 0 edgecolor
newpath 760.46 765.95 moveto
756.53 756.1 lineto
753.46 766.25 lineto
closepath fill
1 setlinewidth
solid
0 0 0 edgecolor
newpath 760.46 765.95 moveto
756.53 756.1 lineto
753.46 766.25 lineto
closepath stroke
grestore
% kwidgetsaddons->kjobwidgets
gsave
1 setlinewidth
0 0 0 edgecolor
newpath 808.9 797.87 moveto
817.85 795.9 827.1 793.88 835.8 792 curveto
911.28 775.67 930.71 774.07 1005.8 756 curveto
1010.13 754.96 1014.61 753.84 1019.1 752.68 curveto
stroke
0 0 0 edgecolor
newpath 1020.1 756.04 moveto
1028.89 750.12 lineto
1018.33 749.27 lineto
closepath fill
1 setlinewidth
solid
0 0 0 edgecolor
newpath 1020.1 756.04 moveto
1028.89 750.12 lineto
1018.33 749.27 lineto
closepath stroke
grestore
% kpeople
gsave
1 setlinewidth
0 0 0 nodecolor
640.8 666 38.19 18 ellipse_path stroke
0 0 0 nodecolor
14 /Times-Roman set_font
619.3 662.3 moveto 43 (kpeople) alignedtext
grestore
% kwidgetsaddons->kpeople
gsave
1 setlinewidth
0 0 0 edgecolor
newpath 785.6 793.44 moveto
798.51 784.34 812.7 771.57 819.8 756 curveto
826.43 741.44 829.51 732.72 819.8 720 curveto
782.89 671.67 745.77 702.36 687.8 684 curveto
685.04 683.13 682.21 682.2 679.37 681.23 curveto
stroke
0 0 0 edgecolor
newpath 680.35 677.87 moveto
669.75 677.89 lineto
678.05 684.48 lineto
closepath fill
1 setlinewidth
solid
0 0 0 edgecolor
newpath 680.35 677.87 moveto
669.75 677.89 lineto
678.05 684.48 lineto
closepath stroke
grestore
% attica-kf5->kxmlgui
gsave
1 setlinewidth
0 0 0 edgecolor
newpath 1016.41 584.28 moveto
961.17 571.39 857.93 547.3 798.68 533.47 curveto
stroke
0 0 0 edgecolor
newpath 799.39 530.04 moveto
788.86 531.18 lineto
797.8 536.86 lineto
closepath fill
1 setlinewidth
solid
0 0 0 edgecolor
newpath 799.39 530.04 moveto
788.86 531.18 lineto
797.8 536.86 lineto
closepath stroke
grestore
% kconfig->kglobalaccel
gsave
1 setlinewidth
0 0 0 edgecolor
newpath 607.8 797.63 moveto
601.62 795.47 595.05 793.44 588.8 792 curveto
442.02 758.14 399.91 783.42 251.8 756 curveto
247.1 755.13 242.24 754.09 237.39 752.97 curveto
stroke
0 0 0 edgecolor
newpath 238.07 749.53 moveto
227.53 750.56 lineto
236.41 756.33 lineto
closepath fill
1 setlinewidth
solid
0 0 0 edgecolor
newpath 238.07 749.53 moveto
227.53 750.56 lineto
236.41 756.33 lineto
closepath stroke
grestore
% kconfig->kservice
gsave
1 setlinewidth
0 0 0 edgecolor
newpath 607.07 798.27 moveto
601.06 796.12 594.74 793.93 588.8 792 curveto
533.81 774.16 518.9 773.48 463.8 756 curveto
460.89 755.08 457.89 754.1 454.88 753.1 curveto
stroke
0 0 0 edgecolor
newpath 455.89 749.75 moveto
445.29 749.86 lineto
453.65 756.38 lineto
closepath fill
1 setlinewidth
solid
0 0 0 edgecolor
newpath 455.89 749.75 moveto
445.29 749.86 lineto
453.65 756.38 lineto
closepath stroke
grestore
% kconfig->kconfigwidgets
gsave
1 setlinewidth
0 0 0 edgecolor
newpath 663.8 797.92 moveto
669.69 795.79 675.91 793.7 681.8 792 curveto
744.13 773.98 816.84 759.25 867.72 749.93 curveto
stroke
0 0 0 edgecolor
newpath 868.38 753.37 moveto
877.6 748.14 lineto
867.13 746.48 lineto
closepath fill
1 setlinewidth
solid
0 0 0 edgecolor
newpath 868.38 753.37 moveto
877.6 748.14 lineto
867.13 746.48 lineto
closepath stroke
grestore
% kconfig->kpackage
gsave
1 setlinewidth
0 0 0 edgecolor
newpath 636.54 791.7 moveto
636.87 783.98 637.27 774.71 637.64 766.11 curveto
stroke
0 0 0 edgecolor
newpath 641.13 766.25 moveto
638.06 756.1 lineto
634.14 765.95 lineto
closepath fill
1 setlinewidth
solid
0 0 0 edgecolor
newpath 641.13 766.25 moveto
638.06 756.1 lineto
634.14 765.95 lineto
closepath stroke
grestore
% kconfig->kcompletion
gsave
1 setlinewidth
0 0 0 edgecolor
newpath 658.65 795.67 moveto
676.34 785.35 701.14 770.89 721.25 759.15 curveto
stroke
0 0 0 edgecolor
newpath 723.24 762.04 moveto
730.12 753.98 lineto
719.71 756 lineto
closepath fill
1 setlinewidth
solid
0 0 0 edgecolor
newpath 723.24 762.04 moveto
730.12 753.98 lineto
719.71 756 lineto
closepath stroke
grestore
% kiconthemes
gsave
1 setlinewidth
0 0 0 nodecolor
752.8 666 55.79 18 ellipse_path stroke
0 0 0 nodecolor
14 /Times-Roman set_font
717.8 662.3 moveto 70 (kiconthemes) alignedtext
grestore
% kitemviews->kiconthemes
gsave
1 setlinewidth
0 0 0 edgecolor
newpath 562.45 725.44 moveto
601.09 713.58 661.39 695.06 703.74 682.06 curveto
stroke
0 0 0 edgecolor
newpath 705.03 685.33 moveto
713.56 679.05 lineto
702.98 678.64 lineto
closepath fill
1 setlinewidth
solid
0 0 0 edgecolor
newpath 705.03 685.33 moveto
713.56 679.05 lineto
702.98 678.64 lineto
closepath stroke
grestore
% kitemviews->kpeople
gsave
1 setlinewidth
0 0 0 edgecolor
newpath 549.68 721.98 moveto
567.07 711.49 590.44 697.39 609.16 686.09 curveto
stroke
0 0 0 edgecolor
newpath 611.17 688.97 moveto
617.92 680.8 lineto
607.55 682.97 lineto
closepath fill
1 setlinewidth
solid
0 0 0 edgecolor
newpath 611.17 688.97 moveto
617.92 680.8 lineto
607.55 682.97 lineto
closepath stroke
grestore
% kwindowsystem->kcrash
gsave
1 setlinewidth
0 0 0 edgecolor
newpath 468.87 864.05 moveto
463.97 855.68 457.95 845.4 452.52 836.13 curveto
stroke
0 0 0 edgecolor
newpath 455.42 834.17 moveto
447.35 827.31 lineto
449.38 837.7 lineto
closepath fill
1 setlinewidth
solid
0 0 0 edgecolor
newpath 455.42 834.17 moveto
447.35 827.31 lineto
449.38 837.7 lineto
closepath stroke
grestore
% kguiaddons->kconfigwidgets
gsave
1 setlinewidth
0 0 0 edgecolor
newpath 977.58 792.41 moveto
970.21 783.82 961.08 773.16 952.91 763.63 curveto
stroke
0 0 0 edgecolor
newpath 955.5 761.27 moveto
946.33 755.96 lineto
950.18 765.83 lineto
closepath fill
1 setlinewidth
solid
0 0 0 edgecolor
newpath 955.5 761.27 moveto
946.33 755.96 lineto
950.18 765.83 lineto
closepath stroke
grestore
% kdesignerplugin
gsave
1 setlinewidth
0 0 0 nodecolor
1173.8 162 67.69 18 ellipse_path stroke
0 0 0 nodecolor
14 /Times-Roman set_font
1129.8 158.3 moveto 88 (kdesignerplugin) alignedtext
grestore
% kplotting->kdesignerplugin
gsave
1 setlinewidth
0 0 0 edgecolor
newpath 1223.14 360.17 moveto
1233.5 329.92 1250.86 264.94 1229.8 216 curveto
1224.71 204.18 1215.55 193.77 1206.1 185.37 curveto
stroke
0 0 0 edgecolor
newpath 1208.1 182.49 moveto
1198.17 178.81 lineto
1203.64 187.88 lineto
closepath fill
1 setlinewidth
solid
0 0 0 edgecolor
newpath 1208.1 182.49 moveto
1198.17 178.81 lineto
1203.64 187.88 lineto
closepath stroke
grestore
% karchive->kdoctools
gsave
1 setlinewidth
0 0 0 edgecolor
newpath 600.57 865.81 moveto
589.09 856.25 574.08 843.74 561.3 833.08 curveto
stroke
0 0 0 edgecolor
newpath 563.2 830.11 moveto
553.28 826.4 lineto
558.72 835.49 lineto
closepath fill
1 setlinewidth
solid
0 0 0 edgecolor
newpath 563.2 830.11 moveto
553.28 826.4 lineto
558.72 835.49 lineto
closepath stroke
grestore
% kdbusaddons->kglobalaccel
gsave
1 setlinewidth
0 0 0 edgecolor
newpath 182.53 791.7 moveto
183.3 783.98 184.23 774.71 185.09 766.11 curveto
stroke
0 0 0 edgecolor
newpath 188.57 766.4 moveto
186.09 756.1 lineto
181.61 765.71 lineto
closepath fill
1 setlinewidth
solid
0 0 0 edgecolor
newpath 188.57 766.4 moveto
186.09 756.1 lineto
181.61 765.71 lineto
closepath stroke
grestore
% kdbusaddons->kservice
gsave
1 setlinewidth
0 0 0 edgecolor
newpath 220.49 797.13 moveto
262.71 784.5 329.24 764.6 372.44 751.67 curveto
stroke
0 0 0 edgecolor
newpath 373.52 755 moveto
382.09 748.78 lineto
371.51 748.3 lineto
closepath fill
1 setlinewidth
solid
0 0 0 edgecolor
newpath 373.52 755 moveto
382.09 748.78 lineto
371.51 748.3 lineto
closepath stroke
grestore
% plasma-framework
gsave
1 setlinewidth
0 0 0 nodecolor
1027.8 90 77.99 18 ellipse_path stroke
0 0 0 nodecolor
14 /Times-Roman set_font
975.8 86.3 moveto 104 (plasma-framework) alignedtext
grestore
% kidletime->plasma-framework
gsave
1 setlinewidth
0 0 0 edgecolor
newpath 1308.79 575.97 moveto
1305.96 565.65 1302.64 552.18 1300.8 540 curveto
1285.27 437.43 1286.8 410.74 1286.8 307 curveto
1286.8 307 1286.8 307 1286.8 233 curveto
1286.8 190.33 1283.16 171.81 1250.8 144 curveto
1228.74 125.05 1159.19 110.46 1103.55 101.43 curveto
stroke
0 0 0 edgecolor
newpath 1103.77 97.92 moveto
1093.34 99.81 lineto
1102.67 104.84 lineto
closepath fill
1 setlinewidth
solid
0 0 0 edgecolor
newpath 1103.77 97.92 moveto
1093.34 99.81 lineto
1102.67 104.84 lineto
closepath stroke
grestore
% kio
gsave
1 setlinewidth
0 0 0 nodecolor
891.8 378 27 18 ellipse_path stroke
0 0 0 nodecolor
14 /Times-Roman set_font
882.8 374.3 moveto 18 (kio) alignedtext
grestore
% solid->kio
gsave
1 setlinewidth
0 0 0 edgecolor
newpath 1154.28 579.61 moveto
1106.34 542.97 972.83 440.93 916.92 398.2 curveto
stroke
0 0 0 edgecolor
newpath 919.02 395.4 moveto
908.95 392.11 lineto
914.77 400.96 lineto
closepath fill
1 setlinewidth
solid
0 0 0 edgecolor
newpath 919.02 395.4 moveto
908.95 392.11 lineto
914.77 400.96 lineto
closepath stroke
grestore
% threadweaver->plasma-framework
gsave
1 setlinewidth
0 0 0 edgecolor
newpath 1361.32 503.79 moveto
1351.97 477.36 1335.8 424.99 1335.8 379 curveto
1335.8 379 1335.8 379 1335.8 233 curveto
1335.8 190.5 1333.47 171.18 1300.8 144 curveto
1272.23 120.23 1179.32 105.89 1109.76 98.22 curveto
stroke
0 0 0 edgecolor
newpath 1110 94.73 moveto
1099.68 97.14 lineto
1109.25 101.69 lineto
closepath fill
1 setlinewidth
solid
0 0 0 edgecolor
newpath 1110 94.73 moveto
1099.68 97.14 lineto
1109.25 101.69 lineto
closepath stroke
grestore
% kitemmodels->plasma-framework
gsave
1 setlinewidth
0 0 0 edgecolor
newpath 1435.71 431.85 moveto
1425.49 405.49 1407.8 353.21 1407.8 307 curveto
1407.8 307 1407.8 307 1407.8 233 curveto
1407.8 185.79 1389.34 169.8 1349.8 144 curveto
1311.48 119 1193.34 104.45 1111.35 97.11 curveto
stroke
0 0 0 edgecolor
newpath 1111.56 93.62 moveto
1101.29 96.23 lineto
1110.95 100.59 lineto
closepath fill
1 setlinewidth
solid
0 0 0 edgecolor
newpath 1111.56 93.62 moveto
1101.29 96.23 lineto
1110.95 100.59 lineto
closepath stroke
grestore
% kcodecs->kconfigwidgets
gsave
1 setlinewidth
0 0 0 edgecolor
newpath 895.17 792.41 moveto
900.89 784.08 907.94 773.8 914.32 764.49 curveto
stroke
0 0 0 edgecolor
newpath 917.4 766.18 moveto
920.17 755.96 lineto
911.63 762.22 lineto
closepath fill
1 setlinewidth
solid
0 0 0 edgecolor
newpath 917.4 766.18 moveto
920.17 755.96 lineto
911.63 762.22 lineto
closepath stroke
grestore
% ktextwidgets->kxmlgui
gsave
1 setlinewidth
0 0 0 edgecolor
newpath 753.04 575.7 moveto
753.15 567.98 753.29 558.71 753.41 550.11 curveto
stroke
0 0 0 edgecolor
newpath 756.91 550.15 moveto
753.55 540.1 lineto
749.91 550.05 lineto
closepath fill
1 setlinewidth
solid
0 0 0 edgecolor
newpath 756.91 550.15 moveto
753.55 540.1 lineto
749.91 550.05 lineto
closepath stroke
grestore
% kservice->ktextwidgets
gsave
1 setlinewidth
0 0 0 edgecolor
newpath 423.44 720.14 moveto
435.68 696.95 458.09 657.04 471.8 648 curveto
553.04 594.41 592.62 632.33 687.8 612 curveto
692.4 611.02 697.17 609.92 701.94 608.77 curveto
stroke
0 0 0 edgecolor
newpath 702.81 612.16 moveto
711.67 606.36 lineto
701.12 605.37 lineto
closepath fill
1 setlinewidth
solid
0 0 0 edgecolor
newpath 702.81 612.16 moveto
711.67 606.36 lineto
701.12 605.37 lineto
closepath stroke
grestore
% knotifications
gsave
1 setlinewidth
0 0 0 nodecolor
619.8 594 59.29 18 ellipse_path stroke
0 0 0 nodecolor
14 /Times-Roman set_font
582.3 590.3 moveto 75 (knotifications) alignedtext
grestore
% kservice->knotifications
gsave
1 setlinewidth
0 0 0 edgecolor
newpath 414.67 719.85 moveto
415.48 699.92 419.88 667.33 438.8 648 curveto
468.23 617.93 513.73 604.69 551.74 598.97 curveto
stroke
0 0 0 edgecolor
newpath 552.3 602.42 moveto
561.74 597.61 lineto
551.36 595.49 lineto
closepath fill
1 setlinewidth
solid
0 0 0 edgecolor
newpath 552.3 602.42 moveto
561.74 597.61 lineto
551.36 595.49 lineto
closepath stroke
grestore
% kemoticons
gsave
1 setlinewidth
0 0 0 nodecolor
532.8 666 51.99 18 ellipse_path stroke
0 0 0 nodecolor
14 /Times-Roman set_font
500.8 662.3 moveto 64 (kemoticons) alignedtext
grestore
% kservice->kemoticons
gsave
1 setlinewidth
0 0 0 edgecolor
newpath 438.11 723.17 moveto
455.39 712.92 479.21 698.79 498.63 687.27 curveto
stroke
0 0 0 edgecolor
newpath 500.67 690.12 moveto
507.49 682.01 lineto
497.1 684.1 lineto
closepath fill
1 setlinewidth
solid
0 0 0 edgecolor
newpath 500.67 690.12 moveto
507.49 682.01 lineto
497.1 684.1 lineto
closepath stroke
grestore
% kservice->kpeople
gsave
1 setlinewidth
0 0 0 edgecolor
newpath 445.28 726.09 moveto
451.39 724 457.78 721.88 463.8 720 curveto
521.04 702.17 536.68 702.21 593.8 684 curveto
596.55 683.12 599.38 682.19 602.22 681.22 curveto
stroke
0 0 0 edgecolor
newpath 603.54 684.47 moveto
611.83 677.87 lineto
601.24 677.86 lineto
closepath fill
1 setlinewidth
solid
0 0 0 edgecolor
newpath 603.54 684.47 moveto
611.83 677.87 lineto
601.24 677.86 lineto
closepath stroke
grestore
% kservice->kdesu
gsave
1 setlinewidth
0 0 0 edgecolor
newpath 401.11 720.76 moveto
393.56 711.8 384.04 700.51 375.68 690.59 curveto
stroke
0 0 0 edgecolor
newpath 378.12 688.06 moveto
369 682.67 lineto
372.77 692.57 lineto
closepath fill
1 setlinewidth
solid
0 0 0 edgecolor
newpath 378.12 688.06 moveto
369 682.67 lineto
372.77 692.57 lineto
closepath stroke
grestore
% kconfigwidgets->kiconthemes
gsave
1 setlinewidth
0 0 0 edgecolor
newpath 895.57 722.83 moveto
866.91 711.62 826.77 695.93 796.35 684.03 curveto
stroke
0 0 0 edgecolor
newpath 797.43 680.7 moveto
786.84 680.31 lineto
794.88 687.22 lineto
closepath fill
1 setlinewidth
solid
0 0 0 edgecolor
newpath 797.43 680.7 moveto
786.84 680.31 lineto
794.88 687.22 lineto
closepath stroke
grestore
% kdeclarative
gsave
1 setlinewidth
0 0 0 nodecolor
436.8 306 53.89 18 ellipse_path stroke
0 0 0 nodecolor
14 /Times-Roman set_font
403.3 302.3 moveto 67 (kdeclarative) alignedtext
grestore
% kpackage->kdeclarative
gsave
1 setlinewidth
0 0 0 edgecolor
newpath 672.11 726.14 moveto
678.62 724.06 685.42 721.93 691.8 720 curveto
747.53 703.1 778.04 726.56 817.8 684 curveto
845.41 654.44 836.8 635.45 836.8 595 curveto
836.8 595 836.8 595 836.8 449 curveto
836.8 437.67 827.61 437.66 817.8 432 curveto
760.26 398.79 576.77 345.63 487.09 320.72 curveto
stroke
0 0 0 edgecolor
newpath 487.99 317.33 moveto
477.41 318.04 lineto
486.12 324.08 lineto
closepath fill
1 setlinewidth
solid
0 0 0 edgecolor
newpath 487.99 317.33 moveto
477.41 318.04 lineto
486.12 324.08 lineto
closepath stroke
grestore
% khtml
gsave
1 setlinewidth
0 0 0 nodecolor
581.8 234 31.7 18 ellipse_path stroke
0 0 0 nodecolor
14 /Times-Roman set_font
565.3 230.3 moveto 33 (khtml) alignedtext
grestore
% kjs->khtml
gsave
1 setlinewidth
0 0 0 edgecolor
newpath 267.59 725.98 moveto
246.53 714.09 215.54 695.36 207.8 684 curveto
185.03 650.57 188.8 635.45 188.8 595 curveto
188.8 595 188.8 595 188.8 377 curveto
188.8 285.76 288.05 319.2 373.8 288 curveto
374.81 287.63 483.31 260.03 543.18 244.81 curveto
stroke
0 0 0 edgecolor
newpath 544.22 248.16 moveto
553.05 242.31 lineto
542.5 241.38 lineto
closepath fill
1 setlinewidth
solid
0 0 0 edgecolor
newpath 544.22 248.16 moveto
553.05 242.31 lineto
542.5 241.38 lineto
closepath stroke
grestore
% kjsembed
gsave
1 setlinewidth
0 0 0 nodecolor
261.8 666 44.69 18 ellipse_path stroke
0 0 0 nodecolor
14 /Times-Roman set_font
235.3 662.3 moveto 53 (kjsembed) alignedtext
grestore
% kjs->kjsembed
gsave
1 setlinewidth
0 0 0 edgecolor
newpath 281.64 720.41 moveto
278.64 712.34 274.96 702.43 271.59 693.35 curveto
stroke
0 0 0 edgecolor
newpath 274.86 692.11 moveto
268.1 683.96 lineto
268.3 694.55 lineto
closepath fill
1 setlinewidth
solid
0 0 0 edgecolor
newpath 274.86 692.11 moveto
268.1 683.96 lineto
268.3 694.55 lineto
closepath stroke
grestore
% kparts
gsave
1 setlinewidth
0 0 0 nodecolor
994.8 306 32.49 18 ellipse_path stroke
0 0 0 nodecolor
14 /Times-Roman set_font
977.8 302.3 moveto 34 (kparts) alignedtext
grestore
% kio->kparts
gsave
1 setlinewidth
0 0 0 edgecolor
newpath 910.21 364.49 moveto
925.93 353.81 948.77 338.28 966.75 326.06 curveto
stroke
0 0 0 edgecolor
newpath 968.84 328.88 moveto
975.14 320.36 lineto
964.9 323.09 lineto
closepath fill
1 setlinewidth
solid
0 0 0 edgecolor
newpath 968.84 328.88 moveto
975.14 320.36 lineto
964.9 323.09 lineto
closepath stroke
grestore
% frameworkintegration
gsave
1 setlinewidth
0 0 0 nodecolor
1132.8 306 87.99 18 ellipse_path stroke
0 0 0 nodecolor
14 /Times-Roman set_font
1073.3 302.3 moveto 119 (frameworkintegration) alignedtext
grestore
% kio->frameworkintegration
gsave
1 setlinewidth
0 0 0 edgecolor
newpath 916.23 369.9 moveto
953.03 359.21 1023.74 338.68 1074.36 323.97 curveto
stroke
0 0 0 edgecolor
newpath 1075.57 327.27 moveto
1084.2 321.12 lineto
1073.62 320.54 lineto
closepath fill
1 setlinewidth
solid
0 0 0 edgecolor
newpath 1075.57 327.27 moveto
1084.2 321.12 lineto
1073.62 320.54 lineto
closepath stroke
grestore
% kio->kdeclarative
gsave
1 setlinewidth
0 0 0 edgecolor
newpath 870.49 366.79 moveto
864.27 364.19 857.37 361.66 850.8 360 curveto
698.76 321.56 654 352.52 499.8 324 curveto
495.17 323.14 490.38 322.12 485.61 321 curveto
stroke
0 0 0 edgecolor
newpath 486.44 317.6 moveto
475.89 318.6 lineto
484.76 324.39 lineto
closepath fill
1 setlinewidth
solid
0 0 0 edgecolor
newpath 486.44 317.6 moveto
475.89 318.6 lineto
484.76 324.39 lineto
closepath stroke
grestore
% kinit
gsave
1 setlinewidth
0 0 0 nodecolor
917.8 306 27 18 ellipse_path stroke
0 0 0 nodecolor
14 /Times-Roman set_font
905.3 302.3 moveto 25 (kinit) alignedtext
grestore
% kio->kinit
gsave
1 setlinewidth
0 0 0 edgecolor
newpath 897.96 360.41 moveto
900.96 352.34 904.64 342.43 908.01 333.35 curveto
stroke
0 0 0 edgecolor
newpath 911.3 334.55 moveto
911.5 323.96 lineto
904.74 332.11 lineto
closepath fill
1 setlinewidth
solid
0 0 0 edgecolor
newpath 911.3 334.55 moveto
911.5 323.96 lineto
904.74 332.11 lineto
closepath stroke
grestore
% knotifyconfig
gsave
1 setlinewidth
0 0 0 nodecolor
566.8 306 58.49 18 ellipse_path stroke
0 0 0 nodecolor
14 /Times-Roman set_font
529.8 302.3 moveto 74 (knotifyconfig) alignedtext
grestore
% kio->knotifyconfig
gsave
1 setlinewidth
0 0 0 edgecolor
newpath 870 366.88 moveto
863.89 364.34 857.17 361.82 850.8 360 curveto
756.81 333.1 729.48 344.04 633.8 324 curveto
629.12 323.02 624.29 321.94 619.45 320.8 curveto
stroke
0 0 0 edgecolor
newpath 620.1 317.36 moveto
609.56 318.42 lineto
618.47 324.17 lineto
closepath fill
1 setlinewidth
solid
0 0 0 edgecolor
newpath 620.1 317.36 moveto
609.56 318.42 lineto
618.47 324.17 lineto
closepath stroke
grestore
% kxmlrpcclient
gsave
1 setlinewidth
0 0 0 nodecolor
702.8 306 59.59 18 ellipse_path stroke
0 0 0 nodecolor
14 /Times-Roman set_font
664.8 302.3 moveto 76 (kxmlrpcclient) alignedtext
grestore
% kio->kxmlrpcclient
gsave
1 setlinewidth
0 0 0 edgecolor
newpath 869.32 367.45 moveto
863.33 364.96 856.84 362.33 850.8 360 curveto
817.4 347.11 779.37 333.51 750.23 323.32 curveto
stroke
0 0 0 edgecolor
newpath 751.3 319.98 moveto
740.7 320 lineto
748.99 326.59 lineto
closepath fill
1 setlinewidth
solid
0 0 0 edgecolor
newpath 751.3 319.98 moveto
740.7 320 lineto
748.99 326.59 lineto
closepath stroke
grestore
% knewstuff
gsave
1 setlinewidth
0 0 0 nodecolor
826.8 306 46.29 18 ellipse_path stroke
0 0 0 nodecolor
14 /Times-Roman set_font
799.3 302.3 moveto 55 (knewstuff) alignedtext
grestore
% kio->knewstuff
gsave
1 setlinewidth
0 0 0 edgecolor
newpath 878.01 362.15 moveto
869.58 353.07 858.59 341.24 848.96 330.87 curveto
stroke
0 0 0 edgecolor
newpath 851.29 328.24 moveto
841.92 323.29 lineto
846.16 333 lineto
closepath fill
1 setlinewidth
solid
0 0 0 edgecolor
newpath 851.29 328.24 moveto
841.92 323.29 lineto
846.16 333 lineto
closepath stroke
grestore
% kross
gsave
1 setlinewidth
0 0 0 nodecolor
942.8 234 29.5 18 ellipse_path stroke
0 0 0 nodecolor
14 /Times-Roman set_font
928.3 230.3 moveto 29 (kross) alignedtext
grestore
% kparts->kross
gsave
1 setlinewidth
0 0 0 edgecolor
newpath 983 289.12 moveto
976.42 280.26 968.08 269.04 960.71 259.12 curveto
stroke
0 0 0 edgecolor
newpath 963.32 256.76 moveto
954.55 250.82 lineto
957.7 260.94 lineto
closepath fill
1 setlinewidth
solid
0 0 0 edgecolor
newpath 963.32 256.76 moveto
954.55 250.82 lineto
957.7 260.94 lineto
closepath stroke
grestore
% kmediaplayer
gsave
1 setlinewidth
0 0 0 nodecolor
1048.8 234 59.29 18 ellipse_path stroke
0 0 0 nodecolor
14 /Times-Roman set_font
1011.3 230.3 moveto 75 (kmediaplayer) alignedtext
grestore
% kparts->kmediaplayer
gsave
1 setlinewidth
0 0 0 edgecolor
newpath 1007.05 289.12 moveto
1013.69 280.51 1022.05 269.67 1029.54 259.96 curveto
stroke
0 0 0 edgecolor
newpath 1032.5 261.85 moveto
1035.84 251.8 lineto
1026.96 257.58 lineto
closepath fill
1 setlinewidth
solid
0 0 0 edgecolor
newpath 1032.5 261.85 moveto
1035.84 251.8 lineto
1026.96 257.58 lineto
closepath stroke
grestore
% kdewebkit
gsave
1 setlinewidth
0 0 0 nodecolor
1173.8 234 47.39 18 ellipse_path stroke
0 0 0 nodecolor
14 /Times-Roman set_font
1145.3 230.3 moveto 57 (kdewebkit) alignedtext
grestore
% kparts->kdewebkit
gsave
1 setlinewidth
0 0 0 edgecolor
newpath 1019.91 294.47 moveto
1025.15 292.3 1030.64 290.06 1035.8 288 curveto
1067.85 275.2 1104.31 261.22 1131.7 250.84 curveto
stroke
0 0 0 edgecolor
newpath 1133.25 254 moveto
1141.36 247.18 lineto
1130.77 247.45 lineto
closepath fill
1 setlinewidth
solid
0 0 0 edgecolor
newpath 1133.25 254 moveto
1141.36 247.18 lineto
1130.77 247.45 lineto
closepath stroke
grestore
% kparts->plasma-framework
gsave
1 setlinewidth
0 0 0 edgecolor
newpath 970.34 294.03 moveto
964.96 291.85 959.24 289.71 953.8 288 curveto
882.18 265.54 835.88 310.46 788.8 252 curveto
778.76 239.54 780.51 229.69 788.8 216 curveto
826.23 154.19 905.38 121.47 962.35 105.24 curveto
stroke
0 0 0 edgecolor
newpath 963.29 108.61 moveto
972 102.58 lineto
961.43 101.86 lineto
closepath fill
1 setlinewidth
solid
0 0 0 edgecolor
newpath 963.29 108.61 moveto
972 102.58 lineto
961.43 101.86 lineto
closepath stroke
grestore
% ktexteditor
gsave
1 setlinewidth
0 0 0 nodecolor
846.8 234 48.99 18 ellipse_path stroke
0 0 0 nodecolor
14 /Times-Roman set_font
817.3 230.3 moveto 59 (ktexteditor) alignedtext
grestore
% kparts->ktexteditor
gsave
1 setlinewidth
0 0 0 edgecolor
newpath 970.69 293.6 moveto
947.46 282.61 911.96 265.82 884.91 253.02 curveto
stroke
0 0 0 edgecolor
newpath 886.26 249.79 moveto
875.72 248.68 lineto
883.27 256.12 lineto
closepath fill
1 setlinewidth
solid
0 0 0 edgecolor
newpath 886.26 249.79 moveto
875.72 248.68 lineto
883.27 256.12 lineto
closepath stroke
grestore
% kparts->khtml
gsave
1 setlinewidth
0 0 0 edgecolor
newpath 970.45 293.67 moveto
965.06 291.51 959.31 289.47 953.8 288 curveto
833.86 255.95 799.49 270.94 676.8 252 curveto
658.7 249.21 638.73 245.7 621.8 242.6 curveto
stroke
0 0 0 edgecolor
newpath 622.16 239.1 moveto
611.69 240.73 lineto
620.88 245.99 lineto
closepath fill
1 setlinewidth
solid
0 0 0 edgecolor
newpath 622.16 239.1 moveto
611.69 240.73 lineto
620.88 245.99 lineto
closepath stroke
grestore
% kcmutils
gsave
1 setlinewidth
0 0 0 nodecolor
463.8 234 41.69 18 ellipse_path stroke
0 0 0 nodecolor
14 /Times-Roman set_font
439.8 230.3 moveto 48 (kcmutils) alignedtext
grestore
% kdeclarative->kcmutils
gsave
1 setlinewidth
0 0 0 edgecolor
newpath 443.33 288.05 moveto
446.42 280.06 450.17 270.33 453.61 261.4 curveto
stroke
0 0 0 edgecolor
newpath 456.99 262.38 moveto
457.32 251.79 lineto
450.46 259.86 lineto
closepath fill
1 setlinewidth
solid
0 0 0 edgecolor
newpath 456.99 262.38 moveto
457.32 251.79 lineto
450.46 259.86 lineto
closepath stroke
grestore
% kded
gsave
1 setlinewidth
0 0 0 nodecolor
713.8 234 27.9 18 ellipse_path stroke
0 0 0 nodecolor
14 /Times-Roman set_font
700.3 230.3 moveto 27 (kded) alignedtext
grestore
% kinit->kded
gsave
1 setlinewidth
0 0 0 edgecolor
newpath 896.72 294.35 moveto
891.88 292.1 886.71 289.85 881.8 288 curveto
827.28 267.5 810.87 270.95 755.8 252 curveto
752.67 250.92 749.44 249.74 746.23 248.52 curveto
stroke
0 0 0 edgecolor
newpath 747.32 245.19 moveto
736.74 244.8 lineto
744.77 251.71 lineto
closepath fill
1 setlinewidth
solid
0 0 0 edgecolor
newpath 747.32 245.19 moveto
736.74 244.8 lineto
744.77 251.71 lineto
closepath stroke
grestore
% kcompletion->ktextwidgets
gsave
1 setlinewidth
0 0 0 edgecolor
newpath 782.39 721.98 moveto
795.67 712.88 810.45 699.95 817.8 684 curveto
824.49 669.47 824.66 662.45 817.8 648 curveto
811.56 634.88 800.32 623.93 788.91 615.46 curveto
stroke
0 0 0 edgecolor
newpath 790.86 612.55 moveto
780.64 609.73 lineto
786.87 618.31 lineto
closepath fill
1 setlinewidth
solid
0 0 0 edgecolor
newpath 790.86 612.55 moveto
780.64 609.73 lineto
786.87 618.31 lineto
closepath stroke
grestore
% kcrash->kglobalaccel
gsave
1 setlinewidth
0 0 0 edgecolor
newpath 408.63 800.83 moveto
366.85 789.13 289.37 767.44 238.2 753.11 curveto
stroke
0 0 0 edgecolor
newpath 238.9 749.68 moveto
228.33 750.35 lineto
237.02 756.42 lineto
closepath fill
1 setlinewidth
solid
0 0 0 edgecolor
newpath 238.9 749.68 moveto
228.33 750.35 lineto
237.02 756.42 lineto
closepath stroke
grestore
% kcrash->kservice
gsave
1 setlinewidth
0 0 0 edgecolor
newpath 432.23 792.05 moveto
429.64 784.18 426.5 774.62 423.6 765.79 curveto
stroke
0 0 0 edgecolor
newpath 426.92 764.68 moveto
420.47 756.28 lineto
420.27 766.87 lineto
closepath fill
1 setlinewidth
solid
0 0 0 edgecolor
newpath 426.92 764.68 moveto
420.47 756.28 lineto
420.27 766.87 lineto
closepath stroke
grestore
% kjobwidgets->kio
gsave
1 setlinewidth
0 0 0 edgecolor
newpath 1037.99 723.13 moveto
996.22 701.97 926.8 657.41 926.8 595 curveto
926.8 595 926.8 595 926.8 521 curveto
926.8 479.62 912.61 433.37 902.3 405.23 curveto
stroke
0 0 0 edgecolor
newpath 905.52 403.84 moveto
898.71 395.72 lineto
898.97 406.31 lineto
closepath fill
1 setlinewidth
solid
0 0 0 edgecolor
newpath 905.52 403.84 moveto
898.71 395.72 lineto
898.97 406.31 lineto
closepath stroke
grestore
% kauth->kconfigwidgets
gsave
1 setlinewidth
0 0 0 edgecolor
newpath 1104.61 799.35 moveto
1098.17 796.91 1091.24 794.33 1084.8 792 curveto
1050.24 779.49 1011.08 765.94 981.03 755.67 curveto
stroke
0 0 0 edgecolor
newpath 981.8 752.23 moveto
971.21 752.32 lineto
979.54 758.86 lineto
closepath fill
1 setlinewidth
solid
0 0 0 edgecolor
newpath 981.8 752.23 moveto
971.21 752.32 lineto
979.54 758.86 lineto
closepath stroke
grestore
% kiconthemes->ktextwidgets
gsave
1 setlinewidth
0 0 0 edgecolor
newpath 752.8 647.7 moveto
752.8 639.98 752.8 630.71 752.8 622.11 curveto
stroke
0 0 0 edgecolor
newpath 756.3 622.1 moveto
752.8 612.1 lineto
749.3 622.1 lineto
closepath fill
1 setlinewidth
solid
0 0 0 edgecolor
newpath 756.3 622.1 moveto
752.8 612.1 lineto
749.3 622.1 lineto
closepath stroke
grestore
% kiconthemes->knotifications
gsave
1 setlinewidth
0 0 0 edgecolor
newpath 724.92 650.33 moveto
705.19 639.94 678.52 625.91 656.98 614.57 curveto
stroke
0 0 0 edgecolor
newpath 658.58 611.46 moveto
648.1 609.9 lineto
655.32 617.65 lineto
closepath fill
1 setlinewidth
solid
0 0 0 edgecolor
newpath 658.58 611.46 moveto
648.1 609.9 lineto
655.32 617.65 lineto
closepath stroke
grestore
% kwallet-kf5
gsave
1 setlinewidth
0 0 0 nodecolor
631.8 522 51.19 18 ellipse_path stroke
0 0 0 nodecolor
14 /Times-Roman set_font
600.3 518.3 moveto 63 (kwallet-kf5) alignedtext
grestore
% knotifications->kwallet-kf5
gsave
1 setlinewidth
0 0 0 edgecolor
newpath 622.76 575.7 moveto
624.09 567.98 625.67 558.71 627.15 550.11 curveto
stroke
0 0 0 edgecolor
newpath 630.62 550.55 moveto
628.86 540.1 lineto
623.73 549.37 lineto
closepath fill
1 setlinewidth
solid
0 0 0 edgecolor
newpath 630.62 550.55 moveto
628.86 540.1 lineto
623.73 549.37 lineto
closepath stroke
grestore
% kdewebkit->kdesignerplugin
gsave
1 setlinewidth
0 0 0 edgecolor
newpath 1173.8 215.7 moveto
1173.8 207.98 1173.8 198.71 1173.8 190.11 curveto
stroke
0 0 0 edgecolor
newpath 1177.3 190.1 moveto
1173.8 180.1 lineto
1170.3 190.1 lineto
closepath fill
1 setlinewidth
solid
0 0 0 edgecolor
newpath 1177.3 190.1 moveto
1173.8 180.1 lineto
1170.3 190.1 lineto
closepath stroke
grestore
% krunner
gsave
1 setlinewidth
0 0 0 nodecolor
1027.8 18 38.19 18 ellipse_path stroke
0 0 0 nodecolor
14 /Times-Roman set_font
1006.3 14.3 moveto 43 (krunner) alignedtext
grestore
% plasma-framework->krunner
gsave
1 setlinewidth
0 0 0 edgecolor
newpath 1027.8 71.7 moveto
1027.8 63.98 1027.8 54.71 1027.8 46.11 curveto
stroke
0 0 0 edgecolor
newpath 1031.3 46.1 moveto
1027.8 36.1 lineto
1024.3 46.1 lineto
closepath fill
1 setlinewidth
solid
0 0 0 edgecolor
newpath 1031.3 46.1 moveto
1027.8 36.1 lineto
1024.3 46.1 lineto
closepath stroke
grestore
% kdesu->plasma-framework
gsave
1 setlinewidth
0 0 0 edgecolor
newpath 355.6 647.95 moveto
355.31 621.29 354.8 568.12 354.8 523 curveto
354.8 523 354.8 523 354.8 233 curveto
354.8 157.01 428.75 168.18 500.8 144 curveto
580.32 117.31 814.13 101.74 941.95 95 curveto
stroke
0 0 0 edgecolor
newpath 942.29 98.49 moveto
952.1 94.47 lineto
941.93 91.5 lineto
closepath fill
1 setlinewidth
solid
0 0 0 edgecolor
newpath 942.29 98.49 moveto
952.1 94.47 lineto
941.93 91.5 lineto
closepath stroke
grestore
% kbookmarks
gsave
1 setlinewidth
0 0 0 nodecolor
753.8 450 54.69 18 ellipse_path stroke
0 0 0 nodecolor
14 /Times-Roman set_font
719.8 446.3 moveto 68 (kbookmarks) alignedtext
grestore
% kxmlgui->kbookmarks
gsave
1 setlinewidth
0 0 0 edgecolor
newpath 753.8 503.7 moveto
753.8 495.98 753.8 486.71 753.8 478.11 curveto
stroke
0 0 0 edgecolor
newpath 757.3 478.1 moveto
753.8 468.1 lineto
750.3 478.1 lineto
closepath fill
1 setlinewidth
solid
0 0 0 edgecolor
newpath 757.3 478.1 moveto
753.8 468.1 lineto
750.3 478.1 lineto
closepath stroke
grestore
% kbookmarks->kio
gsave
1 setlinewidth
0 0 0 edgecolor
newpath 782.39 434.5 moveto
805.57 422.74 838.13 406.22 861.7 394.27 curveto
stroke
0 0 0 edgecolor
newpath 863.55 397.25 moveto
870.88 389.61 lineto
860.38 391.01 lineto
closepath fill
1 setlinewidth
solid
0 0 0 edgecolor
newpath 863.55 397.25 moveto
870.88 389.61 lineto
860.38 391.01 lineto
closepath stroke
grestore
% kwallet-kf5->kio
gsave
1 setlinewidth
0 0 0 edgecolor
newpath 638.43 503.83 moveto
647.14 483.57 664.37 450.34 689.8 432 curveto
739.37 396.24 811.26 384.59 854.57 380.81 curveto
stroke
0 0 0 edgecolor
newpath 854.98 384.29 moveto
864.68 380.03 lineto
854.43 377.31 lineto
closepath fill
1 setlinewidth
solid
0 0 0 edgecolor
newpath 854.98 384.29 moveto
864.68 380.03 lineto
854.43 377.31 lineto
closepath stroke
grestore
% kdesignerplugin->kdelibs4support
gsave
1 setlinewidth
0 0 0 edgecolor
newpath 1114.31 153.44 moveto
1011.49 140.38 801.12 113.65 691.96 99.79 curveto
stroke
0 0 0 edgecolor
newpath 692.4 96.31 moveto
682.04 98.53 lineto
691.52 103.26 lineto
closepath fill
1 setlinewidth
solid
0 0 0 edgecolor
newpath 692.4 96.31 moveto
682.04 98.53 lineto
691.52 103.26 lineto
closepath stroke
grestore
% kactivities-kf5
gsave
1 setlinewidth
0 0 0 nodecolor
571.8 162 61.99 18 ellipse_path stroke
0 0 0 nodecolor
14 /Times-Roman set_font
532.3 158.3 moveto 79 (kactivities-kf5) alignedtext
grestore
% kactivities-kf5->plasma-framework
gsave
1 setlinewidth
0 0 0 edgecolor
newpath 625 152.83 moveto
706.52 140.32 862.55 116.37 954.65 102.23 curveto
stroke
0 0 0 edgecolor
newpath 955.38 105.66 moveto
964.74 100.68 lineto
954.32 98.74 lineto
closepath fill
1 setlinewidth
solid
0 0 0 edgecolor
newpath 955.38 105.66 moveto
964.74 100.68 lineto
954.32 98.74 lineto
closepath stroke
grestore
% kcmutils->kactivities-kf5
gsave
1 setlinewidth
0 0 0 edgecolor
newpath 485.91 218.67 moveto
501.15 208.79 521.67 195.49 538.83 184.37 curveto
stroke
0 0 0 edgecolor
newpath 540.97 187.15 moveto
547.45 178.78 lineto
537.16 181.28 lineto
closepath fill
1 setlinewidth
solid
0 0 0 edgecolor
newpath 540.97 187.15 moveto
547.45 178.78 lineto
537.16 181.28 lineto
closepath stroke
grestore
endpage
showpage
grestore
%%PageTrailer
%%EndPage: 1
%%Trailer
%%Pages: 1
%%BoundingBox: 36 36 576 312
end
restore
%%EOF
