%!PS-Adobe-3.0
%%Creator: graphviz version 2.38.0 (20140413.2041)
%%Title: KDE Applications 15.04.2
%%Pages: (atend)
%%BoundingBox: (atend)
%%EndComments
save
%%BeginProlog
/DotDict 200 dict def
DotDict begin

/setupLatin1 {
mark
/EncodingVector 256 array def
 EncodingVector 0

ISOLatin1Encoding 0 255 getinterval putinterval
EncodingVector 45 /hyphen put

% Set up ISO Latin 1 character encoding
/starnetISO {
        dup dup findfont dup length dict begin
        { 1 index /FID ne { def }{ pop pop } ifelse
        } forall
        /Encoding EncodingVector def
        currentdict end definefont
} def
/Times-Roman starnetISO def
/Times-Italic starnetISO def
/Times-Bold starnetISO def
/Times-BoldItalic starnetISO def
/Helvetica starnetISO def
/Helvetica-Oblique starnetISO def
/Helvetica-Bold starnetISO def
/Helvetica-BoldOblique starnetISO def
/Courier starnetISO def
/Courier-Oblique starnetISO def
/Courier-Bold starnetISO def
/Courier-BoldOblique starnetISO def
cleartomark
} bind def

%%BeginResource: procset graphviz 0 0
/coord-font-family /Times-Roman def
/default-font-family /Times-Roman def
/coordfont coord-font-family findfont 8 scalefont def

/InvScaleFactor 1.0 def
/set_scale {
       dup 1 exch div /InvScaleFactor exch def
       scale
} bind def

% styles
/solid { [] 0 setdash } bind def
/dashed { [9 InvScaleFactor mul dup ] 0 setdash } bind def
/dotted { [1 InvScaleFactor mul 6 InvScaleFactor mul] 0 setdash } bind def
/invis {/fill {newpath} def /stroke {newpath} def /show {pop newpath} def} bind def
/bold { 2 setlinewidth } bind def
/filled { } bind def
/unfilled { } bind def
/rounded { } bind def
/diagonals { } bind def
/tapered { } bind def

% hooks for setting color 
/nodecolor { sethsbcolor } bind def
/edgecolor { sethsbcolor } bind def
/graphcolor { sethsbcolor } bind def
/nopcolor {pop pop pop} bind def

/beginpage {	% i j npages
	/npages exch def
	/j exch def
	/i exch def
	/str 10 string def
	npages 1 gt {
		gsave
			coordfont setfont
			0 0 moveto
			(\() show i str cvs show (,) show j str cvs show (\)) show
		grestore
	} if
} bind def

/set_font {
	findfont exch
	scalefont setfont
} def

% draw text fitted to its expected width
/alignedtext {			% width text
	/text exch def
	/width exch def
	gsave
		width 0 gt {
			[] 0 setdash
			text stringwidth pop width exch sub text length div 0 text ashow
		} if
	grestore
} def

/boxprim {				% xcorner ycorner xsize ysize
		4 2 roll
		moveto
		2 copy
		exch 0 rlineto
		0 exch rlineto
		pop neg 0 rlineto
		closepath
} bind def

/ellipse_path {
	/ry exch def
	/rx exch def
	/y exch def
	/x exch def
	matrix currentmatrix
	newpath
	x y translate
	rx ry scale
	0 0 1 0 360 arc
	setmatrix
} bind def

/endpage { showpage } bind def
/showpage { } def

/layercolorseq
	[	% layer color sequence - darkest to lightest
		[0 0 0]
		[.2 .8 .8]
		[.4 .8 .8]
		[.6 .8 .8]
		[.8 .8 .8]
	]
def

/layerlen layercolorseq length def

/setlayer {/maxlayer exch def /curlayer exch def
	layercolorseq curlayer 1 sub layerlen mod get
	aload pop sethsbcolor
	/nodecolor {nopcolor} def
	/edgecolor {nopcolor} def
	/graphcolor {nopcolor} def
} bind def

/onlayer { curlayer ne {invis} if } def

/onlayers {
	/myupper exch def
	/mylower exch def
	curlayer mylower lt
	curlayer myupper gt
	or
	{invis} if
} def

/curlayer 0 def

%%EndResource
%%EndProlog
%%BeginSetup
14 default-font-family set_font
1 setmiterlimit
% /arrowlength 10 def
% /arrowwidth 5 def

% make sure pdfmark is harmless for PS-interpreters other than Distiller
/pdfmark where {pop} {userdict /pdfmark /cleartomark load put} ifelse
% make '<<' and '>>' safe on PS Level 1 devices
/languagelevel where {pop languagelevel}{1} ifelse
2 lt {
    userdict (<<) cvn ([) cvn load put
    userdict (>>) cvn ([) cvn load put
} if

%%EndSetup
setupLatin1
%%Page: 1 1
%%PageBoundingBox: 36 36 576 43
%%PageOrientation: Portrait
0 0 1 beginpage
gsave
36 36 540 7 boxprim clip newpath
0.0384913 0.0384913 set_scale 0 rotate 939.276 939.276 translate
% GOD
gsave
grestore
% libkdegames
gsave
1 setlinewidth
0 0 0 nodecolor
1066.15 90 55.79 18 ellipse_path stroke
0 0 0 nodecolor
14 /Times-Roman set_font
1031.15 86.3 moveto 70 (libkdegames) alignedtext
grestore
% GOD->libkdegames
gsave
grestore
% zeroconf-ioslave
gsave
1 setlinewidth
0 0 0 nodecolor
1712.15 90 69.59 18 ellipse_path stroke
0 0 0 nodecolor
14 /Times-Roman set_font
1666.65 86.3 moveto 91 (zeroconf-ioslave) alignedtext
grestore
% GOD->zeroconf-ioslave
gsave
grestore
% kdenetwork-strigi-analyzers
gsave
1 setlinewidth
0 0 0 nodecolor
1909.15 90 109.38 18 ellipse_path stroke
0 0 0 nodecolor
14 /Times-Roman set_font
1833.15 86.3 moveto 152 (kdenetwork-strigi-analyzers) alignedtext
grestore
% GOD->kdenetwork-strigi-analyzers
gsave
grestore
% kmplot
gsave
1 setlinewidth
0 0 0 nodecolor
2073.15 90 36.29 18 ellipse_path stroke
0 0 0 nodecolor
14 /Times-Roman set_font
2053.15 86.3 moveto 40 (kmplot) alignedtext
grestore
% GOD->kmplot
gsave
grestore
% konquest
gsave
1 setlinewidth
0 0 0 nodecolor
2170.15 90 42.49 18 ellipse_path stroke
0 0 0 nodecolor
14 /Times-Roman set_font
2145.65 86.3 moveto 49 (konquest) alignedtext
grestore
% GOD->konquest
gsave
grestore
% okteta
gsave
1 setlinewidth
0 0 0 nodecolor
2263.15 90 32.49 18 ellipse_path stroke
0 0 0 nodecolor
14 /Times-Roman set_font
2246.15 86.3 moveto 34 (okteta) alignedtext
grestore
% GOD->okteta
gsave
grestore
% ksnakeduel
gsave
1 setlinewidth
0 0 0 nodecolor
2364.15 90 50.09 18 ellipse_path stroke
0 0 0 nodecolor
14 /Times-Roman set_font
2333.65 86.3 moveto 61 (ksnakeduel) alignedtext
grestore
% GOD->ksnakeduel
gsave
grestore
% kgpg
gsave
1 setlinewidth
0 0 0 nodecolor
2461.15 90 28.7 18 ellipse_path stroke
0 0 0 nodecolor
14 /Times-Roman set_font
2447.15 86.3 moveto 28 (kgpg) alignedtext
grestore
% GOD->kgpg
gsave
grestore
% kiten
gsave
1 setlinewidth
0 0 0 nodecolor
2536.15 90 28.7 18 ellipse_path stroke
0 0 0 nodecolor
14 /Times-Roman set_font
2522.15 86.3 moveto 28 (kiten) alignedtext
grestore
% GOD->kiten
gsave
grestore
% libkexiv2
gsave
1 setlinewidth
0 0 0 nodecolor
2841.15 90 44.39 18 ellipse_path stroke
0 0 0 nodecolor
14 /Times-Roman set_font
2815.15 86.3 moveto 52 (libkexiv2) alignedtext
grestore
% GOD->libkexiv2
gsave
grestore
% kdegraphics-mobipocket
gsave
1 setlinewidth
0 0 0 nodecolor
2681.15 90 98.28 18 ellipse_path stroke
0 0 0 nodecolor
14 /Times-Roman set_font
2613.65 86.3 moveto 135 (kdegraphics-mobipocket) alignedtext
grestore
% GOD->kdegraphics-mobipocket
gsave
grestore
% libksane
gsave
1 setlinewidth
0 0 0 nodecolor
3053.15 90 40.09 18 ellipse_path stroke
0 0 0 nodecolor
14 /Times-Roman set_font
3030.15 86.3 moveto 46 (libksane) alignedtext
grestore
% GOD->libksane
gsave
grestore
% kde-baseapps
gsave
1 setlinewidth
0 0 0 nodecolor
3169.15 90 57.69 18 ellipse_path stroke
0 0 0 nodecolor
14 /Times-Roman set_font
3132.65 86.3 moveto 73 (kde-baseapps) alignedtext
grestore
% GOD->kde-baseapps
gsave
grestore
% ktouch
gsave
1 setlinewidth
0 0 0 nodecolor
3279.15 90 34.39 18 ellipse_path stroke
0 0 0 nodecolor
14 /Times-Roman set_font
3260.65 86.3 moveto 37 (ktouch) alignedtext
grestore
% GOD->ktouch
gsave
grestore
% libkipi
gsave
1 setlinewidth
0 0 0 nodecolor
3365.15 90 33.6 18 ellipse_path stroke
0 0 0 nodecolor
14 /Times-Roman set_font
3347.15 86.3 moveto 36 (libkipi) alignedtext
grestore
% GOD->libkipi
gsave
grestore
% artikulate
gsave
1 setlinewidth
0 0 0 nodecolor
3461.15 90 44.39 18 ellipse_path stroke
0 0 0 nodecolor
14 /Times-Roman set_font
3435.15 86.3 moveto 52 (artikulate) alignedtext
grestore
% GOD->artikulate
gsave
grestore
% kaccessible
gsave
1 setlinewidth
0 0 0 nodecolor
3574.15 90 50.89 18 ellipse_path stroke
0 0 0 nodecolor
14 /Times-Roman set_font
3543.15 86.3 moveto 62 (kaccessible) alignedtext
grestore
% GOD->kaccessible
gsave
grestore
% lskat
gsave
1 setlinewidth
0 0 0 nodecolor
3670.15 90 27.1 18 ellipse_path stroke
0 0 0 nodecolor
14 /Times-Roman set_font
3657.15 86.3 moveto 26 (lskat) alignedtext
grestore
% GOD->lskat
gsave
grestore
% kmouth
gsave
1 setlinewidth
0 0 0 nodecolor
3754.15 90 38.19 18 ellipse_path stroke
0 0 0 nodecolor
14 /Times-Roman set_font
3732.65 86.3 moveto 43 (kmouth) alignedtext
grestore
% GOD->kmouth
gsave
grestore
% kde-wallpapers
gsave
1 setlinewidth
0 0 0 nodecolor
3875.15 90 64.19 18 ellipse_path stroke
0 0 0 nodecolor
14 /Times-Roman set_font
3833.65 86.3 moveto 83 (kde-wallpapers) alignedtext
grestore
% GOD->kde-wallpapers
gsave
grestore
% kcharselect
gsave
1 setlinewidth
0 0 0 nodecolor
4007.15 90 50.09 18 ellipse_path stroke
0 0 0 nodecolor
14 /Times-Roman set_font
3976.65 86.3 moveto 61 (kcharselect) alignedtext
grestore
% GOD->kcharselect
gsave
grestore
% filelight
gsave
1 setlinewidth
0 0 0 nodecolor
4113.15 90 38.19 18 ellipse_path stroke
0 0 0 nodecolor
14 /Times-Roman set_font
4091.65 86.3 moveto 43 (filelight) alignedtext
grestore
% GOD->filelight
gsave
grestore
% kdewebdev
gsave
1 setlinewidth
0 0 0 nodecolor
4220.15 90 50.89 18 ellipse_path stroke
0 0 0 nodecolor
14 /Times-Roman set_font
4189.15 86.3 moveto 62 (kdewebdev) alignedtext
grestore
% GOD->kdewebdev
gsave
grestore
% ktimer
gsave
1 setlinewidth
0 0 0 nodecolor
4323.15 90 34.39 18 ellipse_path stroke
0 0 0 nodecolor
14 /Times-Roman set_font
4304.65 86.3 moveto 37 (ktimer) alignedtext
grestore
% GOD->ktimer
gsave
grestore
% kalzium
gsave
1 setlinewidth
0 0 0 nodecolor
4415.15 90 39.79 18 ellipse_path stroke
0 0 0 nodecolor
14 /Times-Roman set_font
4392.65 86.3 moveto 45 (kalzium) alignedtext
grestore
% GOD->kalzium
gsave
grestore
% libkcompactdisc
gsave
1 setlinewidth
0 0 0 nodecolor
4542.15 90 68.79 18 ellipse_path stroke
0 0 0 nodecolor
14 /Times-Roman set_font
4497.15 86.3 moveto 90 (libkcompactdisc) alignedtext
grestore
% GOD->libkcompactdisc
gsave
grestore
% print-manager
gsave
1 setlinewidth
0 0 0 nodecolor
4791.15 90 61.19 18 ellipse_path stroke
0 0 0 nodecolor
14 /Times-Roman set_font
4752.15 86.3 moveto 78 (print-manager) alignedtext
grestore
% GOD->print-manager
gsave
grestore
% picmi
gsave
1 setlinewidth
0 0 0 nodecolor
4901.15 90 31.4 18 ellipse_path stroke
0 0 0 nodecolor
14 /Times-Roman set_font
4885.15 86.3 moveto 32 (picmi) alignedtext
grestore
% GOD->picmi
gsave
grestore
% libkeduvocdocument
gsave
1 setlinewidth
0 0 0 nodecolor
5035.15 90 85.29 18 ellipse_path stroke
0 0 0 nodecolor
14 /Times-Roman set_font
4977.65 86.3 moveto 115 (libkeduvocdocument) alignedtext
grestore
% GOD->libkeduvocdocument
gsave
grestore
% amor
gsave
1 setlinewidth
0 0 0 nodecolor
5167.15 90 29.5 18 ellipse_path stroke
0 0 0 nodecolor
14 /Times-Roman set_font
5152.65 86.3 moveto 29 (amor) alignedtext
grestore
% GOD->amor
gsave
grestore
% knavalbattle
gsave
1 setlinewidth
0 0 0 nodecolor
5268.15 90 53.89 18 ellipse_path stroke
0 0 0 nodecolor
14 /Times-Roman set_font
5234.65 86.3 moveto 67 (knavalbattle) alignedtext
grestore
% GOD->knavalbattle
gsave
grestore
% palapeli
gsave
1 setlinewidth
0 0 0 nodecolor
5378.15 90 38.19 18 ellipse_path stroke
0 0 0 nodecolor
14 /Times-Roman set_font
5356.65 86.3 moveto 43 (palapeli) alignedtext
grestore
% GOD->palapeli
gsave
grestore
% ffmpegthumbs
gsave
1 setlinewidth
0 0 0 nodecolor
5497.15 90 63.09 18 ellipse_path stroke
0 0 0 nodecolor
14 /Times-Roman set_font
5456.65 86.3 moveto 81 (ffmpegthumbs) alignedtext
grestore
% GOD->ffmpegthumbs
gsave
grestore
% kdf
gsave
1 setlinewidth
0 0 0 nodecolor
5605.15 90 27 18 ellipse_path stroke
0 0 0 nodecolor
14 /Times-Roman set_font
5595.65 86.3 moveto 19 (kdf) alignedtext
grestore
% GOD->kdf
gsave
grestore
% kwalletmanager
gsave
1 setlinewidth
0 0 0 nodecolor
5718.15 90 67.69 18 ellipse_path stroke
0 0 0 nodecolor
14 /Times-Roman set_font
5674.15 86.3 moveto 88 (kwalletmanager) alignedtext
grestore
% GOD->kwalletmanager
gsave
grestore
% poxml
gsave
1 setlinewidth
0 0 0 nodecolor
5837.15 90 33.6 18 ellipse_path stroke
0 0 0 nodecolor
14 /Times-Roman set_font
5819.15 86.3 moveto 36 (poxml) alignedtext
grestore
% GOD->poxml
gsave
grestore
% kolf
gsave
1 setlinewidth
0 0 0 nodecolor
5916.15 90 27 18 ellipse_path stroke
0 0 0 nodecolor
14 /Times-Roman set_font
5905.15 86.3 moveto 22 (kolf) alignedtext
grestore
% GOD->kolf
gsave
grestore
% rocs
gsave
1 setlinewidth
0 0 0 nodecolor
5988.15 90 27 18 ellipse_path stroke
0 0 0 nodecolor
14 /Times-Roman set_font
5976.65 86.3 moveto 23 (rocs) alignedtext
grestore
% GOD->rocs
gsave
grestore
% kcachegrind
gsave
1 setlinewidth
0 0 0 nodecolor
6087.15 90 53.89 18 ellipse_path stroke
0 0 0 nodecolor
14 /Times-Roman set_font
6053.65 86.3 moveto 67 (kcachegrind) alignedtext
grestore
% GOD->kcachegrind
gsave
grestore
% libkmahjongg
gsave
1 setlinewidth
0 0 0 nodecolor
1565.15 90 59.59 18 ellipse_path stroke
0 0 0 nodecolor
14 /Times-Roman set_font
1527.15 86.3 moveto 76 (libkmahjongg) alignedtext
grestore
% GOD->libkmahjongg
gsave
grestore
% libkdcraw
gsave
1 setlinewidth
0 0 0 nodecolor
2949.15 90 46.29 18 ellipse_path stroke
0 0 0 nodecolor
14 /Times-Roman set_font
2921.65 86.3 moveto 55 (libkdcraw) alignedtext
grestore
% GOD->libkdcraw
gsave
grestore
% kate
gsave
1 setlinewidth
0 0 0 nodecolor
6186.15 90 27 18 ellipse_path stroke
0 0 0 nodecolor
14 /Times-Roman set_font
6174.65 86.3 moveto 23 (kate) alignedtext
grestore
% GOD->kate
gsave
grestore
% kdesdk-thumbnailers
gsave
1 setlinewidth
0 0 0 nodecolor
6316.15 90 85.29 18 ellipse_path stroke
0 0 0 nodecolor
14 /Times-Roman set_font
6258.65 86.3 moveto 115 (kdesdk-thumbnailers) alignedtext
grestore
% GOD->kdesdk-thumbnailers
gsave
grestore
% libkcddb
gsave
1 setlinewidth
0 0 0 nodecolor
4670.15 90 41.69 18 ellipse_path stroke
0 0 0 nodecolor
14 /Times-Roman set_font
4646.15 86.3 moveto 48 (libkcddb) alignedtext
grestore
% GOD->libkcddb
gsave
grestore
% kgoldrunner
gsave
1 setlinewidth
0 0 0 nodecolor
6473.15 90 53.89 18 ellipse_path stroke
0 0 0 nodecolor
14 /Times-Roman set_font
6439.65 86.3 moveto 67 (kgoldrunner) alignedtext
grestore
% GOD->kgoldrunner
gsave
grestore
% kde-base-artwork
gsave
1 setlinewidth
0 0 0 nodecolor
6617.15 90 72.29 18 ellipse_path stroke
0 0 0 nodecolor
14 /Times-Roman set_font
6569.65 86.3 moveto 95 (kde-base-artwork) alignedtext
grestore
% GOD->kde-base-artwork
gsave
grestore
% ktux
gsave
1 setlinewidth
0 0 0 nodecolor
6734.15 90 27 18 ellipse_path stroke
0 0 0 nodecolor
14 /Times-Roman set_font
6721.65 86.3 moveto 25 (ktux) alignedtext
grestore
% GOD->ktux
gsave
grestore
% kdesdk-kioslaves
gsave
1 setlinewidth
0 0 0 nodecolor
6850.15 90 71.49 18 ellipse_path stroke
0 0 0 nodecolor
14 /Times-Roman set_font
6803.15 86.3 moveto 94 (kdesdk-kioslaves) alignedtext
grestore
% GOD->kdesdk-kioslaves
gsave
grestore
% konsole
gsave
1 setlinewidth
0 0 0 nodecolor
6978.15 90 38.19 18 ellipse_path stroke
0 0 0 nodecolor
14 /Times-Roman set_font
6956.65 86.3 moveto 43 (konsole) alignedtext
grestore
% GOD->konsole
gsave
grestore
% umbrello
gsave
1 setlinewidth
0 0 0 nodecolor
7077.15 90 42.79 18 ellipse_path stroke
0 0 0 nodecolor
14 /Times-Roman set_font
7052.15 86.3 moveto 50 (umbrello) alignedtext
grestore
% GOD->umbrello
gsave
grestore
% kdesdk-strigi-analyzers
gsave
1 setlinewidth
0 0 0 nodecolor
7231.15 90 92.88 18 ellipse_path stroke
0 0 0 nodecolor
14 /Times-Roman set_font
7167.65 86.3 moveto 127 (kdesdk-strigi-analyzers) alignedtext
grestore
% GOD->kdesdk-strigi-analyzers
gsave
grestore
% lokalize
gsave
1 setlinewidth
0 0 0 nodecolor
7380.15 90 38.19 18 ellipse_path stroke
0 0 0 nodecolor
14 /Times-Roman set_font
7358.65 86.3 moveto 43 (lokalize) alignedtext
grestore
% GOD->lokalize
gsave
grestore
% superkaramba
gsave
1 setlinewidth
0 0 0 nodecolor
7497.15 90 60.39 18 ellipse_path stroke
0 0 0 nodecolor
14 /Times-Roman set_font
7458.65 86.3 moveto 77 (superkaramba) alignedtext
grestore
% GOD->superkaramba
gsave
grestore
% kgeography
gsave
1 setlinewidth
0 0 0 nodecolor
7627.15 90 51.99 18 ellipse_path stroke
0 0 0 nodecolor
14 /Times-Roman set_font
7595.15 86.3 moveto 64 (kgeography) alignedtext
grestore
% GOD->kgeography
gsave
grestore
% kremotecontrol
gsave
1 setlinewidth
0 0 0 nodecolor
7762.15 90 64.99 18 ellipse_path stroke
0 0 0 nodecolor
14 /Times-Roman set_font
7720.15 86.3 moveto 84 (kremotecontrol) alignedtext
grestore
% GOD->kremotecontrol
gsave
grestore
% blinken
gsave
1 setlinewidth
0 0 0 nodecolor
7882.15 90 37.09 18 ellipse_path stroke
0 0 0 nodecolor
14 /Times-Roman set_font
7861.65 86.3 moveto 41 (blinken) alignedtext
grestore
% GOD->blinken
gsave
grestore
% krfb
gsave
1 setlinewidth
0 0 0 nodecolor
7964.15 90 27 18 ellipse_path stroke
0 0 0 nodecolor
14 /Times-Roman set_font
7952.65 86.3 moveto 23 (krfb) alignedtext
grestore
% GOD->krfb
gsave
grestore
% kopete
gsave
1 setlinewidth
0 0 0 nodecolor
8043.15 90 34.39 18 ellipse_path stroke
0 0 0 nodecolor
14 /Times-Roman set_font
8024.65 86.3 moveto 37 (kopete) alignedtext
grestore
% GOD->kopete
gsave
grestore
% gwenview
gsave
1 setlinewidth
0 0 0 nodecolor
8142.15 90 46.59 18 ellipse_path stroke
0 0 0 nodecolor
14 /Times-Roman set_font
8114.15 86.3 moveto 56 (gwenview) alignedtext
grestore
% GOD->gwenview
gsave
grestore
% svgpart
gsave
1 setlinewidth
0 0 0 nodecolor
8243.15 90 36.29 18 ellipse_path stroke
0 0 0 nodecolor
14 /Times-Roman set_font
8223.15 86.3 moveto 40 (svgpart) alignedtext
grestore
% GOD->svgpart
gsave
grestore
% kspaceduel
gsave
1 setlinewidth
0 0 0 nodecolor
8347.15 90 50.09 18 ellipse_path stroke
0 0 0 nodecolor
14 /Times-Roman set_font
8316.65 86.3 moveto 61 (kspaceduel) alignedtext
grestore
% GOD->kspaceduel
gsave
grestore
% oxygen-icons
gsave
1 setlinewidth
0 0 0 nodecolor
8473.15 90 57.69 18 ellipse_path stroke
0 0 0 nodecolor
14 /Times-Roman set_font
8436.65 86.3 moveto 73 (oxygen-icons) alignedtext
grestore
% GOD->oxygen-icons
gsave
grestore
% libkdeedu
gsave
1 setlinewidth
0 0 0 nodecolor
8594.15 90 45.49 18 ellipse_path stroke
0 0 0 nodecolor
14 /Times-Roman set_font
8567.15 86.3 moveto 54 (libkdeedu) alignedtext
grestore
% GOD->libkdeedu
gsave
grestore
% kdenetwork-filesharing
gsave
1 setlinewidth
0 0 0 nodecolor
8750.15 90 92.88 18 ellipse_path stroke
0 0 0 nodecolor
14 /Times-Roman set_font
8686.65 86.3 moveto 127 (kdenetwork-filesharing) alignedtext
grestore
% GOD->kdenetwork-filesharing
gsave
grestore
% step
gsave
1 setlinewidth
0 0 0 nodecolor
8888.15 90 27 18 ellipse_path stroke
0 0 0 nodecolor
14 /Times-Roman set_font
8877.15 86.3 moveto 22 (step) alignedtext
grestore
% GOD->step
gsave
grestore
% kcolorchooser
gsave
1 setlinewidth
0 0 0 nodecolor
8993.15 90 60.39 18 ellipse_path stroke
0 0 0 nodecolor
14 /Times-Roman set_font
8954.65 86.3 moveto 77 (kcolorchooser) alignedtext
grestore
% GOD->kcolorchooser
gsave
grestore
% analitza
gsave
1 setlinewidth
0 0 0 nodecolor
9110.15 90 38.19 18 ellipse_path stroke
0 0 0 nodecolor
14 /Times-Roman set_font
9088.65 86.3 moveto 43 (analitza) alignedtext
grestore
% GOD->analitza
gsave
grestore
% kfloppy
gsave
1 setlinewidth
0 0 0 nodecolor
9205.15 90 38.19 18 ellipse_path stroke
0 0 0 nodecolor
14 /Times-Roman set_font
9183.65 86.3 moveto 43 (kfloppy) alignedtext
grestore
% GOD->kfloppy
gsave
grestore
% klickety
gsave
1 setlinewidth
0 0 0 nodecolor
9300.15 90 38.99 18 ellipse_path stroke
0 0 0 nodecolor
14 /Times-Roman set_font
9278.15 86.3 moveto 44 (klickety) alignedtext
grestore
% GOD->klickety
gsave
grestore
% kcron
gsave
1 setlinewidth
0 0 0 nodecolor
9388.15 90 30.59 18 ellipse_path stroke
0 0 0 nodecolor
14 /Times-Roman set_font
9372.65 86.3 moveto 31 (kcron) alignedtext
grestore
% GOD->kcron
gsave
grestore
% kgamma
gsave
1 setlinewidth
0 0 0 nodecolor
9479.15 90 42.49 18 ellipse_path stroke
0 0 0 nodecolor
14 /Times-Roman set_font
9454.65 86.3 moveto 49 (kgamma) alignedtext
grestore
% GOD->kgamma
gsave
grestore
% kdeedu-data
gsave
1 setlinewidth
0 0 0 nodecolor
9593.15 90 53.89 18 ellipse_path stroke
0 0 0 nodecolor
14 /Times-Roman set_font
9559.65 86.3 moveto 67 (kdeedu-data) alignedtext
grestore
% GOD->kdeedu-data
gsave
grestore
% kigo
gsave
1 setlinewidth
0 0 0 nodecolor
9692.15 90 27 18 ellipse_path stroke
0 0 0 nodecolor
14 /Times-Roman set_font
9679.65 86.3 moveto 25 (kigo) alignedtext
grestore
% GOD->kigo
gsave
grestore
% kmix
gsave
1 setlinewidth
0 0 0 nodecolor
9766.15 90 29.5 18 ellipse_path stroke
0 0 0 nodecolor
14 /Times-Roman set_font
9751.65 86.3 moveto 29 (kmix) alignedtext
grestore
% GOD->kmix
gsave
grestore
% kstars
gsave
1 setlinewidth
0 0 0 nodecolor
9844.15 90 31.4 18 ellipse_path stroke
0 0 0 nodecolor
14 /Times-Roman set_font
9828.15 86.3 moveto 32 (kstars) alignedtext
grestore
% GOD->kstars
gsave
grestore
% kiriki
gsave
1 setlinewidth
0 0 0 nodecolor
9923.15 90 29.8 18 ellipse_path stroke
0 0 0 nodecolor
14 /Times-Roman set_font
9908.15 86.3 moveto 30 (kiriki) alignedtext
grestore
% GOD->kiriki
gsave
grestore
% kreversi
gsave
1 setlinewidth
0 0 0 nodecolor
10010.15 90 38.99 18 ellipse_path stroke
0 0 0 nodecolor
14 /Times-Roman set_font
9988.15 86.3 moveto 44 (kreversi) alignedtext
grestore
% GOD->kreversi
gsave
grestore
% juk
gsave
1 setlinewidth
0 0 0 nodecolor
10094.15 90 27 18 ellipse_path stroke
0 0 0 nodecolor
14 /Times-Roman set_font
10085.15 86.3 moveto 18 (juk) alignedtext
grestore
% GOD->juk
gsave
grestore
% libkomparediff2
gsave
1 setlinewidth
0 0 0 nodecolor
10207.15 90 68.49 18 ellipse_path stroke
0 0 0 nodecolor
14 /Times-Roman set_font
10162.65 86.3 moveto 89 (libkomparediff2) alignedtext
grestore
% GOD->libkomparediff2
gsave
grestore
% ktuberling
gsave
1 setlinewidth
0 0 0 nodecolor
10340.15 90 46.59 18 ellipse_path stroke
0 0 0 nodecolor
14 /Times-Roman set_font
10312.15 86.3 moveto 56 (ktuberling) alignedtext
grestore
% GOD->ktuberling
gsave
grestore
% kmag
gsave
1 setlinewidth
0 0 0 nodecolor
10435.15 90 30.59 18 ellipse_path stroke
0 0 0 nodecolor
14 /Times-Roman set_font
10419.65 86.3 moveto 31 (kmag) alignedtext
grestore
% GOD->kmag
gsave
grestore
% pairs
gsave
1 setlinewidth
0 0 0 nodecolor
10511.15 90 27.9 18 ellipse_path stroke
0 0 0 nodecolor
14 /Times-Roman set_font
10497.65 86.3 moveto 27 (pairs) alignedtext
grestore
% GOD->pairs
gsave
grestore
% kdenlive
gsave
1 setlinewidth
0 0 0 nodecolor
10598.15 90 40.89 18 ellipse_path stroke
0 0 0 nodecolor
14 /Times-Roman set_font
10574.65 86.3 moveto 47 (kdenlive) alignedtext
grestore
% GOD->kdenlive
gsave
grestore
% jovie
gsave
1 setlinewidth
0 0 0 nodecolor
10686.15 90 28.7 18 ellipse_path stroke
0 0 0 nodecolor
14 /Times-Roman set_font
10672.15 86.3 moveto 28 (jovie) alignedtext
grestore
% GOD->jovie
gsave
grestore
% kteatime
gsave
1 setlinewidth
0 0 0 nodecolor
10774.15 90 41.69 18 ellipse_path stroke
0 0 0 nodecolor
14 /Times-Roman set_font
10750.15 86.3 moveto 48 (kteatime) alignedtext
grestore
% GOD->kteatime
gsave
grestore
% kuser
gsave
1 setlinewidth
0 0 0 nodecolor
10863.15 90 29.8 18 ellipse_path stroke
0 0 0 nodecolor
14 /Times-Roman set_font
10848.15 86.3 moveto 30 (kuser) alignedtext
grestore
% GOD->kuser
gsave
grestore
% klettres
gsave
1 setlinewidth
0 0 0 nodecolor
10947.15 90 36.29 18 ellipse_path stroke
0 0 0 nodecolor
14 /Times-Roman set_font
10927.15 86.3 moveto 40 (klettres) alignedtext
grestore
% GOD->klettres
gsave
grestore
% kruler
gsave
1 setlinewidth
0 0 0 nodecolor
11033.15 90 31.7 18 ellipse_path stroke
0 0 0 nodecolor
14 /Times-Roman set_font
11016.65 86.3 moveto 33 (kruler) alignedtext
grestore
% GOD->kruler
gsave
grestore
% cervisia
gsave
1 setlinewidth
0 0 0 nodecolor
11121.15 90 38.19 18 ellipse_path stroke
0 0 0 nodecolor
14 /Times-Roman set_font
11099.65 86.3 moveto 43 (cervisia) alignedtext
grestore
% GOD->cervisia
gsave
grestore
% kturtle
gsave
1 setlinewidth
0 0 0 nodecolor
11211.15 90 33.6 18 ellipse_path stroke
0 0 0 nodecolor
14 /Times-Roman set_font
11193.15 86.3 moveto 36 (kturtle) alignedtext
grestore
% GOD->kturtle
gsave
grestore
% kamera
gsave
1 setlinewidth
0 0 0 nodecolor
11300.15 90 37.09 18 ellipse_path stroke
0 0 0 nodecolor
14 /Times-Roman set_font
11279.65 86.3 moveto 41 (kamera) alignedtext
grestore
% GOD->kamera
gsave
grestore
% kubrick
gsave
1 setlinewidth
0 0 0 nodecolor
11393.15 90 37.89 18 ellipse_path stroke
0 0 0 nodecolor
14 /Times-Roman set_font
11372.15 86.3 moveto 42 (kubrick) alignedtext
grestore
% GOD->kubrick
gsave
grestore
% marble
gsave
1 setlinewidth
0 0 0 nodecolor
11484.15 90 36 18 ellipse_path stroke
0 0 0 nodecolor
14 /Times-Roman set_font
11464.65 86.3 moveto 39 (marble) alignedtext
grestore
% GOD->marble
gsave
grestore
% kqtquickcharts
gsave
1 setlinewidth
0 0 0 nodecolor
11600.15 90 62.29 18 ellipse_path stroke
0 0 0 nodecolor
14 /Times-Roman set_font
11560.15 86.3 moveto 80 (kqtquickcharts) alignedtext
grestore
% GOD->kqtquickcharts
gsave
grestore
% ksirk
gsave
1 setlinewidth
0 0 0 nodecolor
11709.15 90 28.7 18 ellipse_path stroke
0 0 0 nodecolor
14 /Times-Roman set_font
11695.15 86.3 moveto 28 (ksirk) alignedtext
grestore
% GOD->ksirk
gsave
grestore
% mplayerthumbs
gsave
1 setlinewidth
0 0 0 nodecolor
11822.15 90 66.09 18 ellipse_path stroke
0 0 0 nodecolor
14 /Times-Roman set_font
11779.15 86.3 moveto 86 (mplayerthumbs) alignedtext
grestore
% GOD->mplayerthumbs
gsave
grestore
% libkface
gsave
1 setlinewidth
0 0 0 nodecolor
11945.15 90 38.99 18 ellipse_path stroke
0 0 0 nodecolor
14 /Times-Roman set_font
11923.15 86.3 moveto 44 (libkface) alignedtext
grestore
% GOD->libkface
gsave
grestore
% kppp
gsave
1 setlinewidth
0 0 0 nodecolor
12031.15 90 28.7 18 ellipse_path stroke
0 0 0 nodecolor
14 /Times-Roman set_font
12017.15 86.3 moveto 28 (kppp) alignedtext
grestore
% GOD->kppp
gsave
grestore
% kmahjongg
gsave
1 setlinewidth
0 0 0 nodecolor
12128.15 90 50.89 18 ellipse_path stroke
0 0 0 nodecolor
14 /Times-Roman set_font
12097.15 86.3 moveto 62 (kmahjongg) alignedtext
grestore
% GOD->kmahjongg
gsave
grestore
% ksudoku
gsave
1 setlinewidth
0 0 0 nodecolor
12237.15 90 40.09 18 ellipse_path stroke
0 0 0 nodecolor
14 /Times-Roman set_font
12214.15 86.3 moveto 46 (ksudoku) alignedtext
grestore
% GOD->ksudoku
gsave
grestore
% ksystemlog
gsave
1 setlinewidth
0 0 0 nodecolor
12347.15 90 51.19 18 ellipse_path stroke
0 0 0 nodecolor
14 /Times-Roman set_font
12315.65 86.3 moveto 63 (ksystemlog) alignedtext
grestore
% GOD->ksystemlog
gsave
grestore
% kapptemplate
gsave
1 setlinewidth
0 0 0 nodecolor
12475.15 90 58.49 18 ellipse_path stroke
0 0 0 nodecolor
14 /Times-Roman set_font
12438.15 86.3 moveto 74 (kapptemplate) alignedtext
grestore
% GOD->kapptemplate
gsave
grestore
% kget
gsave
1 setlinewidth
0 0 0 nodecolor
12578.15 90 27 18 ellipse_path stroke
0 0 0 nodecolor
14 /Times-Roman set_font
12566.15 86.3 moveto 24 (kget) alignedtext
grestore
% GOD->kget
gsave
grestore
% kde-dev-utils
gsave
1 setlinewidth
0 0 0 nodecolor
12680.15 90 57.39 18 ellipse_path stroke
0 0 0 nodecolor
14 /Times-Roman set_font
12644.15 86.3 moveto 72 (kde-dev-utils) alignedtext
grestore
% GOD->kde-dev-utils
gsave
grestore
% kscd
gsave
1 setlinewidth
0 0 0 nodecolor
12782.15 90 27 18 ellipse_path stroke
0 0 0 nodecolor
14 /Times-Roman set_font
12769.65 86.3 moveto 25 (kscd) alignedtext
grestore
% GOD->kscd
gsave
grestore
% sweeper
gsave
1 setlinewidth
0 0 0 nodecolor
12867.15 90 39.79 18 ellipse_path stroke
0 0 0 nodecolor
14 /Times-Roman set_font
12844.65 86.3 moveto 45 (sweeper) alignedtext
grestore
% GOD->sweeper
gsave
grestore
% kbruch
gsave
1 setlinewidth
0 0 0 nodecolor
12960.15 90 35.19 18 ellipse_path stroke
0 0 0 nodecolor
14 /Times-Roman set_font
12941.15 86.3 moveto 38 (kbruch) alignedtext
grestore
% GOD->kbruch
gsave
grestore
% kdegraphics-strigi-analyzer
gsave
1 setlinewidth
0 0 0 nodecolor
13120.15 90 106.68 18 ellipse_path stroke
0 0 0 nodecolor
14 /Times-Roman set_font
13046.15 86.3 moveto 148 (kdegraphics-strigi-analyzer) alignedtext
grestore
% GOD->kdegraphics-strigi-analyzer
gsave
grestore
% kmousetool
gsave
1 setlinewidth
0 0 0 nodecolor
13297.15 90 51.99 18 ellipse_path stroke
0 0 0 nodecolor
14 /Times-Roman set_font
13265.15 86.3 moveto 64 (kmousetool) alignedtext
grestore
% GOD->kmousetool
gsave
grestore
% kcalc
gsave
1 setlinewidth
0 0 0 nodecolor
13396.15 90 29.5 18 ellipse_path stroke
0 0 0 nodecolor
14 /Times-Roman set_font
13381.65 86.3 moveto 29 (kcalc) alignedtext
grestore
% GOD->kcalc
gsave
grestore
% kajongg
gsave
1 setlinewidth
0 0 0 nodecolor
13482.15 90 38.99 18 ellipse_path stroke
0 0 0 nodecolor
14 /Times-Roman set_font
13460.15 86.3 moveto 44 (kajongg) alignedtext
grestore
% GOD->kajongg
gsave
grestore
% kig
gsave
1 setlinewidth
0 0 0 nodecolor
13566.15 90 27 18 ellipse_path stroke
0 0 0 nodecolor
14 /Times-Roman set_font
13557.15 86.3 moveto 18 (kig) alignedtext
grestore
% GOD->kig
gsave
grestore
% krdc
gsave
1 setlinewidth
0 0 0 nodecolor
13638.15 90 27 18 ellipse_path stroke
0 0 0 nodecolor
14 /Times-Roman set_font
13625.65 86.3 moveto 25 (krdc) alignedtext
grestore
% GOD->krdc
gsave
grestore
% kolourpaint
gsave
1 setlinewidth
0 0 0 nodecolor
13734.15 90 51.19 18 ellipse_path stroke
0 0 0 nodecolor
14 /Times-Roman set_font
13702.65 86.3 moveto 63 (kolourpaint) alignedtext
grestore
% GOD->kolourpaint
gsave
grestore
% dragon
gsave
1 setlinewidth
0 0 0 nodecolor
13838.15 90 35.19 18 ellipse_path stroke
0 0 0 nodecolor
14 /Times-Roman set_font
13819.15 86.3 moveto 38 (dragon) alignedtext
grestore
% GOD->dragon
gsave
grestore
% kde-dev-scripts
gsave
1 setlinewidth
0 0 0 nodecolor
13956.15 90 64.99 18 ellipse_path stroke
0 0 0 nodecolor
14 /Times-Roman set_font
13914.15 86.3 moveto 84 (kde-dev-scripts) alignedtext
grestore
% GOD->kde-dev-scripts
gsave
grestore
% kdiamond
gsave
1 setlinewidth
0 0 0 nodecolor
46.15 18 46.29 18 ellipse_path stroke
0 0 0 nodecolor
14 /Times-Roman set_font
18.65 14.3 moveto 55 (kdiamond) alignedtext
grestore
% libkdegames->kdiamond
gsave
1 setlinewidth
0 0 0 edgecolor
newpath 1010.39 87.73 moveto
832.17 83.39 277.66 67.63 101.15 36 curveto
97.22 35.3 93.18 34.4 89.16 33.38 curveto
stroke
0 0 0 edgecolor
newpath 89.84 29.94 moveto
79.27 30.67 lineto
87.99 36.69 lineto
closepath fill
1 setlinewidth
solid
0 0 0 edgecolor
newpath 89.84 29.94 moveto
79.27 30.67 lineto
87.99 36.69 lineto
closepath stroke
grestore
% bomber
gsave
1 setlinewidth
0 0 0 nodecolor
148.15 18 38.19 18 ellipse_path stroke
0 0 0 nodecolor
14 /Times-Roman set_font
126.65 14.3 moveto 43 (bomber) alignedtext
grestore
% libkdegames->bomber
gsave
1 setlinewidth
0 0 0 edgecolor
newpath 1010.64 87.64 moveto
844.49 83.26 352.96 67.89 196.15 36 curveto
192.75 35.31 189.27 34.43 185.81 33.44 curveto
stroke
0 0 0 edgecolor
newpath 186.79 30.08 moveto
176.2 30.41 lineto
184.68 36.76 lineto
closepath fill
1 setlinewidth
solid
0 0 0 edgecolor
newpath 186.79 30.08 moveto
176.2 30.41 lineto
184.68 36.76 lineto
closepath stroke
grestore
% granatier
gsave
1 setlinewidth
0 0 0 nodecolor
247.15 18 42.49 18 ellipse_path stroke
0 0 0 nodecolor
14 /Times-Roman set_font
222.65 14.3 moveto 49 (granatier) alignedtext
grestore
% libkdegames->granatier
gsave
1 setlinewidth
0 0 0 edgecolor
newpath 1011.03 87.01 moveto
858.82 81.21 434.91 63.06 298.15 36 curveto
294.55 35.29 290.85 34.39 287.17 33.39 curveto
stroke
0 0 0 edgecolor
newpath 288.14 30.03 moveto
277.55 30.53 lineto
286.14 36.73 lineto
closepath fill
1 setlinewidth
solid
0 0 0 edgecolor
newpath 288.14 30.03 moveto
277.55 30.53 lineto
286.14 36.73 lineto
closepath stroke
grestore
% kollision
gsave
1 setlinewidth
0 0 0 nodecolor
349.15 18 41.69 18 ellipse_path stroke
0 0 0 nodecolor
14 /Times-Roman set_font
325.15 14.3 moveto 48 (kollision) alignedtext
grestore
% libkdegames->kollision
gsave
1 setlinewidth
0 0 0 edgecolor
newpath 1010.26 89.1 moveto
894.97 88.3 622.93 81.3 400.15 36 curveto
396.55 35.27 392.86 34.36 389.18 33.35 curveto
stroke
0 0 0 edgecolor
newpath 390.15 29.99 moveto
379.56 30.47 lineto
388.14 36.69 lineto
closepath fill
1 setlinewidth
solid
0 0 0 edgecolor
newpath 390.15 29.99 moveto
379.56 30.47 lineto
388.14 36.69 lineto
closepath stroke
grestore
% kblocks
gsave
1 setlinewidth
0 0 0 nodecolor
447.15 18 38.19 18 ellipse_path stroke
0 0 0 nodecolor
14 /Times-Roman set_font
425.65 14.3 moveto 43 (kblocks) alignedtext
grestore
% libkdegames->kblocks
gsave
1 setlinewidth
0 0 0 edgecolor
newpath 1010.2 88.51 moveto
906.96 86.59 680.05 77.52 494.15 36 curveto
491.11 35.32 488 34.5 484.9 33.59 curveto
stroke
0 0 0 edgecolor
newpath 485.72 30.18 moveto
475.13 30.44 lineto
483.58 36.84 lineto
closepath fill
1 setlinewidth
solid
0 0 0 edgecolor
newpath 485.72 30.18 moveto
475.13 30.44 lineto
483.58 36.84 lineto
closepath stroke
grestore
% bovo
gsave
1 setlinewidth
0 0 0 nodecolor
532.15 18 28.7 18 ellipse_path stroke
0 0 0 nodecolor
14 /Times-Roman set_font
518.15 14.3 moveto 28 (bovo) alignedtext
grestore
% libkdegames->bovo
gsave
1 setlinewidth
0 0 0 edgecolor
newpath 1010.27 88.89 moveto
917.13 87.41 724.97 78.87 569.15 36 curveto
567.2 35.47 565.23 34.84 563.27 34.15 curveto
stroke
0 0 0 edgecolor
newpath 564.2 30.75 moveto
553.62 30.28 lineto
561.6 37.25 lineto
closepath fill
1 setlinewidth
solid
0 0 0 edgecolor
newpath 564.2 30.75 moveto
553.62 30.28 lineto
561.6 37.25 lineto
closepath stroke
grestore
% klines
gsave
1 setlinewidth
0 0 0 nodecolor
610.15 18 31.7 18 ellipse_path stroke
0 0 0 nodecolor
14 /Times-Roman set_font
593.65 14.3 moveto 33 (klines) alignedtext
grestore
% libkdegames->klines
gsave
1 setlinewidth
0 0 0 edgecolor
newpath 1011.21 86.63 moveto
930.91 82.13 777.32 69.57 651.15 36 curveto
648.67 35.34 646.15 34.57 643.63 33.72 curveto
stroke
0 0 0 edgecolor
newpath 644.65 30.36 moveto
634.06 30.16 lineto
642.21 36.93 lineto
closepath fill
1 setlinewidth
solid
0 0 0 edgecolor
newpath 644.65 30.36 moveto
634.06 30.16 lineto
642.21 36.93 lineto
closepath stroke
grestore
% kjumpingcube
gsave
1 setlinewidth
0 0 0 nodecolor
722.15 18 61.99 18 ellipse_path stroke
0 0 0 nodecolor
14 /Times-Roman set_font
682.65 14.3 moveto 79 (kjumpingcube) alignedtext
grestore
% libkdegames->kjumpingcube
gsave
1 setlinewidth
0 0 0 edgecolor
newpath 1018.67 80.43 moveto
964.11 70.43 871.95 53.07 793.15 36 curveto
788.16 34.92 782.99 33.76 777.82 32.57 curveto
stroke
0 0 0 edgecolor
newpath 778.44 29.12 moveto
767.91 30.27 lineto
776.86 35.94 lineto
closepath fill
1 setlinewidth
solid
0 0 0 edgecolor
newpath 778.44 29.12 moveto
767.91 30.27 lineto
776.86 35.94 lineto
closepath stroke
grestore
% kbreakout
gsave
1 setlinewidth
0 0 0 nodecolor
848.15 18 46.29 18 ellipse_path stroke
0 0 0 nodecolor
14 /Times-Roman set_font
820.65 14.3 moveto 55 (kbreakout) alignedtext
grestore
% libkdegames->kbreakout
gsave
1 setlinewidth
0 0 0 edgecolor
newpath 1027.92 76.73 moveto
990.1 64.58 932.24 46 892.43 33.22 curveto
stroke
0 0 0 edgecolor
newpath 893.32 29.83 moveto
882.73 30.1 lineto
891.18 36.49 lineto
closepath fill
1 setlinewidth
solid
0 0 0 edgecolor
newpath 893.32 29.83 moveto
882.73 30.1 lineto
891.18 36.49 lineto
closepath stroke
grestore
% kfourinline
gsave
1 setlinewidth
0 0 0 nodecolor
962.15 18 50.09 18 ellipse_path stroke
0 0 0 nodecolor
14 /Times-Roman set_font
931.65 14.3 moveto 61 (kfourinline) alignedtext
grestore
% libkdegames->kfourinline
gsave
1 setlinewidth
0 0 0 edgecolor
newpath 1043.06 73.46 moveto
1028.42 63.61 1009.29 50.73 993.31 39.98 curveto
stroke
0 0 0 edgecolor
newpath 995.05 36.93 moveto
984.8 34.25 lineto
991.15 42.74 lineto
closepath fill
1 setlinewidth
solid
0 0 0 edgecolor
newpath 995.05 36.93 moveto
984.8 34.25 lineto
991.15 42.74 lineto
closepath stroke
grestore
% kmines
gsave
1 setlinewidth
0 0 0 nodecolor
1066.15 18 36.29 18 ellipse_path stroke
0 0 0 nodecolor
14 /Times-Roman set_font
1046.15 14.3 moveto 40 (kmines) alignedtext
grestore
% libkdegames->kmines
gsave
1 setlinewidth
0 0 0 edgecolor
newpath 1066.15 71.7 moveto
1066.15 63.98 1066.15 54.71 1066.15 46.11 curveto
stroke
0 0 0 edgecolor
newpath 1069.65 46.1 moveto
1066.15 36.1 lineto
1062.65 46.1 lineto
closepath fill
1 setlinewidth
solid
0 0 0 edgecolor
newpath 1069.65 46.1 moveto
1066.15 36.1 lineto
1062.65 46.1 lineto
closepath stroke
grestore
% knetwalk
gsave
1 setlinewidth
0 0 0 nodecolor
1163.15 18 42.79 18 ellipse_path stroke
0 0 0 nodecolor
14 /Times-Roman set_font
1138.15 14.3 moveto 50 (knetwalk) alignedtext
grestore
% libkdegames->knetwalk
gsave
1 setlinewidth
0 0 0 edgecolor
newpath 1088.16 73.12 moveto
1101.8 63.27 1119.48 50.51 1134.24 39.86 curveto
stroke
0 0 0 edgecolor
newpath 1136.49 42.55 moveto
1142.55 33.86 lineto
1132.39 36.88 lineto
closepath fill
1 setlinewidth
solid
0 0 0 edgecolor
newpath 1136.49 42.55 moveto
1142.55 33.86 lineto
1132.39 36.88 lineto
closepath stroke
grestore
% kshisen
gsave
1 setlinewidth
0 0 0 nodecolor
1931.15 18 37.09 18 ellipse_path stroke
0 0 0 nodecolor
14 /Times-Roman set_font
1910.65 14.3 moveto 41 (kshisen) alignedtext
grestore
% libkdegames->kshisen
gsave
1 setlinewidth
0 0 0 edgecolor
newpath 1121.12 86.37 moveto
1292.63 78.02 1810.89 51.77 1885.15 36 curveto
1888.31 35.33 1891.55 34.48 1894.77 33.53 curveto
stroke
0 0 0 edgecolor
newpath 1895.88 36.84 moveto
1904.29 30.4 lineto
1893.7 30.19 lineto
closepath fill
1 setlinewidth
solid
0 0 0 edgecolor
newpath 1895.88 36.84 moveto
1904.29 30.4 lineto
1893.7 30.19 lineto
closepath stroke
grestore
% kpat
gsave
1 setlinewidth
0 0 0 nodecolor
1251.15 18 27 18 ellipse_path stroke
0 0 0 nodecolor
14 /Times-Roman set_font
1239.15 14.3 moveto 24 (kpat) alignedtext
grestore
% libkdegames->kpat
gsave
1 setlinewidth
0 0 0 edgecolor
newpath 1104.2 76.63 moveto
1134.54 66.49 1177.97 51.35 1215.15 36 curveto
1216.97 35.25 1218.83 34.45 1220.7 33.63 curveto
stroke
0 0 0 edgecolor
newpath 1222.32 36.74 moveto
1229.98 29.42 lineto
1219.43 30.37 lineto
closepath fill
1 setlinewidth
solid
0 0 0 edgecolor
newpath 1222.32 36.74 moveto
1229.98 29.42 lineto
1219.43 30.37 lineto
closepath stroke
grestore
% kbounce
gsave
1 setlinewidth
0 0 0 nodecolor
1336.15 18 40.09 18 ellipse_path stroke
0 0 0 nodecolor
14 /Times-Roman set_font
1313.15 14.3 moveto 46 (kbounce) alignedtext
grestore
% libkdegames->kbounce
gsave
1 setlinewidth
0 0 0 edgecolor
newpath 1111.78 79.43 moveto
1156.71 69.69 1227.12 53.56 1287.15 36 curveto
1290.12 35.13 1293.18 34.19 1296.24 33.21 curveto
stroke
0 0 0 edgecolor
newpath 1297.58 36.45 moveto
1305.98 29.99 lineto
1295.38 29.81 lineto
closepath fill
1 setlinewidth
solid
0 0 0 edgecolor
newpath 1297.58 36.45 moveto
1305.98 29.99 lineto
1295.38 29.81 lineto
closepath stroke
grestore
% killbots
gsave
1 setlinewidth
0 0 0 nodecolor
1431.15 18 37.09 18 ellipse_path stroke
0 0 0 nodecolor
14 /Times-Roman set_font
1410.65 14.3 moveto 41 (killbots) alignedtext
grestore
% libkdegames->killbots
gsave
1 setlinewidth
0 0 0 edgecolor
newpath 1118.45 83.39 moveto
1182.17 75.86 1292.76 60.51 1385.15 36 curveto
1388.1 35.22 1391.12 34.32 1394.14 33.36 curveto
stroke
0 0 0 edgecolor
newpath 1395.35 36.64 moveto
1403.69 30.11 lineto
1393.09 30.02 lineto
closepath fill
1 setlinewidth
solid
0 0 0 edgecolor
newpath 1395.35 36.64 moveto
1403.69 30.11 lineto
1393.09 30.02 lineto
closepath stroke
grestore
% katomic
gsave
1 setlinewidth
0 0 0 nodecolor
1526.15 18 39.79 18 ellipse_path stroke
0 0 0 nodecolor
14 /Times-Roman set_font
1503.65 14.3 moveto 45 (katomic) alignedtext
grestore
% libkdegames->katomic
gsave
1 setlinewidth
0 0 0 edgecolor
newpath 1120.64 85.55 moveto
1199.95 79.74 1351.44 65.58 1477.15 36 curveto
1480.49 35.21 1483.93 34.28 1487.35 33.27 curveto
stroke
0 0 0 edgecolor
newpath 1488.42 36.6 moveto
1496.9 30.25 lineto
1486.31 29.93 lineto
closepath fill
1 setlinewidth
solid
0 0 0 edgecolor
newpath 1488.42 36.6 moveto
1496.9 30.25 lineto
1486.31 29.93 lineto
closepath stroke
grestore
% kapman
gsave
1 setlinewidth
0 0 0 nodecolor
1623.15 18 38.99 18 ellipse_path stroke
0 0 0 nodecolor
14 /Times-Roman set_font
1601.15 14.3 moveto 44 (kapman) alignedtext
grestore
% libkdegames->kapman
gsave
1 setlinewidth
0 0 0 edgecolor
newpath 1121.82 87.5 moveto
1216.19 84.01 1413.08 72.59 1575.15 36 curveto
1578.34 35.28 1581.61 34.41 1584.87 33.46 curveto
stroke
0 0 0 edgecolor
newpath 1586.07 36.75 moveto
1594.54 30.38 lineto
1583.94 30.08 lineto
closepath fill
1 setlinewidth
solid
0 0 0 edgecolor
newpath 1586.07 36.75 moveto
1594.54 30.38 lineto
1583.94 30.08 lineto
closepath stroke
grestore
% ksquares
gsave
1 setlinewidth
0 0 0 nodecolor
1722.15 18 41.69 18 ellipse_path stroke
0 0 0 nodecolor
14 /Times-Roman set_font
1698.15 14.3 moveto 48 (ksquares) alignedtext
grestore
% libkdegames->ksquares
gsave
1 setlinewidth
0 0 0 edgecolor
newpath 1122.25 88.45 moveto
1229.84 86.45 1472.15 77.28 1671.15 36 curveto
1674.74 35.25 1678.43 34.34 1682.11 33.32 curveto
stroke
0 0 0 edgecolor
newpath 1683.15 36.66 moveto
1691.72 30.43 lineto
1681.14 29.96 lineto
closepath fill
1 setlinewidth
solid
0 0 0 edgecolor
newpath 1683.15 36.66 moveto
1691.72 30.43 lineto
1681.14 29.96 lineto
closepath stroke
grestore
% kblackbox
gsave
1 setlinewidth
0 0 0 nodecolor
1829.15 18 47.39 18 ellipse_path stroke
0 0 0 nodecolor
14 /Times-Roman set_font
1800.65 14.3 moveto 57 (kblackbox) alignedtext
grestore
% libkdegames->kblackbox
gsave
1 setlinewidth
0 0 0 edgecolor
newpath 1122.14 88.96 moveto
1242.4 87.98 1533.88 80.72 1773.15 36 curveto
1777.08 35.26 1781.13 34.35 1785.16 33.34 curveto
stroke
0 0 0 edgecolor
newpath 1786.36 36.64 moveto
1795.09 30.64 lineto
1784.52 29.89 lineto
closepath fill
1 setlinewidth
solid
0 0 0 edgecolor
newpath 1786.36 36.64 moveto
1795.09 30.64 lineto
1784.52 29.89 lineto
closepath stroke
grestore
% okular
gsave
1 setlinewidth
0 0 0 nodecolor
2606.15 18 33.29 18 ellipse_path stroke
0 0 0 nodecolor
14 /Times-Roman set_font
2588.65 14.3 moveto 35 (okular) alignedtext
grestore
% libkexiv2->okular
gsave
1 setlinewidth
0 0 0 edgecolor
newpath 2807.88 78 moveto
2801.35 75.94 2794.55 73.85 2788.15 72 curveto
2726.42 54.18 2709.17 56.1 2648.15 36 curveto
2645.73 35.2 2643.25 34.34 2640.76 33.43 curveto
stroke
0 0 0 edgecolor
newpath 2641.85 30.1 moveto
2631.26 29.8 lineto
2639.35 36.64 lineto
closepath fill
1 setlinewidth
solid
0 0 0 edgecolor
newpath 2641.85 30.1 moveto
2631.26 29.8 lineto
2639.35 36.64 lineto
closepath stroke
grestore
% kdegraphics-thumbnailers
gsave
1 setlinewidth
0 0 0 nodecolor
2879.15 18 102.88 18 ellipse_path stroke
0 0 0 nodecolor
14 /Times-Roman set_font
2808.15 14.3 moveto 142 (kdegraphics-thumbnailers) alignedtext
grestore
% libkexiv2->kdegraphics-thumbnailers
gsave
1 setlinewidth
0 0 0 edgecolor
newpath 2850.34 72.05 moveto
2854.71 64.01 2860.03 54.2 2864.91 45.23 curveto
stroke
0 0 0 edgecolor
newpath 2868.07 46.73 moveto
2869.77 36.28 lineto
2861.92 43.39 lineto
closepath fill
1 setlinewidth
solid
0 0 0 edgecolor
newpath 2868.07 46.73 moveto
2869.77 36.28 lineto
2861.92 43.39 lineto
closepath stroke
grestore
% kdeartwork
gsave
1 setlinewidth
0 0 0 nodecolor
2708.15 18 50.89 18 ellipse_path stroke
0 0 0 nodecolor
14 /Times-Roman set_font
2677.15 14.3 moveto 62 (kdeartwork) alignedtext
grestore
% libkexiv2->kdeartwork
gsave
1 setlinewidth
0 0 0 edgecolor
newpath 2815.19 75.34 moveto
2794.99 64.71 2766.72 49.83 2744.31 38.03 curveto
stroke
0 0 0 edgecolor
newpath 2745.89 34.91 moveto
2735.41 33.35 lineto
2742.63 41.11 lineto
closepath fill
1 setlinewidth
solid
0 0 0 edgecolor
newpath 2745.89 34.91 moveto
2735.41 33.35 lineto
2742.63 41.11 lineto
closepath stroke
grestore
% kdegraphics-mobipocket->okular
gsave
1 setlinewidth
0 0 0 edgecolor
newpath 2662.99 72.05 moveto
2652.94 62.68 2640.35 50.92 2629.56 40.86 curveto
stroke
0 0 0 edgecolor
newpath 2631.8 38.15 moveto
2622.1 33.89 lineto
2627.02 43.27 lineto
closepath fill
1 setlinewidth
solid
0 0 0 edgecolor
newpath 2631.8 38.15 moveto
2622.1 33.89 lineto
2627.02 43.27 lineto
closepath stroke
grestore
% ksaneplugin
gsave
1 setlinewidth
0 0 0 nodecolor
3053.15 18 53.09 18 ellipse_path stroke
0 0 0 nodecolor
14 /Times-Roman set_font
3020.15 14.3 moveto 66 (ksaneplugin) alignedtext
grestore
% libksane->ksaneplugin
gsave
1 setlinewidth
0 0 0 edgecolor
newpath 3053.15 71.7 moveto
3053.15 63.98 3053.15 54.71 3053.15 46.11 curveto
stroke
0 0 0 edgecolor
newpath 3056.65 46.1 moveto
3053.15 36.1 lineto
3049.65 46.1 lineto
closepath fill
1 setlinewidth
solid
0 0 0 edgecolor
newpath 3056.65 46.1 moveto
3053.15 36.1 lineto
3049.65 46.1 lineto
closepath stroke
grestore
% dolphin-plugins
gsave
1 setlinewidth
0 0 0 nodecolor
3191.15 18 66.09 18 ellipse_path stroke
0 0 0 nodecolor
14 /Times-Roman set_font
3148.15 14.3 moveto 86 (dolphin-plugins) alignedtext
grestore
% kde-baseapps->dolphin-plugins
gsave
1 setlinewidth
0 0 0 edgecolor
newpath 3174.47 72.05 moveto
3176.92 64.26 3179.89 54.82 3182.64 46.08 curveto
stroke
0 0 0 edgecolor
newpath 3186.06 46.86 moveto
3185.72 36.28 lineto
3179.38 44.77 lineto
closepath fill
1 setlinewidth
solid
0 0 0 edgecolor
newpath 3186.06 46.86 moveto
3185.72 36.28 lineto
3179.38 44.77 lineto
closepath stroke
grestore
% ark
gsave
1 setlinewidth
0 0 0 nodecolor
3302.15 18 27 18 ellipse_path stroke
0 0 0 nodecolor
14 /Times-Roman set_font
3293.15 14.3 moveto 18 (ark) alignedtext
grestore
% kde-baseapps->ark
gsave
1 setlinewidth
0 0 0 edgecolor
newpath 3197.35 74.15 moveto
3219.37 62.57 3249.88 46.51 3272.31 34.7 curveto
stroke
0 0 0 edgecolor
newpath 3274.15 37.69 moveto
3281.37 29.93 lineto
3270.89 31.49 lineto
closepath fill
1 setlinewidth
solid
0 0 0 edgecolor
newpath 3274.15 37.69 moveto
3281.37 29.93 lineto
3270.89 31.49 lineto
closepath stroke
grestore
% ksnapshot
gsave
1 setlinewidth
0 0 0 nodecolor
3393.15 18 46.29 18 ellipse_path stroke
0 0 0 nodecolor
14 /Times-Roman set_font
3365.65 14.3 moveto 55 (ksnapshot) alignedtext
grestore
% libkipi->ksnapshot
gsave
1 setlinewidth
0 0 0 edgecolor
newpath 3371.92 72.05 moveto
3375.08 64.18 3378.9 54.62 3382.43 45.79 curveto
stroke
0 0 0 edgecolor
newpath 3385.77 46.86 moveto
3386.24 36.28 lineto
3379.27 44.26 lineto
closepath fill
1 setlinewidth
solid
0 0 0 edgecolor
newpath 3385.77 46.86 moveto
3386.24 36.28 lineto
3379.27 44.26 lineto
closepath stroke
grestore
% audiocd-kio
gsave
1 setlinewidth
0 0 0 nodecolor
4606.15 18 52.79 18 ellipse_path stroke
0 0 0 nodecolor
14 /Times-Roman set_font
4573.65 14.3 moveto 65 (audiocd-kio) alignedtext
grestore
% libkcompactdisc->audiocd-kio
gsave
1 setlinewidth
0 0 0 edgecolor
newpath 4557.31 72.41 moveto
4565.36 63.61 4575.4 52.63 4584.28 42.92 curveto
stroke
0 0 0 edgecolor
newpath 4586.92 45.21 moveto
4591.09 35.47 lineto
4581.76 40.49 lineto
closepath fill
1 setlinewidth
solid
0 0 0 edgecolor
newpath 4586.92 45.21 moveto
4591.09 35.47 lineto
4581.76 40.49 lineto
closepath stroke
grestore
% khangman
gsave
1 setlinewidth
0 0 0 nodecolor
4887.15 18 48.19 18 ellipse_path stroke
0 0 0 nodecolor
14 /Times-Roman set_font
4858.15 14.3 moveto 58 (khangman) alignedtext
grestore
% libkeduvocdocument->khangman
gsave
1 setlinewidth
0 0 0 edgecolor
newpath 5001.93 73.29 moveto
4979.06 62.47 4948.63 48.08 4924.84 36.83 curveto
stroke
0 0 0 edgecolor
newpath 4926.29 33.64 moveto
4915.76 32.53 lineto
4923.3 39.97 lineto
closepath fill
1 setlinewidth
solid
0 0 0 edgecolor
newpath 4926.29 33.64 moveto
4915.76 32.53 lineto
4923.3 39.97 lineto
closepath stroke
grestore
% parley
gsave
1 setlinewidth
0 0 0 nodecolor
4986.15 18 32.49 18 ellipse_path stroke
0 0 0 nodecolor
14 /Times-Roman set_font
4969.15 14.3 moveto 34 (parley) alignedtext
grestore
% libkeduvocdocument->parley
gsave
1 setlinewidth
0 0 0 edgecolor
newpath 5023.28 72.05 moveto
5017.3 63.5 5009.93 52.97 5003.34 43.56 curveto
stroke
0 0 0 edgecolor
newpath 5006.16 41.49 moveto
4997.56 35.31 lineto
5000.43 45.51 lineto
closepath fill
1 setlinewidth
solid
0 0 0 edgecolor
newpath 5006.16 41.49 moveto
4997.56 35.31 lineto
5000.43 45.51 lineto
closepath stroke
grestore
% kanagram
gsave
1 setlinewidth
0 0 0 nodecolor
5083.15 18 46.29 18 ellipse_path stroke
0 0 0 nodecolor
14 /Times-Roman set_font
5055.65 14.3 moveto 55 (kanagram) alignedtext
grestore
% libkeduvocdocument->kanagram
gsave
1 setlinewidth
0 0 0 edgecolor
newpath 5046.77 72.05 moveto
5052.48 63.71 5059.5 53.49 5065.83 44.25 curveto
stroke
0 0 0 edgecolor
newpath 5068.86 46.02 moveto
5071.63 35.79 lineto
5063.09 42.06 lineto
closepath fill
1 setlinewidth
solid
0 0 0 edgecolor
newpath 5068.86 46.02 moveto
5071.63 35.79 lineto
5063.09 42.06 lineto
closepath stroke
grestore
% kwordquiz
gsave
1 setlinewidth
0 0 0 nodecolor
5195.15 18 48.19 18 ellipse_path stroke
0 0 0 nodecolor
14 /Times-Roman set_font
5166.15 14.3 moveto 58 (kwordquiz) alignedtext
grestore
% libkeduvocdocument->kwordquiz
gsave
1 setlinewidth
0 0 0 edgecolor
newpath 5070.66 73.46 moveto
5095.91 62.42 5129.84 47.57 5155.9 36.17 curveto
stroke
0 0 0 edgecolor
newpath 5157.35 39.36 moveto
5165.11 32.14 lineto
5154.55 32.94 lineto
closepath fill
1 setlinewidth
solid
0 0 0 edgecolor
newpath 5157.35 39.36 moveto
5165.11 32.14 lineto
5154.55 32.94 lineto
closepath stroke
grestore
% libkmahjongg->kshisen
gsave
1 setlinewidth
0 0 0 edgecolor
newpath 1608.53 77.45 moveto
1616.67 75.48 1625.14 73.57 1633.15 72 curveto
1744.17 50.25 1775.47 63.77 1885.15 36 curveto
1888.1 35.25 1891.14 34.38 1894.16 33.43 curveto
stroke
0 0 0 edgecolor
newpath 1895.36 36.72 moveto
1903.72 30.22 lineto
1893.12 30.09 lineto
closepath fill
1 setlinewidth
solid
0 0 0 edgecolor
newpath 1895.36 36.72 moveto
1903.72 30.22 lineto
1893.12 30.09 lineto
closepath stroke
grestore
% libkdcraw->kdegraphics-thumbnailers
gsave
1 setlinewidth
0 0 0 edgecolor
newpath 2932.91 72.76 moveto
2924.16 64.01 2913.18 53.03 2903.43 43.28 curveto
stroke
0 0 0 edgecolor
newpath 2905.82 40.72 moveto
2896.27 36.12 lineto
2900.87 45.67 lineto
closepath fill
1 setlinewidth
solid
0 0 0 edgecolor
newpath 2905.82 40.72 moveto
2896.27 36.12 lineto
2900.87 45.67 lineto
closepath stroke
grestore
% libkcddb->audiocd-kio
gsave
1 setlinewidth
0 0 0 edgecolor
newpath 4655.62 73.12 moveto
4647.48 64.2 4637.15 52.91 4628.04 42.94 curveto
stroke
0 0 0 edgecolor
newpath 4630.39 40.33 moveto
4621.06 35.31 lineto
4625.22 45.05 lineto
closepath fill
1 setlinewidth
solid
0 0 0 edgecolor
newpath 4630.39 40.33 moveto
4621.06 35.31 lineto
4625.22 45.05 lineto
closepath stroke
grestore
% kalgebra
gsave
1 setlinewidth
0 0 0 nodecolor
9064.15 18 40.89 18 ellipse_path stroke
0 0 0 nodecolor
14 /Times-Roman set_font
9040.65 14.3 moveto 47 (kalgebra) alignedtext
grestore
% analitza->kalgebra
gsave
1 setlinewidth
0 0 0 edgecolor
newpath 9099.24 72.41 moveto
9093.69 63.95 9086.81 53.49 9080.63 44.08 curveto
stroke
0 0 0 edgecolor
newpath 9083.39 41.9 moveto
9074.97 35.47 lineto
9077.54 45.75 lineto
closepath fill
1 setlinewidth
solid
0 0 0 edgecolor
newpath 9083.39 41.9 moveto
9074.97 35.47 lineto
9077.54 45.75 lineto
closepath stroke
grestore
% cantor
gsave
1 setlinewidth
0 0 0 nodecolor
9155.15 18 32.49 18 ellipse_path stroke
0 0 0 nodecolor
14 /Times-Roman set_font
9138.15 14.3 moveto 34 (cantor) alignedtext
grestore
% analitza->cantor
gsave
1 setlinewidth
0 0 0 edgecolor
newpath 9120.81 72.41 moveto
9126.25 63.95 9132.97 53.49 9139.02 44.08 curveto
stroke
0 0 0 edgecolor
newpath 9142.09 45.77 moveto
9144.56 35.47 lineto
9136.21 41.99 lineto
closepath fill
1 setlinewidth
solid
0 0 0 edgecolor
newpath 9142.09 45.77 moveto
9144.56 35.47 lineto
9136.21 41.99 lineto
closepath stroke
grestore
% kompare
gsave
1 setlinewidth
0 0 0 nodecolor
10207.15 18 42.49 18 ellipse_path stroke
0 0 0 nodecolor
14 /Times-Roman set_font
10182.65 14.3 moveto 49 (kompare) alignedtext
grestore
% libkomparediff2->kompare
gsave
1 setlinewidth
0 0 0 edgecolor
newpath 10207.15 71.7 moveto
10207.15 63.98 10207.15 54.71 10207.15 46.11 curveto
stroke
0 0 0 edgecolor
newpath 10210.65 46.1 moveto
10207.15 36.1 lineto
10203.65 46.1 lineto
closepath fill
1 setlinewidth
solid
0 0 0 edgecolor
newpath 10210.65 46.1 moveto
10207.15 36.1 lineto
10203.65 46.1 lineto
closepath stroke
grestore
endpage
showpage
grestore
%%PageTrailer
%%EndPage: 1
%%Trailer
%%Pages: 1
%%BoundingBox: 36 36 576 43
end
restore
%%EOF
