%!PS-Adobe-3.0
%%Creator: graphviz version 2.38.0 (20140413.2041)
%%Title: KDE's Plasma 5.3.1
%%Pages: (atend)
%%BoundingBox: (atend)
%%EndComments
save
%%BeginProlog
/DotDict 200 dict def
DotDict begin

/setupLatin1 {
mark
/EncodingVector 256 array def
 EncodingVector 0

ISOLatin1Encoding 0 255 getinterval putinterval
EncodingVector 45 /hyphen put

% Set up ISO Latin 1 character encoding
/starnetISO {
        dup dup findfont dup length dict begin
        { 1 index /FID ne { def }{ pop pop } ifelse
        } forall
        /Encoding EncodingVector def
        currentdict end definefont
} def
/Times-Roman starnetISO def
/Times-Italic starnetISO def
/Times-Bold starnetISO def
/Times-BoldItalic starnetISO def
/Helvetica starnetISO def
/Helvetica-Oblique starnetISO def
/Helvetica-Bold starnetISO def
/Helvetica-BoldOblique starnetISO def
/Courier starnetISO def
/Courier-Oblique starnetISO def
/Courier-Bold starnetISO def
/Courier-BoldOblique starnetISO def
cleartomark
} bind def

%%BeginResource: procset graphviz 0 0
/coord-font-family /Times-Roman def
/default-font-family /Times-Roman def
/coordfont coord-font-family findfont 8 scalefont def

/InvScaleFactor 1.0 def
/set_scale {
       dup 1 exch div /InvScaleFactor exch def
       scale
} bind def

% styles
/solid { [] 0 setdash } bind def
/dashed { [9 InvScaleFactor mul dup ] 0 setdash } bind def
/dotted { [1 InvScaleFactor mul 6 InvScaleFactor mul] 0 setdash } bind def
/invis {/fill {newpath} def /stroke {newpath} def /show {pop newpath} def} bind def
/bold { 2 setlinewidth } bind def
/filled { } bind def
/unfilled { } bind def
/rounded { } bind def
/diagonals { } bind def
/tapered { } bind def

% hooks for setting color 
/nodecolor { sethsbcolor } bind def
/edgecolor { sethsbcolor } bind def
/graphcolor { sethsbcolor } bind def
/nopcolor {pop pop pop} bind def

/beginpage {	% i j npages
	/npages exch def
	/j exch def
	/i exch def
	/str 10 string def
	npages 1 gt {
		gsave
			coordfont setfont
			0 0 moveto
			(\() show i str cvs show (,) show j str cvs show (\)) show
		grestore
	} if
} bind def

/set_font {
	findfont exch
	scalefont setfont
} def

% draw text fitted to its expected width
/alignedtext {			% width text
	/text exch def
	/width exch def
	gsave
		width 0 gt {
			[] 0 setdash
			text stringwidth pop width exch sub text length div 0 text ashow
		} if
	grestore
} def

/boxprim {				% xcorner ycorner xsize ysize
		4 2 roll
		moveto
		2 copy
		exch 0 rlineto
		0 exch rlineto
		pop neg 0 rlineto
		closepath
} bind def

/ellipse_path {
	/ry exch def
	/rx exch def
	/y exch def
	/x exch def
	matrix currentmatrix
	newpath
	x y translate
	rx ry scale
	0 0 1 0 360 arc
	setmatrix
} bind def

/endpage { showpage } bind def
/showpage { } def

/layercolorseq
	[	% layer color sequence - darkest to lightest
		[0 0 0]
		[.2 .8 .8]
		[.4 .8 .8]
		[.6 .8 .8]
		[.8 .8 .8]
	]
def

/layerlen layercolorseq length def

/setlayer {/maxlayer exch def /curlayer exch def
	layercolorseq curlayer 1 sub layerlen mod get
	aload pop sethsbcolor
	/nodecolor {nopcolor} def
	/edgecolor {nopcolor} def
	/graphcolor {nopcolor} def
} bind def

/onlayer { curlayer ne {invis} if } def

/onlayers {
	/myupper exch def
	/mylower exch def
	curlayer mylower lt
	curlayer myupper gt
	or
	{invis} if
} def

/curlayer 0 def

%%EndResource
%%EndProlog
%%BeginSetup
14 default-font-family set_font
1 setmiterlimit
% /arrowlength 10 def
% /arrowwidth 5 def

% make sure pdfmark is harmless for PS-interpreters other than Distiller
/pdfmark where {pop} {userdict /pdfmark /cleartomark load put} ifelse
% make '<<' and '>>' safe on PS Level 1 devices
/languagelevel where {pop languagelevel}{1} ifelse
2 lt {
    userdict (<<) cvn ([) cvn load put
    userdict (>>) cvn ([) cvn load put
} if

%%EndSetup
setupLatin1
%%Page: 1 1
%%PageBoundingBox: 36 36 576 101
%%PageOrientation: Portrait
0 0 1 beginpage
gsave
36 36 540 65 boxprim clip newpath
0.161373 0.161373 set_scale 0 rotate 227.086 227.086 translate
% GOD
gsave
grestore
% muon
gsave
1 setlinewidth
0 0 0 nodecolor
31.2 306 31.4 18 ellipse_path stroke
0 0 0 nodecolor
14 /Times-Roman set_font
15.2 302.3 moveto 32 (muon) alignedtext
grestore
% GOD->muon
gsave
grestore
% bluez-qt
gsave
1 setlinewidth
0 0 0 nodecolor
120.2 306 39.79 18 ellipse_path stroke
0 0 0 nodecolor
14 /Times-Roman set_font
97.7 302.3 moveto 45 (bluez-qt) alignedtext
grestore
% GOD->bluez-qt
gsave
grestore
% kwayland
gsave
1 setlinewidth
0 0 0 nodecolor
222.2 306 44.69 18 ellipse_path stroke
0 0 0 nodecolor
14 /Times-Roman set_font
195.7 302.3 moveto 53 (kwayland) alignedtext
grestore
% GOD->kwayland
gsave
grestore
% kdecoration
gsave
1 setlinewidth
0 0 0 nodecolor
337.2 306 51.99 18 ellipse_path stroke
0 0 0 nodecolor
14 /Times-Roman set_font
305.2 302.3 moveto 64 (kdecoration) alignedtext
grestore
% GOD->kdecoration
gsave
grestore
% plasma-workspace-wallpapers
gsave
1 setlinewidth
0 0 0 nodecolor
525.2 306 117.78 18 ellipse_path stroke
0 0 0 nodecolor
14 /Times-Roman set_font
442.7 302.3 moveto 165 (plasma-workspace-wallpapers) alignedtext
grestore
% GOD->plasma-workspace-wallpapers
gsave
grestore
% libksysguard
gsave
1 setlinewidth
0 0 0 nodecolor
717.2 306 55.79 18 ellipse_path stroke
0 0 0 nodecolor
14 /Times-Roman set_font
682.2 302.3 moveto 70 (libksysguard) alignedtext
grestore
% GOD->libksysguard
gsave
grestore
% oxygen-qt4
gsave
1 setlinewidth
0 0 0 nodecolor
842.2 306 50.89 18 ellipse_path stroke
0 0 0 nodecolor
14 /Times-Roman set_font
811.2 302.3 moveto 62 (oxygen-qt4) alignedtext
grestore
% GOD->oxygen-qt4
gsave
grestore
% libkscreen
gsave
1 setlinewidth
0 0 0 nodecolor
957.2 306 46.59 18 ellipse_path stroke
0 0 0 nodecolor
14 /Times-Roman set_font
929.2 302.3 moveto 56 (libkscreen) alignedtext
grestore
% GOD->libkscreen
gsave
grestore
% oxygen-fonts
gsave
1 setlinewidth
0 0 0 nodecolor
1079.2 306 57.39 18 ellipse_path stroke
0 0 0 nodecolor
14 /Times-Roman set_font
1043.2 302.3 moveto 72 (oxygen-fonts) alignedtext
grestore
% GOD->oxygen-fonts
gsave
grestore
% user-manager
gsave
1 setlinewidth
0 0 0 nodecolor
1213.2 306 59.29 18 ellipse_path stroke
0 0 0 nodecolor
14 /Times-Roman set_font
1175.7 302.3 moveto 75 (user-manager) alignedtext
grestore
% GOD->user-manager
gsave
grestore
% systemsettings
gsave
1 setlinewidth
0 0 0 nodecolor
1353.2 306 62.29 18 ellipse_path stroke
0 0 0 nodecolor
14 /Times-Roman set_font
1313.2 302.3 moveto 80 (systemsettings) alignedtext
grestore
% GOD->systemsettings
gsave
grestore
% kwrited
gsave
1 setlinewidth
0 0 0 nodecolor
1471.2 306 37.89 18 ellipse_path stroke
0 0 0 nodecolor
14 /Times-Roman set_font
1450.2 302.3 moveto 42 (kwrited) alignedtext
grestore
% GOD->kwrited
gsave
grestore
% khelpcenter
gsave
1 setlinewidth
0 0 0 nodecolor
1579.2 306 51.99 18 ellipse_path stroke
0 0 0 nodecolor
14 /Times-Roman set_font
1547.2 302.3 moveto 64 (khelpcenter) alignedtext
grestore
% GOD->khelpcenter
gsave
grestore
% kcm-touchpad
gsave
1 setlinewidth
0 0 0 nodecolor
1711.2 306 61.99 18 ellipse_path stroke
0 0 0 nodecolor
14 /Times-Roman set_font
1671.7 302.3 moveto 79 (kcm-touchpad) alignedtext
grestore
% GOD->kcm-touchpad
gsave
grestore
% plasma-sdk
gsave
1 setlinewidth
0 0 0 nodecolor
1842.2 306 51.19 18 ellipse_path stroke
0 0 0 nodecolor
14 /Times-Roman set_font
1810.7 302.3 moveto 63 (plasma-sdk) alignedtext
grestore
% GOD->plasma-sdk
gsave
grestore
% kfilemetadata-kf5
gsave
1 setlinewidth
0 0 0 nodecolor
1985.2 306 73.39 18 ellipse_path stroke
0 0 0 nodecolor
14 /Times-Roman set_font
1936.7 302.3 moveto 97 (kfilemetadata-kf5) alignedtext
grestore
% GOD->kfilemetadata-kf5
gsave
grestore
% polkit-kde-agent-1
gsave
1 setlinewidth
0 0 0 nodecolor
2152.2 306 76.09 18 ellipse_path stroke
0 0 0 nodecolor
14 /Times-Roman set_font
2101.7 302.3 moveto 101 (polkit-kde-agent-1) alignedtext
grestore
% GOD->polkit-kde-agent-1
gsave
grestore
% kio-extras
gsave
1 setlinewidth
0 0 0 nodecolor
2292.2 306 46.29 18 ellipse_path stroke
0 0 0 nodecolor
14 /Times-Roman set_font
2264.7 302.3 moveto 55 (kio-extras) alignedtext
grestore
% GOD->kio-extras
gsave
grestore
% plasma-nm
gsave
1 setlinewidth
0 0 0 nodecolor
2407.2 306 50.89 18 ellipse_path stroke
0 0 0 nodecolor
14 /Times-Roman set_font
2376.2 302.3 moveto 62 (plasma-nm) alignedtext
grestore
% GOD->plasma-nm
gsave
grestore
% kdeplasma-addons
gsave
1 setlinewidth
0 0 0 nodecolor
2552.2 306 76.89 18 ellipse_path stroke
0 0 0 nodecolor
14 /Times-Roman set_font
2501.2 302.3 moveto 102 (kdeplasma-addons) alignedtext
grestore
% GOD->kdeplasma-addons
gsave
grestore
% kde-gtk-config
gsave
1 setlinewidth
0 0 0 nodecolor
2710.2 306 63.09 18 ellipse_path stroke
0 0 0 nodecolor
14 /Times-Roman set_font
2669.7 302.3 moveto 81 (kde-gtk-config) alignedtext
grestore
% GOD->kde-gtk-config
gsave
grestore
% sddm-kcm
gsave
1 setlinewidth
0 0 0 nodecolor
2840.2 306 48.99 18 ellipse_path stroke
0 0 0 nodecolor
14 /Times-Roman set_font
2810.7 302.3 moveto 59 (sddm-kcm) alignedtext
grestore
% GOD->sddm-kcm
gsave
grestore
% milou
gsave
1 setlinewidth
0 0 0 nodecolor
2939.2 306 31.7 18 ellipse_path stroke
0 0 0 nodecolor
14 /Times-Roman set_font
2922.7 302.3 moveto 33 (milou) alignedtext
grestore
% GOD->milou
gsave
grestore
% ksshaskpass
gsave
1 setlinewidth
0 0 0 nodecolor
3042.2 306 53.09 18 ellipse_path stroke
0 0 0 nodecolor
14 /Times-Roman set_font
3009.2 302.3 moveto 66 (ksshaskpass) alignedtext
grestore
% GOD->ksshaskpass
gsave
grestore
% kde-cli-tools
gsave
1 setlinewidth
0 0 0 nodecolor
3169.2 306 55.49 18 ellipse_path stroke
0 0 0 nodecolor
14 /Times-Roman set_font
3134.7 302.3 moveto 69 (kde-cli-tools) alignedtext
grestore
% GOD->kde-cli-tools
gsave
grestore
% breeze-qt4
gsave
1 setlinewidth
0 0 0 nodecolor
3290.2 306 48.19 18 ellipse_path stroke
0 0 0 nodecolor
14 /Times-Roman set_font
3261.2 302.3 moveto 58 (breeze-qt4) alignedtext
grestore
% GOD->breeze-qt4
gsave
grestore
% bluedevil
gsave
1 setlinewidth
0 0 0 nodecolor
115.2 234 43.59 18 ellipse_path stroke
0 0 0 nodecolor
14 /Times-Roman set_font
89.7 230.3 moveto 51 (bluedevil) alignedtext
grestore
% bluez-qt->bluedevil
gsave
1 setlinewidth
0 0 0 edgecolor
newpath 118.96 287.7 moveto
118.41 279.98 117.75 270.71 117.13 262.11 curveto
stroke
0 0 0 edgecolor
newpath 120.62 261.83 moveto
116.42 252.1 lineto
113.64 262.33 lineto
closepath fill
1 setlinewidth
solid
0 0 0 edgecolor
newpath 120.62 261.83 moveto
116.42 252.1 lineto
113.64 262.33 lineto
closepath stroke
grestore
% kwin
gsave
1 setlinewidth
0 0 0 nodecolor
331.2 234 28.7 18 ellipse_path stroke
0 0 0 nodecolor
14 /Times-Roman set_font
317.2 230.3 moveto 28 (kwin) alignedtext
grestore
% kwayland->kwin
gsave
1 setlinewidth
0 0 0 edgecolor
newpath 245.05 290.33 moveto
261.85 279.54 284.78 264.81 302.77 253.26 curveto
stroke
0 0 0 edgecolor
newpath 305.14 255.89 moveto
311.66 247.55 lineto
301.36 250 lineto
closepath fill
1 setlinewidth
solid
0 0 0 edgecolor
newpath 305.14 255.89 moveto
311.66 247.55 lineto
301.36 250 lineto
closepath stroke
grestore
% kinfocenter
gsave
1 setlinewidth
0 0 0 nodecolor
227.2 234 50.89 18 ellipse_path stroke
0 0 0 nodecolor
14 /Times-Roman set_font
196.2 230.3 moveto 62 (kinfocenter) alignedtext
grestore
% kwayland->kinfocenter
gsave
1 setlinewidth
0 0 0 edgecolor
newpath 223.43 287.7 moveto
223.98 279.98 224.65 270.71 225.26 262.11 curveto
stroke
0 0 0 edgecolor
newpath 228.75 262.33 moveto
225.98 252.1 lineto
221.77 261.83 lineto
closepath fill
1 setlinewidth
solid
0 0 0 edgecolor
newpath 228.75 262.33 moveto
225.98 252.1 lineto
221.77 261.83 lineto
closepath stroke
grestore
% kdecoration->kwin
gsave
1 setlinewidth
0 0 0 edgecolor
newpath 335.71 287.7 moveto
335.05 279.98 334.26 270.71 333.52 262.11 curveto
stroke
0 0 0 edgecolor
newpath 337 261.77 moveto
332.66 252.1 lineto
330.03 262.37 lineto
closepath fill
1 setlinewidth
solid
0 0 0 edgecolor
newpath 337 261.77 moveto
332.66 252.1 lineto
330.03 262.37 lineto
closepath stroke
grestore
% breeze
gsave
1 setlinewidth
0 0 0 nodecolor
411.2 234 33.6 18 ellipse_path stroke
0 0 0 nodecolor
14 /Times-Roman set_font
393.2 230.3 moveto 36 (breeze) alignedtext
grestore
% kdecoration->breeze
gsave
1 setlinewidth
0 0 0 edgecolor
newpath 354.36 288.76 moveto
364.26 279.4 376.84 267.5 387.65 257.28 curveto
stroke
0 0 0 edgecolor
newpath 390.28 259.6 moveto
395.14 250.19 lineto
385.47 254.52 lineto
closepath fill
1 setlinewidth
solid
0 0 0 edgecolor
newpath 390.28 259.6 moveto
395.14 250.19 lineto
385.47 254.52 lineto
closepath stroke
grestore
% plasma-workspace
gsave
1 setlinewidth
0 0 0 nodecolor
797.2 162 76.89 18 ellipse_path stroke
0 0 0 nodecolor
14 /Times-Roman set_font
746.2 158.3 moveto 102 (plasma-workspace) alignedtext
grestore
% libksysguard->plasma-workspace
gsave
1 setlinewidth
0 0 0 edgecolor
newpath 717.67 287.77 moveto
718.89 268.94 722.95 238.45 736.2 216 curveto
743.11 204.27 753.55 193.82 763.85 185.36 curveto
stroke
0 0 0 edgecolor
newpath 766.26 187.92 moveto
772.01 179.02 lineto
761.97 182.39 lineto
closepath fill
1 setlinewidth
solid
0 0 0 edgecolor
newpath 766.26 187.92 moveto
772.01 179.02 lineto
761.97 182.39 lineto
closepath stroke
grestore
% ksysguard
gsave
1 setlinewidth
0 0 0 nodecolor
791.2 234 46.29 18 ellipse_path stroke
0 0 0 nodecolor
14 /Times-Roman set_font
763.7 230.3 moveto 55 (ksysguard) alignedtext
grestore
% libksysguard->ksysguard
gsave
1 setlinewidth
0 0 0 edgecolor
newpath 734.36 288.76 moveto
744.05 279.6 756.31 268 766.97 257.92 curveto
stroke
0 0 0 edgecolor
newpath 769.52 260.32 moveto
774.38 250.91 lineto
764.71 255.24 lineto
closepath fill
1 setlinewidth
solid
0 0 0 edgecolor
newpath 769.52 260.32 moveto
774.38 250.91 lineto
764.71 255.24 lineto
closepath stroke
grestore
% libkscreen->plasma-workspace
gsave
1 setlinewidth
0 0 0 edgecolor
newpath 939.46 289.26 moveto
911.34 264.3 856.33 215.48 823.57 186.41 curveto
stroke
0 0 0 edgecolor
newpath 825.55 183.49 moveto
815.75 179.47 lineto
820.91 188.72 lineto
closepath fill
1 setlinewidth
solid
0 0 0 edgecolor
newpath 825.55 183.49 moveto
815.75 179.47 lineto
820.91 188.72 lineto
closepath stroke
grestore
% kscreen
gsave
1 setlinewidth
0 0 0 nodecolor
957.2 234 37.89 18 ellipse_path stroke
0 0 0 nodecolor
14 /Times-Roman set_font
936.2 230.3 moveto 42 (kscreen) alignedtext
grestore
% libkscreen->kscreen
gsave
1 setlinewidth
0 0 0 edgecolor
newpath 957.2 287.7 moveto
957.2 279.98 957.2 270.71 957.2 262.11 curveto
stroke
0 0 0 edgecolor
newpath 960.7 262.1 moveto
957.2 252.1 lineto
953.7 262.1 lineto
closepath fill
1 setlinewidth
solid
0 0 0 edgecolor
newpath 960.7 262.1 moveto
957.2 252.1 lineto
953.7 262.1 lineto
closepath stroke
grestore
% baloo-kf5
gsave
1 setlinewidth
0 0 0 nodecolor
1521.2 234 44.69 18 ellipse_path stroke
0 0 0 nodecolor
14 /Times-Roman set_font
1494.7 230.3 moveto 53 (baloo-kf5) alignedtext
grestore
% kfilemetadata-kf5->baloo-kf5
gsave
1 setlinewidth
0 0 0 edgecolor
newpath 1931.71 293.52 moveto
1921.92 291.57 1911.76 289.64 1902.2 288 curveto
1785.27 267.91 1647.16 250.18 1573.57 241.21 curveto
stroke
0 0 0 edgecolor
newpath 1573.97 237.73 moveto
1563.62 240 lineto
1573.12 244.68 lineto
closepath fill
1 setlinewidth
solid
0 0 0 edgecolor
newpath 1573.97 237.73 moveto
1563.62 240 lineto
1573.12 244.68 lineto
closepath stroke
grestore
% khotkeys
gsave
1 setlinewidth
0 0 0 nodecolor
670.2 90 42.49 18 ellipse_path stroke
0 0 0 nodecolor
14 /Times-Roman set_font
645.7 86.3 moveto 49 (khotkeys) alignedtext
grestore
% kmenuedit
gsave
1 setlinewidth
0 0 0 nodecolor
670.2 18 48.19 18 ellipse_path stroke
0 0 0 nodecolor
14 /Times-Roman set_font
641.2 14.3 moveto 58 (kmenuedit) alignedtext
grestore
% khotkeys->kmenuedit
gsave
1 setlinewidth
0 0 0 edgecolor
newpath 670.2 71.7 moveto
670.2 63.98 670.2 54.71 670.2 46.11 curveto
stroke
0 0 0 edgecolor
newpath 673.7 46.1 moveto
670.2 36.1 lineto
666.7 46.1 lineto
closepath fill
1 setlinewidth
solid
0 0 0 edgecolor
newpath 673.7 46.1 moveto
670.2 36.1 lineto
666.7 46.1 lineto
closepath stroke
grestore
% kwin->plasma-workspace
gsave
1 setlinewidth
0 0 0 edgecolor
newpath 352.69 221.78 moveto
357.67 219.56 363.03 217.47 368.2 216 curveto
484.33 183.01 623.93 170.55 711.63 165.85 curveto
stroke
0 0 0 edgecolor
newpath 711.99 169.33 moveto
721.8 165.33 lineto
711.63 162.34 lineto
closepath fill
1 setlinewidth
solid
0 0 0 edgecolor
newpath 711.99 169.33 moveto
721.8 165.33 lineto
711.63 162.34 lineto
closepath stroke
grestore
% oxygen
gsave
1 setlinewidth
0 0 0 nodecolor
331.2 162 36.29 18 ellipse_path stroke
0 0 0 nodecolor
14 /Times-Roman set_font
311.2 158.3 moveto 40 (oxygen) alignedtext
grestore
% kwin->oxygen
gsave
1 setlinewidth
0 0 0 edgecolor
newpath 331.2 215.7 moveto
331.2 207.98 331.2 198.71 331.2 190.11 curveto
stroke
0 0 0 edgecolor
newpath 334.7 190.1 moveto
331.2 180.1 lineto
327.7 190.1 lineto
closepath fill
1 setlinewidth
solid
0 0 0 edgecolor
newpath 334.7 190.1 moveto
331.2 180.1 lineto
327.7 190.1 lineto
closepath stroke
grestore
% plasma-workspace->khotkeys
gsave
1 setlinewidth
0 0 0 edgecolor
newpath 768.38 145.12 moveto
749.21 134.55 723.97 120.64 703.87 109.56 curveto
stroke
0 0 0 edgecolor
newpath 705.49 106.46 moveto
695.04 104.7 lineto
702.11 112.59 lineto
closepath fill
1 setlinewidth
solid
0 0 0 edgecolor
newpath 705.49 106.46 moveto
695.04 104.7 lineto
702.11 112.59 lineto
closepath stroke
grestore
% plasma-desktop
gsave
1 setlinewidth
0 0 0 nodecolor
797.2 90 66.09 18 ellipse_path stroke
0 0 0 nodecolor
14 /Times-Roman set_font
754.2 86.3 moveto 86 (plasma-desktop) alignedtext
grestore
% plasma-workspace->plasma-desktop
gsave
1 setlinewidth
0 0 0 edgecolor
newpath 797.2 143.7 moveto
797.2 135.98 797.2 126.71 797.2 118.11 curveto
stroke
0 0 0 edgecolor
newpath 800.7 118.1 moveto
797.2 108.1 lineto
793.7 118.1 lineto
closepath fill
1 setlinewidth
solid
0 0 0 edgecolor
newpath 800.7 118.1 moveto
797.2 108.1 lineto
793.7 118.1 lineto
closepath stroke
grestore
% powerdevil
gsave
1 setlinewidth
0 0 0 nodecolor
931.2 90 50.09 18 ellipse_path stroke
0 0 0 nodecolor
14 /Times-Roman set_font
900.7 86.3 moveto 61 (powerdevil) alignedtext
grestore
% plasma-workspace->powerdevil
gsave
1 setlinewidth
0 0 0 edgecolor
newpath 827.27 145.29 moveto
847.3 134.83 873.73 121.02 894.93 109.95 curveto
stroke
0 0 0 edgecolor
newpath 896.72 112.96 moveto
903.96 105.23 lineto
893.47 106.76 lineto
closepath fill
1 setlinewidth
solid
0 0 0 edgecolor
newpath 896.72 112.96 moveto
903.96 105.23 lineto
893.47 106.76 lineto
closepath stroke
grestore
% baloo-kf5->plasma-workspace
gsave
1 setlinewidth
0 0 0 edgecolor
newpath 1478.08 228.83 moveto
1359.94 217.41 1029.71 185.48 876.78 170.69 curveto
stroke
0 0 0 edgecolor
newpath 876.82 167.18 moveto
866.53 169.7 lineto
876.14 174.15 lineto
closepath fill
1 setlinewidth
solid
0 0 0 edgecolor
newpath 876.82 167.18 moveto
866.53 169.7 lineto
876.14 174.15 lineto
closepath stroke
grestore
% plasma-mediacenter
gsave
1 setlinewidth
0 0 0 nodecolor
1521.2 162 82.59 18 ellipse_path stroke
0 0 0 nodecolor
14 /Times-Roman set_font
1465.7 158.3 moveto 111 (plasma-mediacenter) alignedtext
grestore
% baloo-kf5->plasma-mediacenter
gsave
1 setlinewidth
0 0 0 edgecolor
newpath 1521.2 215.7 moveto
1521.2 207.98 1521.2 198.71 1521.2 190.11 curveto
stroke
0 0 0 edgecolor
newpath 1524.7 190.1 moveto
1521.2 180.1 lineto
1517.7 190.1 lineto
closepath fill
1 setlinewidth
solid
0 0 0 edgecolor
newpath 1524.7 190.1 moveto
1521.2 180.1 lineto
1517.7 190.1 lineto
closepath stroke
grestore
endpage
showpage
grestore
%%PageTrailer
%%EndPage: 1
%%Trailer
%%Pages: 1
%%BoundingBox: 36 36 576 101
end
restore
%%EOF
