%!PS-Adobe-3.0
%%Creator: graphviz version 2.38.0 (20140413.2041)
%%Title: Qt 5.4.2
%%Pages: (atend)
%%BoundingBox: (atend)
%%EndComments
save
%%BeginProlog
/DotDict 200 dict def
DotDict begin

/setupLatin1 {
mark
/EncodingVector 256 array def
 EncodingVector 0

ISOLatin1Encoding 0 255 getinterval putinterval
EncodingVector 45 /hyphen put

% Set up ISO Latin 1 character encoding
/starnetISO {
        dup dup findfont dup length dict begin
        { 1 index /FID ne { def }{ pop pop } ifelse
        } forall
        /Encoding EncodingVector def
        currentdict end definefont
} def
/Times-Roman starnetISO def
/Times-Italic starnetISO def
/Times-Bold starnetISO def
/Times-BoldItalic starnetISO def
/Helvetica starnetISO def
/Helvetica-Oblique starnetISO def
/Helvetica-Bold starnetISO def
/Helvetica-BoldOblique starnetISO def
/Courier starnetISO def
/Courier-Oblique starnetISO def
/Courier-Bold starnetISO def
/Courier-BoldOblique starnetISO def
cleartomark
} bind def

%%BeginResource: procset graphviz 0 0
/coord-font-family /Times-Roman def
/default-font-family /Times-Roman def
/coordfont coord-font-family findfont 8 scalefont def

/InvScaleFactor 1.0 def
/set_scale {
       dup 1 exch div /InvScaleFactor exch def
       scale
} bind def

% styles
/solid { [] 0 setdash } bind def
/dashed { [9 InvScaleFactor mul dup ] 0 setdash } bind def
/dotted { [1 InvScaleFactor mul 6 InvScaleFactor mul] 0 setdash } bind def
/invis {/fill {newpath} def /stroke {newpath} def /show {pop newpath} def} bind def
/bold { 2 setlinewidth } bind def
/filled { } bind def
/unfilled { } bind def
/rounded { } bind def
/diagonals { } bind def
/tapered { } bind def

% hooks for setting color 
/nodecolor { sethsbcolor } bind def
/edgecolor { sethsbcolor } bind def
/graphcolor { sethsbcolor } bind def
/nopcolor {pop pop pop} bind def

/beginpage {	% i j npages
	/npages exch def
	/j exch def
	/i exch def
	/str 10 string def
	npages 1 gt {
		gsave
			coordfont setfont
			0 0 moveto
			(\() show i str cvs show (,) show j str cvs show (\)) show
		grestore
	} if
} bind def

/set_font {
	findfont exch
	scalefont setfont
} def

% draw text fitted to its expected width
/alignedtext {			% width text
	/text exch def
	/width exch def
	gsave
		width 0 gt {
			[] 0 setdash
			text stringwidth pop width exch sub text length div 0 text ashow
		} if
	grestore
} def

/boxprim {				% xcorner ycorner xsize ysize
		4 2 roll
		moveto
		2 copy
		exch 0 rlineto
		0 exch rlineto
		pop neg 0 rlineto
		closepath
} bind def

/ellipse_path {
	/ry exch def
	/rx exch def
	/y exch def
	/x exch def
	matrix currentmatrix
	newpath
	x y translate
	rx ry scale
	0 0 1 0 360 arc
	setmatrix
} bind def

/endpage { showpage } bind def
/showpage { } def

/layercolorseq
	[	% layer color sequence - darkest to lightest
		[0 0 0]
		[.2 .8 .8]
		[.4 .8 .8]
		[.6 .8 .8]
		[.8 .8 .8]
	]
def

/layerlen layercolorseq length def

/setlayer {/maxlayer exch def /curlayer exch def
	layercolorseq curlayer 1 sub layerlen mod get
	aload pop sethsbcolor
	/nodecolor {nopcolor} def
	/edgecolor {nopcolor} def
	/graphcolor {nopcolor} def
} bind def

/onlayer { curlayer ne {invis} if } def

/onlayers {
	/myupper exch def
	/mylower exch def
	curlayer mylower lt
	curlayer myupper gt
	or
	{invis} if
} def

/curlayer 0 def

%%EndResource
%%EndProlog
%%BeginSetup
14 default-font-family set_font
1 setmiterlimit
% /arrowlength 10 def
% /arrowwidth 5 def

% make sure pdfmark is harmless for PS-interpreters other than Distiller
/pdfmark where {pop} {userdict /pdfmark /cleartomark load put} ifelse
% make '<<' and '>>' safe on PS Level 1 devices
/languagelevel where {pop languagelevel}{1} ifelse
2 lt {
    userdict (<<) cvn ([) cvn load put
    userdict (>>) cvn ([) cvn load put
} if

%%EndSetup
setupLatin1
%%Page: 1 1
%%PageBoundingBox: 36 36 576 139
%%PageOrientation: Portrait
0 0 1 beginpage
gsave
36 36 540 103 boxprim clip newpath
0.188519 0.188519 set_scale 0 rotate 194.962 194.962 translate
% GOD
gsave
grestore
% qtbase-opensource-src
gsave
1 setlinewidth
0 0 0 nodecolor
1872.54 450 89.08 18 ellipse_path stroke
0 0 0 nodecolor
14 /Times-Roman set_font
1812.04 446.3 moveto 121 (qtbase-opensource-src) alignedtext
grestore
% GOD->qtbase-opensource-src
gsave
grestore
% qtscript-opensource-src
gsave
1 setlinewidth
0 0 0 nodecolor
1551.54 306 92.88 18 ellipse_path stroke
0 0 0 nodecolor
14 /Times-Roman set_font
1488.04 302.3 moveto 127 (qtscript-opensource-src) alignedtext
grestore
% qtbase-opensource-src->qtscript-opensource-src
gsave
1 setlinewidth
0 0 0 edgecolor
newpath 1788.74 443.81 moveto
1739.56 437.69 1677.79 424.47 1629.54 396 curveto
1603.18 380.45 1581.09 352.86 1567.22 332.51 curveto
stroke
0 0 0 edgecolor
newpath 1570.04 330.44 moveto
1561.62 324.02 lineto
1564.2 334.29 lineto
closepath fill
1 setlinewidth
solid
0 0 0 edgecolor
newpath 1570.04 330.44 moveto
1561.62 324.02 lineto
1564.2 334.29 lineto
closepath stroke
grestore
% qtxmlpatterns-opensource-src
gsave
1 setlinewidth
0 0 0 nodecolor
1754.54 378 115.88 18 ellipse_path stroke
0 0 0 nodecolor
14 /Times-Roman set_font
1673.54 374.3 moveto 162 (qtxmlpatterns-opensource-src) alignedtext
grestore
% qtbase-opensource-src->qtxmlpatterns-opensource-src
gsave
1 setlinewidth
0 0 0 edgecolor
newpath 1845.17 432.76 moveto
1829.17 423.27 1808.76 411.17 1791.36 400.84 curveto
stroke
0 0 0 edgecolor
newpath 1792.96 397.73 moveto
1782.58 395.63 lineto
1789.39 403.75 lineto
closepath fill
1 setlinewidth
solid
0 0 0 edgecolor
newpath 1792.96 397.73 moveto
1782.58 395.63 lineto
1789.39 403.75 lineto
closepath stroke
grestore
% qtwayland-opensource-src
gsave
1 setlinewidth
0 0 0 nodecolor
1991.54 378 103.18 18 ellipse_path stroke
0 0 0 nodecolor
14 /Times-Roman set_font
1920.04 374.3 moveto 143 (qtwayland-opensource-src) alignedtext
grestore
% qtbase-opensource-src->qtwayland-opensource-src
gsave
1 setlinewidth
0 0 0 edgecolor
newpath 1900.14 432.76 moveto
1916.39 423.2 1937.16 410.99 1954.78 400.62 curveto
stroke
0 0 0 edgecolor
newpath 1956.83 403.48 moveto
1963.68 395.39 lineto
1953.28 397.44 lineto
closepath fill
1 setlinewidth
solid
0 0 0 edgecolor
newpath 1956.83 403.48 moveto
1963.68 395.39 lineto
1953.28 397.44 lineto
closepath stroke
grestore
% qtimageformats-opensource-src
gsave
1 setlinewidth
0 0 0 nodecolor
2235.54 378 122.68 18 ellipse_path stroke
0 0 0 nodecolor
14 /Times-Roman set_font
2149.04 374.3 moveto 173 (qtimageformats-opensource-src) alignedtext
grestore
% qtbase-opensource-src->qtimageformats-opensource-src
gsave
1 setlinewidth
0 0 0 edgecolor
newpath 1934.53 437.05 moveto
1995.2 425.35 2087.94 407.46 2154.45 394.64 curveto
stroke
0 0 0 edgecolor
newpath 2155.32 398.03 moveto
2164.47 392.7 lineto
2153.99 391.16 lineto
closepath fill
1 setlinewidth
solid
0 0 0 edgecolor
newpath 2155.32 398.03 moveto
2164.47 392.7 lineto
2153.99 391.16 lineto
closepath stroke
grestore
% qttools-opensource-src
gsave
1 setlinewidth
0 0 0 nodecolor
1448.54 162 90.98 18 ellipse_path stroke
0 0 0 nodecolor
14 /Times-Roman set_font
1386.54 158.3 moveto 124 (qttools-opensource-src) alignedtext
grestore
% qtquickcontrols-opensource-src
gsave
1 setlinewidth
0 0 0 nodecolor
121.54 90 121.58 18 ellipse_path stroke
0 0 0 nodecolor
14 /Times-Roman set_font
36.04 86.3 moveto 171 (qtquickcontrols-opensource-src) alignedtext
grestore
% qttools-opensource-src->qtquickcontrols-opensource-src
gsave
1 setlinewidth
0 0 0 edgecolor
newpath 1358.27 159.65 moveto
1158.48 156.07 663.92 144.03 251.54 108 curveto
239.94 106.99 227.78 105.7 215.75 104.29 curveto
stroke
0 0 0 edgecolor
newpath 216.04 100.8 moveto
205.69 103.08 lineto
215.2 107.75 lineto
closepath fill
1 setlinewidth
solid
0 0 0 edgecolor
newpath 216.04 100.8 moveto
205.69 103.08 lineto
215.2 107.75 lineto
closepath stroke
grestore
% qtwebkit-examples-opensource-src
gsave
1 setlinewidth
0 0 0 nodecolor
394.54 90 133.78 18 ellipse_path stroke
0 0 0 nodecolor
14 /Times-Roman set_font
299.54 86.3 moveto 190 (qtwebkit-examples-opensource-src) alignedtext
grestore
% qttools-opensource-src->qtwebkit-examples-opensource-src
gsave
1 setlinewidth
0 0 0 edgecolor
newpath 1360.15 157.63 moveto
1197.25 151.02 838.76 134.64 537.54 108 curveto
524.74 106.87 511.31 105.51 498.03 104.05 curveto
stroke
0 0 0 edgecolor
newpath 498.24 100.55 moveto
487.92 102.92 lineto
497.47 107.51 lineto
closepath fill
1 setlinewidth
solid
0 0 0 edgecolor
newpath 498.24 100.55 moveto
487.92 102.92 lineto
497.47 107.51 lineto
closepath stroke
grestore
% qttranslations-opensource-src
gsave
1 setlinewidth
0 0 0 nodecolor
660.54 90 114.28 18 ellipse_path stroke
0 0 0 nodecolor
14 /Times-Roman set_font
580.54 86.3 moveto 160 (qttranslations-opensource-src) alignedtext
grestore
% qttools-opensource-src->qttranslations-opensource-src
gsave
1 setlinewidth
0 0 0 edgecolor
newpath 1363.1 155.78 moveto
1236.38 147.67 991.22 130.61 783.54 108 curveto
773.04 106.86 762.05 105.53 751.15 104.13 curveto
stroke
0 0 0 edgecolor
newpath 751.54 100.65 moveto
741.18 102.82 lineto
750.64 107.59 lineto
closepath fill
1 setlinewidth
solid
0 0 0 edgecolor
newpath 751.54 100.65 moveto
741.18 102.82 lineto
750.64 107.59 lineto
closepath stroke
grestore
% qtlocation-opensource-src
gsave
1 setlinewidth
0 0 0 nodecolor
894.54 90 102.08 18 ellipse_path stroke
0 0 0 nodecolor
14 /Times-Roman set_font
824.04 86.3 moveto 141 (qtlocation-opensource-src) alignedtext
grestore
% qttools-opensource-src->qtlocation-opensource-src
gsave
1 setlinewidth
0 0 0 edgecolor
newpath 1370.82 152.48 moveto
1282.28 142.6 1133.32 125.42 1005.54 108 curveto
996.6 106.78 987.27 105.45 977.98 104.08 curveto
stroke
0 0 0 edgecolor
newpath 978.34 100.6 moveto
967.93 102.59 lineto
977.31 107.52 lineto
closepath fill
1 setlinewidth
solid
0 0 0 edgecolor
newpath 978.34 100.6 moveto
967.93 102.59 lineto
977.31 107.52 lineto
closepath stroke
grestore
% qtmultimedia-opensource-src
gsave
1 setlinewidth
0 0 0 nodecolor
1128.54 90 114.28 18 ellipse_path stroke
0 0 0 nodecolor
14 /Times-Roman set_font
1048.54 86.3 moveto 160 (qtmultimedia-opensource-src) alignedtext
grestore
% qttools-opensource-src->qtmultimedia-opensource-src
gsave
1 setlinewidth
0 0 0 edgecolor
newpath 1389.85 148.16 moveto
1337.08 136.62 1259.34 119.61 1202.37 107.15 curveto
stroke
0 0 0 edgecolor
newpath 1202.86 103.68 moveto
1192.35 104.96 lineto
1201.37 110.51 lineto
closepath fill
1 setlinewidth
solid
0 0 0 edgecolor
newpath 1202.86 103.68 moveto
1192.35 104.96 lineto
1201.37 110.51 lineto
closepath stroke
grestore
% qtsvg-opensource-src
gsave
1 setlinewidth
0 0 0 nodecolor
1346.54 90 85.59 18 ellipse_path stroke
0 0 0 nodecolor
14 /Times-Roman set_font
1288.54 86.3 moveto 116 (qtsvg-opensource-src) alignedtext
grestore
% qttools-opensource-src->qtsvg-opensource-src
gsave
1 setlinewidth
0 0 0 edgecolor
newpath 1424.62 144.59 moveto
1410.94 135.2 1393.59 123.29 1378.72 113.09 curveto
stroke
0 0 0 edgecolor
newpath 1380.53 110.08 moveto
1370.3 107.31 lineto
1376.57 115.85 lineto
closepath fill
1 setlinewidth
solid
0 0 0 edgecolor
newpath 1380.53 110.08 moveto
1370.3 107.31 lineto
1376.57 115.85 lineto
closepath stroke
grestore
% qtenginio-opensource-src
gsave
1 setlinewidth
0 0 0 nodecolor
1550.54 90 100.18 18 ellipse_path stroke
0 0 0 nodecolor
14 /Times-Roman set_font
1481.54 86.3 moveto 138 (qtenginio-opensource-src) alignedtext
grestore
% qttools-opensource-src->qtenginio-opensource-src
gsave
1 setlinewidth
0 0 0 edgecolor
newpath 1472.45 144.59 moveto
1486.04 135.26 1503.24 123.46 1518.03 113.31 curveto
stroke
0 0 0 edgecolor
newpath 1520.16 116.1 moveto
1526.42 107.55 lineto
1516.2 110.32 lineto
closepath fill
1 setlinewidth
solid
0 0 0 edgecolor
newpath 1520.16 116.1 moveto
1526.42 107.55 lineto
1516.2 110.32 lineto
closepath stroke
grestore
% qtgraphicaleffects-opensource-src
gsave
1 setlinewidth
0 0 0 nodecolor
1798.54 90 129.98 18 ellipse_path stroke
0 0 0 nodecolor
14 /Times-Roman set_font
1706.54 86.3 moveto 184 (qtgraphicaleffects-opensource-src) alignedtext
grestore
% qttools-opensource-src->qtgraphicaleffects-opensource-src
gsave
1 setlinewidth
0 0 0 edgecolor
newpath 1510.31 148.65 moveto
1568.05 137.1 1654.63 119.78 1717.82 107.14 curveto
stroke
0 0 0 edgecolor
newpath 1718.63 110.55 moveto
1727.75 105.16 lineto
1717.26 103.69 lineto
closepath fill
1 setlinewidth
solid
0 0 0 edgecolor
newpath 1718.63 110.55 moveto
1727.75 105.16 lineto
1717.26 103.69 lineto
closepath stroke
grestore
% qtsensors-opensource-src
gsave
1 setlinewidth
0 0 0 nodecolor
2045.54 90 99.38 18 ellipse_path stroke
0 0 0 nodecolor
14 /Times-Roman set_font
1977.04 86.3 moveto 137 (qtsensors-opensource-src) alignedtext
grestore
% qttools-opensource-src->qtsensors-opensource-src
gsave
1 setlinewidth
0 0 0 edgecolor
newpath 1513.25 149.26 moveto
1524.97 147.34 1537.1 145.5 1548.54 144 curveto
1720.69 121.43 1765.25 129.51 1937.54 108 curveto
1946.46 106.89 1955.78 105.6 1965.04 104.25 curveto
stroke
0 0 0 edgecolor
newpath 1965.67 107.69 moveto
1975.05 102.76 lineto
1964.64 100.77 lineto
closepath fill
1 setlinewidth
solid
0 0 0 edgecolor
newpath 1965.67 107.69 moveto
1975.05 102.76 lineto
1964.64 100.77 lineto
closepath stroke
grestore
% qtserialport-opensource-src
gsave
1 setlinewidth
0 0 0 nodecolor
2269.54 90 106.68 18 ellipse_path stroke
0 0 0 nodecolor
14 /Times-Roman set_font
2195.54 86.3 moveto 148 (qtserialport-opensource-src) alignedtext
grestore
% qttools-opensource-src->qtserialport-opensource-src
gsave
1 setlinewidth
0 0 0 edgecolor
newpath 1512.14 149.12 moveto
1524.2 147.17 1536.73 145.35 1548.54 144 curveto
1816.16 113.38 1885.59 135.55 2153.54 108 curveto
2163.67 106.96 2174.26 105.68 2184.76 104.28 curveto
stroke
0 0 0 edgecolor
newpath 2185.34 107.74 moveto
2194.78 102.92 lineto
2184.4 100.8 lineto
closepath fill
1 setlinewidth
solid
0 0 0 edgecolor
newpath 2185.34 107.74 moveto
2194.78 102.92 lineto
2184.4 100.8 lineto
closepath stroke
grestore
% qtwebsockets-opensource-src
gsave
1 setlinewidth
0 0 0 nodecolor
2508.54 90 114.28 18 ellipse_path stroke
0 0 0 nodecolor
14 /Times-Roman set_font
2428.54 86.3 moveto 160 (qtwebsockets-opensource-src) alignedtext
grestore
% qttools-opensource-src->qtwebsockets-opensource-src
gsave
1 setlinewidth
0 0 0 edgecolor
newpath 1511.85 149 moveto
1523.99 147.05 1536.63 145.26 1548.54 144 curveto
1918.81 104.72 2014.71 141.53 2385.54 108 curveto
2396.58 107 2408.15 105.72 2419.59 104.3 curveto
stroke
0 0 0 edgecolor
newpath 2420.12 107.77 moveto
2429.6 103.03 lineto
2419.23 100.82 lineto
closepath fill
1 setlinewidth
solid
0 0 0 edgecolor
newpath 2420.12 107.77 moveto
2429.6 103.03 lineto
2419.23 100.82 lineto
closepath stroke
grestore
% qtx11extras-opensource-src
gsave
1 setlinewidth
0 0 0 nodecolor
2748.54 90 107.78 18 ellipse_path stroke
0 0 0 nodecolor
14 /Times-Roman set_font
2673.54 86.3 moveto 150 (qtx11extras-opensource-src) alignedtext
grestore
% qttools-opensource-src->qtx11extras-opensource-src
gsave
1 setlinewidth
0 0 0 edgecolor
newpath 1511.58 148.95 moveto
1523.8 147 1536.54 145.21 1548.54 144 curveto
2027.69 95.53 2151.84 150.69 2631.54 108 curveto
2642.11 107.06 2653.17 105.81 2664.11 104.4 curveto
stroke
0 0 0 edgecolor
newpath 2664.65 107.86 moveto
2674.1 103.08 lineto
2663.73 100.92 lineto
closepath fill
1 setlinewidth
solid
0 0 0 edgecolor
newpath 2664.65 107.86 moveto
2674.1 103.08 lineto
2663.73 100.92 lineto
closepath stroke
grestore
% qtdoc-opensource-src
gsave
1 setlinewidth
0 0 0 nodecolor
1550.54 18 86.38 18 ellipse_path stroke
0 0 0 nodecolor
14 /Times-Roman set_font
1492.04 14.3 moveto 117 (qtdoc-opensource-src) alignedtext
grestore
% qtquickcontrols-opensource-src->qtdoc-opensource-src
gsave
1 setlinewidth
0 0 0 edgecolor
newpath 205.34 76.92 moveto
220.68 75.03 236.57 73.28 251.54 72 curveto
700.37 33.57 1238.9 22.85 1454.47 19.99 curveto
stroke
0 0 0 edgecolor
newpath 1454.54 23.49 moveto
1464.49 19.86 lineto
1454.45 16.49 lineto
closepath fill
1 setlinewidth
solid
0 0 0 edgecolor
newpath 1454.54 23.49 moveto
1464.49 19.86 lineto
1454.45 16.49 lineto
closepath stroke
grestore
% qtwebkit-examples-opensource-src->qtdoc-opensource-src
gsave
1 setlinewidth
0 0 0 edgecolor
newpath 487.52 77.04 moveto
504.16 75.16 521.35 73.38 537.54 72 curveto
874.48 43.19 1275.89 27.78 1455.49 21.88 curveto
stroke
0 0 0 edgecolor
newpath 1455.82 25.37 moveto
1465.7 21.54 lineto
1455.59 18.37 lineto
closepath fill
1 setlinewidth
solid
0 0 0 edgecolor
newpath 1455.82 25.37 moveto
1465.7 21.54 lineto
1455.59 18.37 lineto
closepath stroke
grestore
% qtlocation-opensource-src->qtdoc-opensource-src
gsave
1 setlinewidth
0 0 0 edgecolor
newpath 967 77.31 moveto
979.83 75.41 993.06 73.56 1005.54 72 curveto
1165.68 51.97 1353.11 35.19 1461.21 26.17 curveto
stroke
0 0 0 edgecolor
newpath 1461.74 29.64 moveto
1471.42 25.32 lineto
1461.16 22.66 lineto
closepath fill
1 setlinewidth
solid
0 0 0 edgecolor
newpath 1461.74 29.64 moveto
1471.42 25.32 lineto
1461.16 22.66 lineto
closepath stroke
grestore
% qtmultimedia-opensource-src->qtdoc-opensource-src
gsave
1 setlinewidth
0 0 0 edgecolor
newpath 1204.47 76.4 moveto
1281.12 63.69 1398.79 44.17 1475.22 31.49 curveto
stroke
0 0 0 edgecolor
newpath 1475.96 34.92 moveto
1485.25 29.83 lineto
1474.81 28.01 lineto
closepath fill
1 setlinewidth
solid
0 0 0 edgecolor
newpath 1475.96 34.92 moveto
1485.25 29.83 lineto
1474.81 28.01 lineto
closepath stroke
grestore
% qtsvg-opensource-src->qtdoc-opensource-src
gsave
1 setlinewidth
0 0 0 edgecolor
newpath 1389.3 74.33 moveto
1420.99 63.45 1464.35 48.57 1498.13 36.98 curveto
stroke
0 0 0 edgecolor
newpath 1499.51 40.21 moveto
1507.83 33.65 lineto
1497.24 33.59 lineto
closepath fill
1 setlinewidth
solid
0 0 0 edgecolor
newpath 1499.51 40.21 moveto
1507.83 33.65 lineto
1497.24 33.59 lineto
closepath stroke
grestore
% qtenginio-opensource-src->qtdoc-opensource-src
gsave
1 setlinewidth
0 0 0 edgecolor
newpath 1550.54 71.7 moveto
1550.54 63.98 1550.54 54.71 1550.54 46.11 curveto
stroke
0 0 0 edgecolor
newpath 1554.04 46.1 moveto
1550.54 36.1 lineto
1547.04 46.1 lineto
closepath fill
1 setlinewidth
solid
0 0 0 edgecolor
newpath 1554.04 46.1 moveto
1550.54 36.1 lineto
1547.04 46.1 lineto
closepath stroke
grestore
% qtgraphicaleffects-opensource-src->qtdoc-opensource-src
gsave
1 setlinewidth
0 0 0 edgecolor
newpath 1744.11 73.64 moveto
1704.33 62.41 1650.43 47.19 1609.6 35.67 curveto
stroke
0 0 0 edgecolor
newpath 1610.36 32.25 moveto
1599.79 32.9 lineto
1608.46 38.99 lineto
closepath fill
1 setlinewidth
solid
0 0 0 edgecolor
newpath 1610.36 32.25 moveto
1599.79 32.9 lineto
1608.46 38.99 lineto
closepath stroke
grestore
% qtsensors-opensource-src->qtdoc-opensource-src
gsave
1 setlinewidth
0 0 0 edgecolor
newpath 1973.82 77.51 moveto
1961.72 75.62 1949.28 73.73 1937.54 72 curveto
1832.08 56.48 1710.22 40.04 1631.86 29.66 curveto
stroke
0 0 0 edgecolor
newpath 1631.94 26.14 moveto
1621.57 28.29 lineto
1631.03 33.08 lineto
closepath fill
1 setlinewidth
solid
0 0 0 edgecolor
newpath 1631.94 26.14 moveto
1621.57 28.29 lineto
1631.03 33.08 lineto
closepath stroke
grestore
% qtserialport-opensource-src->qtdoc-opensource-src
gsave
1 setlinewidth
0 0 0 edgecolor
newpath 2193.81 77.26 moveto
2180.41 75.36 2166.58 73.53 2153.54 72 curveto
1972.25 50.77 1759.39 33.95 1641.24 25.33 curveto
stroke
0 0 0 edgecolor
newpath 1641.39 21.83 moveto
1631.16 24.6 lineto
1640.88 28.81 lineto
closepath fill
1 setlinewidth
solid
0 0 0 edgecolor
newpath 1641.39 21.83 moveto
1631.16 24.6 lineto
1640.88 28.81 lineto
closepath stroke
grestore
% qtwebsockets-opensource-src->qtdoc-opensource-src
gsave
1 setlinewidth
0 0 0 edgecolor
newpath 2428.58 77.08 moveto
2414.27 75.19 2399.48 73.4 2385.54 72 curveto
2117.64 45.02 1799.91 29.32 1644.98 22.72 curveto
stroke
0 0 0 edgecolor
newpath 1644.7 19.2 moveto
1634.56 22.28 lineto
1644.4 26.2 lineto
closepath fill
1 setlinewidth
solid
0 0 0 edgecolor
newpath 1644.7 19.2 moveto
1634.56 22.28 lineto
1644.4 26.2 lineto
closepath stroke
grestore
% qtx11extras-opensource-src->qtdoc-opensource-src
gsave
1 setlinewidth
0 0 0 edgecolor
newpath 2673.46 77.01 moveto
2659.55 75.1 2645.13 73.32 2631.54 72 curveto
2268.84 36.84 1835.3 24.54 1646.4 20.64 curveto
stroke
0 0 0 edgecolor
newpath 1646.29 17.13 moveto
1636.22 20.43 lineto
1646.15 24.13 lineto
closepath fill
1 setlinewidth
solid
0 0 0 edgecolor
newpath 1646.29 17.13 moveto
1636.22 20.43 lineto
1646.15 24.13 lineto
closepath stroke
grestore
% qtwebkit-opensource-src
gsave
1 setlinewidth
0 0 0 nodecolor
1551.54 234 97.48 18 ellipse_path stroke
0 0 0 nodecolor
14 /Times-Roman set_font
1484.54 230.3 moveto 134 (qtwebkit-opensource-src) alignedtext
grestore
% qtscript-opensource-src->qtwebkit-opensource-src
gsave
1 setlinewidth
0 0 0 edgecolor
newpath 1551.54 287.7 moveto
1551.54 279.98 1551.54 270.71 1551.54 262.11 curveto
stroke
0 0 0 edgecolor
newpath 1555.04 262.1 moveto
1551.54 252.1 lineto
1548.04 262.1 lineto
closepath fill
1 setlinewidth
solid
0 0 0 edgecolor
newpath 1555.04 262.1 moveto
1551.54 252.1 lineto
1548.04 262.1 lineto
closepath stroke
grestore
% qtdeclarative-opensource-src
gsave
1 setlinewidth
0 0 0 nodecolor
1774.54 306 112.38 18 ellipse_path stroke
0 0 0 nodecolor
14 /Times-Roman set_font
1696.04 302.3 moveto 157 (qtdeclarative-opensource-src) alignedtext
grestore
% qtxmlpatterns-opensource-src->qtdeclarative-opensource-src
gsave
1 setlinewidth
0 0 0 edgecolor
newpath 1759.48 359.7 moveto
1761.71 351.9 1764.39 342.51 1766.87 333.83 curveto
stroke
0 0 0 edgecolor
newpath 1770.27 334.68 moveto
1769.65 324.1 lineto
1763.54 332.76 lineto
closepath fill
1 setlinewidth
solid
0 0 0 edgecolor
newpath 1770.27 334.68 moveto
1769.65 324.1 lineto
1763.54 332.76 lineto
closepath stroke
grestore
% qtwebkit-opensource-src->qttools-opensource-src
gsave
1 setlinewidth
0 0 0 edgecolor
newpath 1527.13 216.41 moveto
1513.4 207.08 1496.09 195.32 1481.21 185.2 curveto
stroke
0 0 0 edgecolor
newpath 1483.01 182.2 moveto
1472.77 179.47 lineto
1479.08 187.99 lineto
closepath fill
1 setlinewidth
solid
0 0 0 edgecolor
newpath 1483.01 182.2 moveto
1472.77 179.47 lineto
1479.08 187.99 lineto
closepath stroke
grestore
% qtquick1-opensource-src
gsave
1 setlinewidth
0 0 0 nodecolor
1654.54 162 97.48 18 ellipse_path stroke
0 0 0 nodecolor
14 /Times-Roman set_font
1587.54 158.3 moveto 134 (qtquick1-opensource-src) alignedtext
grestore
% qtwebkit-opensource-src->qtquick1-opensource-src
gsave
1 setlinewidth
0 0 0 edgecolor
newpath 1575.95 216.41 moveto
1589.67 207.08 1606.99 195.32 1621.87 185.2 curveto
stroke
0 0 0 edgecolor
newpath 1624 187.99 moveto
1630.3 179.47 lineto
1620.07 182.2 lineto
closepath fill
1 setlinewidth
solid
0 0 0 edgecolor
newpath 1624 187.99 moveto
1630.3 179.47 lineto
1620.07 182.2 lineto
closepath stroke
grestore
% qtdeclarative-opensource-src->qtwebkit-opensource-src
gsave
1 setlinewidth
0 0 0 edgecolor
newpath 1725.88 289.72 moveto
1691.44 278.91 1645.12 264.38 1608.89 253 curveto
stroke
0 0 0 edgecolor
newpath 1609.54 249.54 moveto
1598.95 249.88 lineto
1607.44 256.22 lineto
closepath fill
1 setlinewidth
solid
0 0 0 edgecolor
newpath 1609.54 249.54 moveto
1598.95 249.88 lineto
1607.44 256.22 lineto
closepath stroke
grestore
% qtconnectivity-opensource-src
gsave
1 setlinewidth
0 0 0 nodecolor
1783.54 234 116.98 18 ellipse_path stroke
0 0 0 nodecolor
14 /Times-Roman set_font
1701.54 230.3 moveto 164 (qtconnectivity-opensource-src) alignedtext
grestore
% qtdeclarative-opensource-src->qtconnectivity-opensource-src
gsave
1 setlinewidth
0 0 0 edgecolor
newpath 1776.76 287.7 moveto
1777.76 279.98 1778.95 270.71 1780.05 262.11 curveto
stroke
0 0 0 edgecolor
newpath 1783.54 262.47 moveto
1781.34 252.1 lineto
1776.59 261.58 lineto
closepath fill
1 setlinewidth
solid
0 0 0 edgecolor
newpath 1783.54 262.47 moveto
1781.34 252.1 lineto
1776.59 261.58 lineto
closepath stroke
grestore
endpage
showpage
grestore
%%PageTrailer
%%EndPage: 1
%%Trailer
%%Pages: 1
%%BoundingBox: 36 36 576 139
end
restore
%%EOF
